"delito_investigado","mes","departamento_jcial"
"DIFUSION DE IMAGENES DE MENORES DE 18 AÑOS (ART. 128 CODIGO PENAL)",2018-09-06,"Paraná"
"DIFUSION DE IMAGENES DE MENORES DE 18 AÑOS (ART. 128 CODIGO PENAL)",2018-09-25,"Paraná"
"DIFUSION DE IMAGENES DE MENORES DE 18 AÑOS (ART. 128 CODIGO PENAL)",2018-09-13,"Concordia"
"DIFUSION DE IMAGENES DE MENORES DE 18 AÑOS (ART. 128 CODIGO PENAL)",2018-09-27,"Gualeguay"
"INFRACCION AL ARTICULO 128 del CODIGO PENAL",2018-10-05,"Gualeguay"
"SU DENUNCIA GROOMING",2018-10-23,"Concordia"
"DIFUSION DE IMAGENES DE MENORES DE 18 AÑOS (ART. 128 CODIGO PENAL)",2018-11-21,"Concordia"
"GROOMING",2018-11-08,"Paraná"
"DIFUSION DE IMAGENES DE MENORES DE 18 AÑOS (ART. 128 CODIGO PENAL)",2018-12-01,"Concordia"
"GROOMING",2018-12-19,"Paraná"
