"fuero";"tipo";"indicador";"disponible";"tabla";"tabla_desagregada";"grafico";"serie_temporal";"serie_temporal_org_facet";"primaria_consolidada"
"Civil y Comercial";"cam";"iniciados";NA;NA;NA;NA;NA;NA;NA
"Civil y Comercial";"cam";"archivados";NA;NA;NA;NA;NA;NA;NA
"Civil y Comercial";"cam";"resueltos";NA;NA;NA;NA;NA;NA;NA
"Civil y Comercial";"cam";"audiencias";NA;NA;NA;NA;NA;NA;NA
"Civil y Comercial";"cam";"centramite";NA;NA;NA;NA;NA;NA;NA
"Civil y Comercial";"cam";"duracion";NA;NA;NA;NA;NA;NA;NA
"Civil y Comercial";"cen";"iniciados";NA;NA;NA;NA;NA;NA;NA
"Civil y Comercial";"cen";"archivados";NA;NA;NA;NA;NA;NA;NA
"Civil y Comercial";"cen";"resueltos";NA;NA;NA;NA;NA;NA;NA
"Civil y Comercial";"cen";"audiencias";NA;NA;NA;NA;NA;NA;NA
"Civil y Comercial";"cen";"centramite";NA;NA;NA;NA;NA;NA;NA
"Civil y Comercial";"cen";"duracion";NA;NA;NA;NA;NA;NA;NA
"Civil y Comercial";"ein";"iniciados";NA;NA;NA;NA;NA;NA;NA
"Civil y Comercial";"ein";"archivados";NA;NA;NA;NA;NA;NA;NA
"Civil y Comercial";"ein";"resueltos";NA;NA;NA;NA;NA;NA;NA
"Civil y Comercial";"ein";"audiencias";NA;NA;NA;NA;NA;NA;NA
"Civil y Comercial";"ein";"centramite";NA;NA;NA;NA;NA;NA;NA
"Civil y Comercial";"ein";"duracion";NA;NA;NA;NA;NA;NA;NA
"Civil y Comercial";"jdo";"iniciados";NA;NA;NA;NA;NA;NA;NA
"Civil y Comercial";"jdo";"archivados";NA;NA;NA;NA;NA;NA;NA
"Civil y Comercial";"jdo";"resueltos";NA;NA;NA;NA;NA;NA;NA
"Civil y Comercial";"jdo";"audiencias";NA;NA;NA;NA;NA;NA;NA
"Civil y Comercial";"jdo";"centramite";NA;NA;NA;NA;NA;NA;NA
"Civil y Comercial";"jdo";"duracion";NA;NA;NA;NA;NA;NA;NA
"Civil y Comercial";"mui";"iniciados";NA;NA;NA;NA;NA;NA;NA
"Civil y Comercial";"mui";"archivados";NA;NA;NA;NA;NA;NA;NA
"Civil y Comercial";"mui";"resueltos";NA;NA;NA;NA;NA;NA;NA
"Civil y Comercial";"mui";"audiencias";NA;NA;NA;NA;NA;NA;NA
"Civil y Comercial";"mui";"centramite";NA;NA;NA;NA;NA;NA;NA
"Civil y Comercial";"mui";"duracion";NA;NA;NA;NA;NA;NA;NA
"Civil y Comercial";"sal";"iniciados";NA;NA;NA;NA;NA;NA;NA
"Civil y Comercial";"sal";"archivados";NA;NA;NA;NA;NA;NA;NA
"Civil y Comercial";"sal";"resueltos";NA;NA;NA;NA;NA;NA;NA
"Civil y Comercial";"sal";"audiencias";NA;NA;NA;NA;NA;NA;NA
"Civil y Comercial";"sal";"centramite";NA;NA;NA;NA;NA;NA;NA
"Civil y Comercial";"sal";"duracion";NA;NA;NA;NA;NA;NA;NA
"ConAdm";"cam";"iniciados";NA;NA;NA;NA;NA;NA;NA
"ConAdm";"cam";"archivados";NA;NA;NA;NA;NA;NA;NA
"ConAdm";"cam";"resueltos";NA;NA;NA;NA;NA;NA;NA
"ConAdm";"cam";"audiencias";NA;NA;NA;NA;NA;NA;NA
"ConAdm";"cam";"centramite";NA;NA;NA;NA;NA;NA;NA
"ConAdm";"cam";"duracion";NA;NA;NA;NA;NA;NA;NA
"ConAdm";"stj";"iniciados";NA;NA;NA;NA;NA;NA;NA
"ConAdm";"stj";"archivados";NA;NA;NA;NA;NA;NA;NA
"ConAdm";"stj";"resueltos";NA;NA;NA;NA;NA;NA;NA
"ConAdm";"stj";"audiencias";NA;NA;NA;NA;NA;NA;NA
"ConAdm";"stj";"centramite";NA;NA;NA;NA;NA;NA;NA
"ConAdm";"stj";"duracion";NA;NA;NA;NA;NA;NA;NA
"Laboral";"cam";"iniciados";NA;NA;NA;NA;NA;NA;NA
"Laboral";"cam";"archivados";NA;NA;NA;NA;NA;NA;NA
"Laboral";"cam";"resueltos";NA;NA;NA;NA;NA;NA;NA
"Laboral";"cam";"audiencias";NA;NA;NA;NA;NA;NA;NA
"Laboral";"cam";"centramite";NA;NA;NA;NA;NA;NA;NA
"Laboral";"cam";"duracion";NA;NA;NA;NA;NA;NA;NA
"Laboral";"jdo";"iniciados";NA;NA;NA;NA;NA;NA;NA
"Laboral";"jdo";"archivados";NA;NA;NA;NA;NA;NA;NA
"Laboral";"jdo";"resueltos";NA;NA;NA;NA;NA;NA;NA
"Laboral";"jdo";"audiencias";NA;NA;NA;NA;NA;NA;NA
"Laboral";"jdo";"centramite";NA;NA;NA;NA;NA;NA;NA
"Laboral";"jdo";"duracion";NA;NA;NA;NA;NA;NA;NA
"Laboral";"sal";"iniciados";NA;NA;NA;NA;NA;NA;NA
"Laboral";"sal";"archivados";NA;NA;NA;NA;NA;NA;NA
"Laboral";"sal";"resueltos";NA;NA;NA;NA;NA;NA;NA
"Laboral";"sal";"audiencias";NA;NA;NA;NA;NA;NA;NA
"Laboral";"sal";"centramite";NA;NA;NA;NA;NA;NA;NA
"Laboral";"sal";"duracion";NA;NA;NA;NA;NA;NA;NA
"Penal";"cam";"iniciados";NA;NA;NA;NA;NA;NA;NA
"Penal";"cam";"archivados";NA;NA;NA;NA;NA;NA;NA
"Penal";"cam";"resueltos";NA;NA;NA;NA;NA;NA;NA
"Penal";"cam";"audiencias";NA;NA;NA;NA;NA;NA;NA
"Penal";"cam";"centramite";NA;NA;NA;NA;NA;NA;NA
"Penal";"cam";"duracion";NA;NA;NA;NA;NA;NA;NA
"Penal";"del";"iniciados";NA;NA;NA;NA;NA;NA;NA
"Penal";"del";"archivados";NA;NA;NA;NA;NA;NA;NA
"Penal";"del";"resueltos";NA;NA;NA;NA;NA;NA;NA
"Penal";"del";"audiencias";NA;NA;NA;NA;NA;NA;NA
"Penal";"del";"centramite";NA;NA;NA;NA;NA;NA;NA
"Penal";"del";"duracion";NA;NA;NA;NA;NA;NA;NA
"Penal";"ein";"iniciados";NA;NA;NA;NA;NA;NA;NA
"Penal";"ein";"archivados";NA;NA;NA;NA;NA;NA;NA
"Penal";"ein";"resueltos";NA;NA;NA;NA;NA;NA;NA
"Penal";"ein";"audiencias";NA;NA;NA;NA;NA;NA;NA
"Penal";"ein";"centramite";NA;NA;NA;NA;NA;NA;NA
"Penal";"ein";"duracion";NA;NA;NA;NA;NA;NA;NA
"Penal";"equ";"iniciados";NA;NA;NA;NA;NA;NA;NA
"Penal";"equ";"archivados";NA;NA;NA;NA;NA;NA;NA
"Penal";"equ";"resueltos";NA;NA;NA;NA;NA;NA;NA
"Penal";"equ";"audiencias";NA;NA;NA;NA;NA;NA;NA
"Penal";"equ";"centramite";NA;NA;NA;NA;NA;NA;NA
"Penal";"equ";"duracion";NA;NA;NA;NA;NA;NA;NA
"Penal";"jdo";"iniciados";NA;NA;NA;NA;NA;NA;NA
"Penal";"jdo";"archivados";NA;NA;NA;NA;NA;NA;NA
"Penal";"jdo";"resueltos";NA;NA;NA;NA;NA;NA;NA
"Penal";"jdo";"audiencias";NA;NA;NA;NA;NA;NA;NA
"Penal";"jdo";"centramite";NA;NA;NA;NA;NA;NA;NA
"Penal";"jdo";"duracion";NA;NA;NA;NA;NA;NA;NA
"Penal";"jez";"iniciados";NA;NA;NA;NA;NA;NA;NA
"Penal";"jez";"archivados";NA;NA;NA;NA;NA;NA;NA
"Penal";"jez";"resueltos";NA;NA;NA;NA;NA;NA;NA
"Penal";"jez";"audiencias";NA;NA;NA;NA;NA;NA;NA
"Penal";"jez";"centramite";NA;NA;NA;NA;NA;NA;NA
"Penal";"jez";"duracion";NA;NA;NA;NA;NA;NA;NA
"Penal";"oga";"iniciados";NA;NA;NA;NA;NA;NA;NA
"Penal";"oga";"archivados";NA;NA;NA;NA;NA;NA;NA
"Penal";"oga";"resueltos";NA;NA;NA;NA;NA;NA;NA
"Penal";"oga";"audiencias";NA;NA;NA;NA;NA;NA;NA
"Penal";"oga";"centramite";NA;NA;NA;NA;NA;NA;NA
"Penal";"oga";"duracion";NA;NA;NA;NA;NA;NA;NA
"Penal";"oma";"iniciados";NA;NA;NA;NA;NA;NA;NA
"Penal";"oma";"archivados";NA;NA;NA;NA;NA;NA;NA
"Penal";"oma";"resueltos";NA;NA;NA;NA;NA;NA;NA
"Penal";"oma";"audiencias";NA;NA;NA;NA;NA;NA;NA
"Penal";"oma";"centramite";NA;NA;NA;NA;NA;NA;NA
"Penal";"oma";"duracion";NA;NA;NA;NA;NA;NA;NA
"Penal";"sal";"iniciados";NA;NA;NA;NA;NA;NA;NA
"Penal";"sal";"archivados";NA;NA;NA;NA;NA;NA;NA
"Penal";"sal";"resueltos";NA;NA;NA;NA;NA;NA;NA
"Penal";"sal";"audiencias";NA;NA;NA;NA;NA;NA;NA
"Penal";"sal";"centramite";NA;NA;NA;NA;NA;NA;NA
"Penal";"sal";"duracion";NA;NA;NA;NA;NA;NA;NA
"Penal";"tja";"iniciados";NA;NA;NA;NA;NA;NA;NA
"Penal";"tja";"archivados";NA;NA;NA;NA;NA;NA;NA
"Penal";"tja";"resueltos";NA;NA;NA;NA;NA;NA;NA
"Penal";"tja";"audiencias";NA;NA;NA;NA;NA;NA;NA
"Penal";"tja";"centramite";NA;NA;NA;NA;NA;NA;NA
"Penal";"tja";"duracion";NA;NA;NA;NA;NA;NA;NA
"Penal";"tra";"iniciados";NA;NA;NA;NA;NA;NA;NA
"Penal";"tra";"archivados";NA;NA;NA;NA;NA;NA;NA
"Penal";"tra";"resueltos";NA;NA;NA;NA;NA;NA;NA
"Penal";"tra";"audiencias";NA;NA;NA;NA;NA;NA;NA
"Penal";"tra";"centramite";NA;NA;NA;NA;NA;NA;NA
"Penal";"tra";"duracion";NA;NA;NA;NA;NA;NA;NA
