"iep","data_interval_start","data_interval_end","months(data_interval_start)","causas_en_tramite","resolucion_archivo","resolucion_elevacion_a_juicio","resolucion_mediacion_conciliacion","resolucion_prescripcion","resolucion_probation","resolucion_procesamiento","resolucion_rebeldia","resolucion_sobreseimiento"
"jdopen0000fel",2018-03-01 00:00:00,2018-04-01 01:00:00,"marzo",104,12,0,0,18,0,0,0,2
"jdopen0000fel",2018-04-01 01:00:00,2018-05-01 01:00:00,"abril",103,1,0,0,31,0,0,0,3
"jdopen0000fel",2018-05-01 01:00:00,2018-06-01 01:00:00,"mayo",103,7,0,0,34,0,0,0,0
"jdopen0000fel",2018-06-01 01:00:00,2018-07-01 01:00:00,"junio",101,3,0,0,23,0,0,0,1
"jdopen0000fel",2018-07-01 01:00:00,2018-08-01 01:00:00,"julio",99,2,0,0,17,0,0,0,0
"jdopen0000fel",2018-08-01 01:00:00,2018-09-01 01:00:00,"agosto",97,2,0,0,22,0,0,0,4
"jdopen0000fel",2018-09-01 01:00:00,2018-10-01 01:00:00,"septiembre",95,5,0,0,9,0,0,0,1
"jdopen0000fel",2018-10-01 01:00:00,2018-11-01 00:00:00,"octubre",92,2,0,0,21,0,0,0,3
"jdopen0000fel",2018-11-01 00:00:00,2018-12-01 00:00:00,"noviembre",91,9,0,0,28,0,0,0,1
"tracam0100pna",2018-03-01 00:00:00,2018-04-01 01:00:00,"marzo",42,0,0,0,0,0,0,0,0
"tracam0100pna",2018-04-01 01:00:00,2018-05-01 01:00:00,"abril",43,0,0,0,0,0,0,0,0
"tracam0100pna",2018-05-01 01:00:00,2018-06-01 01:00:00,"mayo",44,0,0,0,0,0,0,0,1
"tracam0100pna",2018-06-01 01:00:00,2018-07-01 01:00:00,"junio",38,0,0,0,0,0,0,0,0
"tracam0100pna",2018-07-01 01:00:00,2018-08-01 01:00:00,"julio",39,0,0,0,0,0,0,0,0
"tracam0100pna",2018-08-01 01:00:00,2018-09-01 01:00:00,"agosto",39,0,0,0,0,0,0,0,0
"tracam0100pna",2018-09-01 01:00:00,2018-10-01 01:00:00,"septiembre",24,0,0,0,0,0,0,0,0
"tracam0100pna",2018-10-01 01:00:00,2018-11-01 00:00:00,"octubre",26,0,0,0,0,0,0,0,2
"tracam0200pna",2018-03-01 00:00:00,2018-04-01 01:00:00,"marzo",58,0,0,0,0,0,0,12,0
"tracam0200pna",2018-04-01 01:00:00,2018-05-01 01:00:00,"abril",58,0,0,0,0,0,0,24,0
"tracam0200pna",2018-05-01 01:00:00,2018-06-01 01:00:00,"mayo",58,0,0,0,0,0,0,24,0
"tracam0200pna",2018-06-01 01:00:00,2018-07-01 01:00:00,"junio",58,0,0,0,0,0,0,24,0
"tracam0200pna",2018-07-01 01:00:00,2018-08-01 01:00:00,"julio",52,0,0,0,0,0,0,23,0
"tracam0200pna",2018-08-01 01:00:00,2018-09-01 01:00:00,"agosto",52,0,0,0,0,0,0,0,0
"tracam0200pna",2018-09-01 01:00:00,2018-10-01 01:00:00,"septiembre",52,0,0,0,0,0,0,0,0
"tracam0200pna",2018-10-01 01:00:00,2018-11-01 00:00:00,"octubre",54,0,0,0,0,0,0,24,0
"tracor0100pna",2018-03-01 00:00:00,2018-04-01 01:00:00,"marzo",50,1,0,0,0,0,0,0,1
"tracor0100pna",2018-04-01 01:00:00,2018-05-01 01:00:00,"abril",46,0,0,0,0,2,0,0,3
"tracor0100pna",2018-05-01 01:00:00,2018-06-01 01:00:00,"mayo",43,0,0,0,1,0,0,0,2
"tracor0100pna",2018-06-01 01:00:00,2018-07-01 01:00:00,"junio",40,0,0,0,0,1,0,0,2
"tracor0100pna",2018-07-01 01:00:00,2018-08-01 01:00:00,"julio",40,0,0,0,0,0,0,0,0
"tracor0100pna",2018-08-01 01:00:00,2018-09-01 01:00:00,"agosto",38,0,0,0,0,0,0,0,2
"tracor0100pna",2018-09-01 01:00:00,2018-10-01 01:00:00,"septiembre",41,0,0,0,0,0,0,0,0
"tracor0100pna",2018-10-01 01:00:00,2018-11-01 00:00:00,"octubre",36,0,0,0,0,0,0,0,4
"tracor0100pna",2018-11-01 00:00:00,2018-12-01 00:00:00,"noviembre",34,0,0,0,0,0,0,0,2
"tracor0202pna",2018-03-01 00:00:00,2018-04-01 01:00:00,"marzo",76,0,0,0,0,0,0,0,2
"tracor0202pna",2018-04-01 01:00:00,2018-05-01 01:00:00,"abril",76,0,0,0,0,0,0,0,0
"tracor0202pna",2018-05-01 01:00:00,2018-06-01 01:00:00,"mayo",69,0,0,0,0,1,0,0,6
"tracor0202pna",2018-06-01 01:00:00,2018-07-01 01:00:00,"junio",64,0,0,0,1,0,0,0,4
"tracor0202pna",2018-07-01 01:00:00,2018-08-01 01:00:00,"julio",64,0,0,0,0,0,0,0,0
"tracor0202pna",2018-08-01 01:00:00,2018-09-01 01:00:00,"agosto",43,0,0,0,0,0,0,0,17
"tracor0202pna",2018-09-01 01:00:00,2018-10-01 01:00:00,"septiembre",50,0,0,0,0,0,0,0,1
"transi0000cha",2018-03-01 00:00:00,2018-04-01 01:00:00,"marzo",8,0,0,0,0,0,0,0,0
"transi0000cha",2018-04-01 01:00:00,2018-05-01 01:00:00,"abril",8,0,0,0,0,0,1,0,0
"transi0000cha",2018-05-01 01:00:00,2018-06-01 01:00:00,"mayo",8,0,0,0,0,0,0,0,0
"transi0000cha",2018-06-01 01:00:00,2018-07-01 01:00:00,"junio",8,0,0,0,0,0,0,0,0
"transi0000cha",2018-07-01 01:00:00,2018-08-01 01:00:00,"julio",8,0,0,0,0,0,0,0,0
"transi0000cha",2018-08-01 01:00:00,2018-09-01 01:00:00,"agosto",8,0,0,0,0,0,0,0,0
"transi0000cha",2018-09-01 01:00:00,2018-10-01 01:00:00,"septiembre",9,1,0,0,1,0,0,0,1
"transi0000cha",2018-10-01 01:00:00,2018-11-01 00:00:00,"octubre",8,1,0,0,1,0,0,0,1
"transi0000cha",2018-11-01 00:00:00,2018-12-01 00:00:00,"noviembre",8,0,0,0,0,0,0,0,0
"transi0000col",2018-03-01 00:00:00,2018-04-01 01:00:00,"marzo",0,0,0,0,8,0,0,0,0
"transi0000col",2018-04-01 01:00:00,2018-05-01 01:00:00,"abril",0,0,0,0,0,0,0,0,0
"transi0000col",2018-05-01 01:00:00,2018-06-01 01:00:00,"mayo",0,0,0,0,8,0,0,0,0
"transi0000col",2018-06-01 01:00:00,2018-07-01 01:00:00,"junio",0,0,0,0,2,0,0,0,1
"transi0000col",2018-07-01 01:00:00,2018-08-01 01:00:00,"julio",0,0,0,0,0,0,0,0,2
"transi0000col",2018-08-01 01:00:00,2018-09-01 01:00:00,"agosto",0,0,0,0,1,0,0,0,0
"transi0000col",2018-09-01 01:00:00,2018-10-01 01:00:00,"septiembre",0,0,0,0,14,0,0,0,0
"transi0000col",2018-10-01 01:00:00,2018-11-01 00:00:00,"octubre",0,0,0,0,1,0,0,0,1
"transi0000col",2018-11-01 00:00:00,2018-12-01 00:00:00,"noviembre",0,0,0,0,0,0,0,0,0
"transi0000dia",2018-03-01 00:00:00,2018-04-01 01:00:00,"marzo",3,0,0,0,0,0,0,0,2
"transi0000dia",2018-04-01 01:00:00,2018-05-01 01:00:00,"abril",3,0,0,0,0,0,0,0,0
"transi0000dia",2018-05-01 01:00:00,2018-06-01 01:00:00,"mayo",0,0,0,0,143,0,0,0,0
"transi0000dia",2018-06-01 01:00:00,2018-07-01 01:00:00,"junio",3,0,0,0,47,0,0,0,1
"transi0000dia",2018-07-01 01:00:00,2018-08-01 01:00:00,"julio",4,0,0,0,106,0,0,0,0
"transi0000dia",2018-08-01 01:00:00,2018-09-01 01:00:00,"agosto",4,12,1,0,12,1,0,0,0
"transi0000dia",2018-09-01 01:00:00,2018-10-01 01:00:00,"septiembre",2,0,0,0,0,0,0,0,0
"transi0000dia",2018-10-01 01:00:00,2018-11-01 00:00:00,"octubre",2,0,0,0,0,0,0,0,0
"transi0000dia",2018-11-01 00:00:00,2018-12-01 00:00:00,"noviembre",2,0,0,0,0,0,0,0,0
"transi0000dia",2018-12-01 00:00:00,2019-01-01 00:00:00,"diciembre",2,0,0,0,0,0,0,0,0
"transi0000fed",2018-03-01 00:00:00,2018-04-01 01:00:00,"marzo",2,0,0,0,0,0,0,0,0
"transi0000fed",2018-04-01 01:00:00,2018-05-01 01:00:00,"abril",2,0,0,0,0,0,0,0,0
"transi0000fed",2018-05-01 01:00:00,2018-06-01 01:00:00,"mayo",1,0,0,0,1,0,0,0,0
"transi0000fed",2018-06-01 01:00:00,2018-07-01 01:00:00,"junio",1,0,0,0,0,0,0,0,0
"transi0000fed",2018-07-01 01:00:00,2018-08-01 01:00:00,"julio",0,0,0,0,1,0,0,0,1
"transi0000fed",2018-08-01 01:00:00,2018-09-01 01:00:00,"agosto",0,0,0,0,0,0,0,0,0
"transi0000fed",2018-09-01 01:00:00,2018-10-01 01:00:00,"septiembre",0,0,0,0,0,0,0,0,0
"transi0000fed",2018-10-01 01:00:00,2018-11-01 00:00:00,"octubre",0,0,0,0,0,0,0,0,0
"transi0000fed",2018-11-01 00:00:00,2018-12-01 00:00:00,"noviembre",0,0,0,0,0,0,0,0,0
"transi0000fed",2018-12-01 00:00:00,2019-01-01 00:00:00,"diciembre",0,0,0,0,0,0,0,0,0
"transi0000frl",2018-03-01 00:00:00,2018-04-01 01:00:00,"marzo",1,0,0,0,0,0,0,0,0
"transi0000frl",2018-04-01 01:00:00,2018-05-01 01:00:00,"abril",0,4,0,0,0,0,0,0,0
"transi0000frl",2018-05-01 01:00:00,2018-06-01 01:00:00,"mayo",0,0,0,0,0,0,0,0,0
"transi0000frl",2018-06-01 01:00:00,2018-07-01 01:00:00,"junio",0,0,0,0,0,0,0,0,0
"transi0000frl",2018-07-01 01:00:00,2018-08-01 01:00:00,"julio",0,0,0,0,0,0,0,0,0
"transi0000frl",2018-08-01 01:00:00,2018-09-01 01:00:00,"agosto",0,3,0,0,3,0,0,0,0
"transi0000frl",2018-09-01 01:00:00,2018-10-01 01:00:00,"septiembre",0,0,0,0,0,0,0,0,0
"transi0000frl",2018-10-01 01:00:00,2018-11-01 00:00:00,"octubre",0,0,0,0,0,0,0,0,0
"transi0000frl",2018-11-01 00:00:00,2018-12-01 00:00:00,"noviembre",0,0,0,0,0,0,0,0,0
"transi0000frl",2018-12-01 00:00:00,2019-01-01 00:00:00,"diciembre",0,0,0,0,0,0,0,0,0
"transi0000lpa",2018-03-01 00:00:00,2018-04-01 01:00:00,"marzo",20,0,0,0,0,0,1,18,0
"transi0000lpa",2018-04-01 01:00:00,2018-05-01 01:00:00,"abril",20,0,0,0,0,0,1,18,1
"transi0000lpa",2018-05-01 01:00:00,2018-06-01 01:00:00,"mayo",18,0,0,0,0,1,0,17,0
"transi0000lpa",2018-06-01 01:00:00,2018-07-01 01:00:00,"junio",18,0,0,0,0,1,0,17,1
"transi0000lpa",2018-07-01 01:00:00,2018-08-01 01:00:00,"julio",18,0,0,0,0,1,0,17,1
"transi0000lpa",2018-08-01 01:00:00,2018-09-01 01:00:00,"agosto",18,0,0,0,0,1,0,16,1
"transi0000lpa",2018-09-01 01:00:00,2018-10-01 01:00:00,"septiembre",18,0,0,0,0,1,0,16,0
"transi0000lpa",2018-10-01 01:00:00,2018-11-01 00:00:00,"octubre",18,0,0,0,0,1,0,16,0
"transi0000lpa",2018-11-01 00:00:00,2018-12-01 00:00:00,"noviembre",19,0,0,0,1,1,0,16,2
"transi0000lpa",2018-12-01 00:00:00,2019-01-01 00:00:00,"diciembre",18,0,0,0,0,1,0,15,1
"transi0000nog",2018-03-01 00:00:00,2018-04-01 01:00:00,"marzo",47,41,4,0,0,14,0,0,6
"transi0000nog",2018-04-01 01:00:00,2018-05-01 01:00:00,"abril",47,95,0,0,0,7,0,0,12
"transi0000nog",2018-05-01 01:00:00,2018-06-01 01:00:00,"mayo",47,161,0,0,0,0,0,0,7
"transi0000nog",2018-06-01 01:00:00,2018-07-01 01:00:00,"junio",47,142,0,0,0,0,0,0,0
"transi0000nog",2018-07-01 01:00:00,2018-08-01 01:00:00,"julio",47,142,0,0,0,0,0,0,0
"transi0000nog",2018-08-01 01:00:00,2018-09-01 01:00:00,"agosto",47,80,0,0,0,0,0,0,0
"transi0000nog",2018-09-01 01:00:00,2018-10-01 01:00:00,"septiembre",47,100,0,0,0,0,0,0,0
"transi0000nog",2018-10-01 01:00:00,2018-11-01 00:00:00,"octubre",47,0,0,0,0,0,0,0,0
"transi0000nog",2018-11-01 00:00:00,2018-12-01 00:00:00,"noviembre",47,0,0,0,0,0,0,0,0
"transi0000nog",2018-12-01 00:00:00,2019-01-01 00:00:00,"diciembre",47,0,0,0,0,0,0,0,0
"transi0000vic",2018-03-01 00:00:00,2018-04-01 01:00:00,"marzo",9,0,0,0,0,0,0,0,0
"transi0000vic",2018-04-01 01:00:00,2018-05-01 01:00:00,"abril",9,0,0,0,0,0,0,0,0
"transi0000vic",2018-05-01 01:00:00,2018-06-01 01:00:00,"mayo",9,0,0,0,0,0,0,0,0
"transi0000vic",2018-06-01 01:00:00,2018-07-01 01:00:00,"junio",9,0,0,0,0,0,0,0,1
"transi0000vic",2018-07-01 01:00:00,2018-08-01 01:00:00,"julio",8,0,0,0,0,0,0,0,0
"transi0000vic",2018-08-01 01:00:00,2018-09-01 01:00:00,"agosto",8,0,0,0,0,0,0,0,0
"transi0000vic",2018-09-01 01:00:00,2018-10-01 01:00:00,"septiembre",8,1,0,0,0,0,0,0,0
"transi0000vic",2018-10-01 01:00:00,2018-11-01 00:00:00,"octubre",6,0,0,0,0,0,0,0,1
"transi0000vic",2018-11-01 00:00:00,2018-12-01 00:00:00,"noviembre",6,0,0,0,0,0,0,0,0
"transi0000vic",2018-12-01 00:00:00,2019-01-01 00:00:00,"diciembre",6,0,0,0,0,0,0,0,0
"transi0000vil",2018-03-01 00:00:00,2018-04-01 01:00:00,"marzo",1,0,0,0,0,0,0,0,0
"transi0000vil",2018-04-01 01:00:00,2018-05-01 01:00:00,"abril",1,0,0,0,8,0,0,0,1
"transi0000vil",2018-05-01 01:00:00,2018-06-01 01:00:00,"mayo",1,0,0,0,0,0,0,0,0
"transi0000vil",2018-06-01 01:00:00,2018-07-01 01:00:00,"junio",1,0,0,0,0,0,0,0,0
"transi0000vil",2018-07-01 01:00:00,2018-08-01 01:00:00,"julio",1,0,0,0,0,0,0,0,0
"transi0000vil",2018-08-01 01:00:00,2018-09-01 01:00:00,"agosto",1,0,0,0,0,0,0,0,0
"transi0000vil",2018-09-01 01:00:00,2018-10-01 01:00:00,"septiembre",1,0,0,0,0,0,0,0,0
"transi0000vil",2018-10-01 01:00:00,2018-11-01 00:00:00,"octubre",1,0,0,0,0,0,0,0,0
"transi0000vil",2018-11-01 00:00:00,2018-12-01 00:00:00,"noviembre",1,0,0,0,0,0,0,0,0
"transi0000vil",2018-12-01 00:00:00,2019-01-01 00:00:00,"diciembre",1,0,0,0,0,0,0,0,0
"transi0100gay",2018-03-01 00:00:00,2018-04-01 01:00:00,"marzo",2,0,0,0,0,0,0,0,0
"transi0100gay",2018-04-01 01:00:00,2018-05-01 01:00:00,"abril",2,0,0,0,0,0,0,0,0
"transi0100gay",2018-05-01 01:00:00,2018-06-01 01:00:00,"mayo",1,0,0,0,0,0,0,0,0
"transi0100gay",2018-06-01 01:00:00,2018-07-01 01:00:00,"junio",1,0,0,0,0,0,0,0,0
"transi0100gay",2018-07-01 01:00:00,2018-08-01 01:00:00,"julio",1,0,0,0,0,0,0,0,0
"transi0100gay",2018-08-01 01:00:00,2018-09-01 01:00:00,"agosto",1,0,0,0,0,0,0,0,0
"transi0100gay",2018-09-01 01:00:00,2018-10-01 01:00:00,"septiembre",1,0,0,0,0,0,0,0,0
"transi0100gay",2018-10-01 01:00:00,2018-11-01 00:00:00,"octubre",1,0,0,0,0,0,0,0,0
"transi0100gay",2018-11-01 00:00:00,2018-12-01 00:00:00,"noviembre",1,0,0,0,0,0,0,0,0
"transi0100gay",2018-12-01 00:00:00,2019-01-01 00:00:00,"diciembre",1,0,0,0,0,0,0,0,0
"transi0100gch",2018-03-01 00:00:00,2018-04-01 01:00:00,"marzo",6,0,0,0,0,1,0,3,0
"transi0100gch",2018-04-01 01:00:00,2018-05-01 01:00:00,"abril",6,0,0,0,0,1,0,3,0
"transi0100gch",2018-05-01 01:00:00,2018-06-01 01:00:00,"mayo",6,0,0,0,0,1,0,3,0
"transi0100gch",2018-06-01 01:00:00,2018-07-01 01:00:00,"junio",6,0,0,0,0,1,0,3,0
"transi0100gch",2018-07-01 01:00:00,2018-08-01 01:00:00,"julio",6,0,0,0,0,1,0,3,0
"transi0100gch",2018-08-01 01:00:00,2018-09-01 01:00:00,"agosto",6,0,0,0,0,1,0,3,0
"transi0100gch",2018-09-01 01:00:00,2018-10-01 01:00:00,"septiembre",6,0,0,0,0,1,1,3,0
"transi0100gch",2018-10-01 01:00:00,2018-11-01 00:00:00,"octubre",6,0,0,0,0,1,1,3,0
"transi0100gch",2018-11-01 00:00:00,2018-12-01 00:00:00,"noviembre",6,0,0,0,0,1,1,3,0
"transi0100gch",2018-12-01 00:00:00,2019-01-01 00:00:00,"diciembre",6,0,0,0,0,1,1,3,0
"transi0100pna",2018-01-01 00:00:00,2018-02-01 00:00:00,"enero",72,265,0,0,254,0,2,0,4
"transi0100pna",2018-03-01 00:00:00,2018-04-01 01:00:00,"marzo",86,431,2,0,96,0,0,0,0
"transi0100pna",2018-04-01 01:00:00,2018-05-01 01:00:00,"abril",86,379,2,0,268,0,1,0,1
"transi0100pna",2018-05-01 01:00:00,2018-06-01 01:00:00,"mayo",72,265,0,0,254,0,2,0,4
"transi0100pna",2018-06-01 01:00:00,2018-07-01 01:00:00,"junio",69,58,0,0,221,0,1,0,4
"transi0100pna",2018-07-01 01:00:00,2018-08-01 01:00:00,"julio",69,89,0,0,404,0,1,0,2
"transi0100pna",2018-08-01 01:00:00,2018-09-01 01:00:00,"agosto",61,98,1,0,106,0,0,0,3
"transi0100pna",2018-09-01 01:00:00,2018-10-01 01:00:00,"septiembre",57,235,0,0,487,0,1,0,0
"transi0100pna",2018-10-01 01:00:00,2018-11-01 00:00:00,"octubre",55,25,0,0,793,0,0,0,2
"transi0100pna",2018-11-01 00:00:00,2018-12-01 00:00:00,"noviembre",53,9,0,0,708,0,0,0,2
"transi0100pna",2018-12-01 00:00:00,2019-01-01 00:00:00,"diciembre",50,21,0,0,816,0,0,0,3
"transi0100uru",2018-03-01 00:00:00,2018-04-01 01:00:00,"marzo",7,0,0,0,0,0,0,0,0
"transi0100uru",2018-04-01 01:00:00,2018-05-01 01:00:00,"abril",7,0,0,0,0,0,0,0,0
"transi0100uru",2018-05-01 01:00:00,2018-06-01 01:00:00,"mayo",7,0,0,0,0,0,0,0,0
"transi0100uru",2018-06-01 01:00:00,2018-07-01 01:00:00,"junio",6,0,0,0,0,0,0,0,0
"transi0100uru",2018-07-01 01:00:00,2018-08-01 01:00:00,"julio",7,0,0,0,0,0,0,0,0
"transi0100uru",2018-08-01 01:00:00,2018-09-01 01:00:00,"agosto",7,0,0,0,0,0,0,0,0
"transi0100uru",2018-09-01 01:00:00,2018-10-01 01:00:00,"septiembre",7,0,0,0,0,0,0,0,0
"transi0100uru",2018-10-01 01:00:00,2018-11-01 00:00:00,"octubre",7,0,0,0,0,0,0,0,0
"transi0100uru",2018-11-01 00:00:00,2018-12-01 00:00:00,"noviembre",7,0,0,0,0,0,0,0,0
"transi0100uru",2018-12-01 00:00:00,2019-01-01 00:00:00,"diciembre",7,0,0,0,0,0,0,0,0
"transi0200gay",2018-03-01 00:00:00,2018-04-01 01:00:00,"marzo",1,0,0,0,0,0,0,0,0
"transi0200gay",2018-04-01 01:00:00,2018-05-01 01:00:00,"abril",1,0,0,0,0,0,0,0,0
"transi0200gay",2018-05-01 01:00:00,2018-06-01 01:00:00,"mayo",1,0,0,0,0,0,0,0,0
"transi0200gay",2018-06-01 01:00:00,2018-07-01 01:00:00,"junio",1,0,0,0,0,0,0,0,0
"transi0200gay",2018-07-01 01:00:00,2018-08-01 01:00:00,"julio",1,0,0,0,0,0,0,0,0
"transi0200gay",2018-08-01 01:00:00,2018-09-01 01:00:00,"agosto",1,0,0,0,0,0,0,0,0
"transi0200gay",2018-09-01 01:00:00,2018-10-01 01:00:00,"septiembre",0,0,1,0,0,0,0,0,0
"transi0200gay",2018-10-01 01:00:00,2018-11-01 00:00:00,"octubre",1,0,0,0,0,0,0,0,0
"transi0200gay",2018-11-01 00:00:00,2018-12-01 00:00:00,"noviembre",0,0,0,0,0,0,0,0,0
"transi0200gay",2018-12-01 00:00:00,2019-01-01 00:00:00,"diciembre",0,0,0,0,0,0,0,0,0
"transi0200gch",2018-03-01 00:00:00,2018-04-01 01:00:00,"marzo",12,0,0,0,0,0,0,6,0
"transi0200gch",2018-04-01 01:00:00,2018-05-01 01:00:00,"abril",12,0,0,0,0,0,0,6,0
"transi0200gch",2018-05-01 01:00:00,2018-06-01 01:00:00,"mayo",12,0,0,0,0,0,0,6,0
"transi0200gch",2018-06-01 01:00:00,2018-07-01 01:00:00,"junio",12,0,0,0,0,0,0,6,0
"transi0200gch",2018-07-01 01:00:00,2018-08-01 01:00:00,"julio",12,0,0,0,0,0,0,6,0
"transi0200gch",2018-08-01 01:00:00,2018-09-01 01:00:00,"agosto",12,0,0,0,0,0,0,6,0
"transi0200gch",2018-09-01 01:00:00,2018-10-01 01:00:00,"septiembre",12,0,0,0,0,0,0,6,0
"transi0200gch",2018-10-01 01:00:00,2018-11-01 00:00:00,"octubre",12,0,0,0,1,0,0,6,0
"transi0200gch",2018-11-01 00:00:00,2018-12-01 00:00:00,"noviembre",11,0,0,0,0,0,0,6,1
"transi0200pna",2018-03-01 00:00:00,2018-04-01 01:00:00,"marzo",200,634,4,0,1802,0,3,0,10
"transi0200pna",2018-04-01 01:00:00,2018-05-01 01:00:00,"abril",179,317,4,0,1177,0,2,0,15
"transi0200pna",2018-05-01 01:00:00,2018-06-01 01:00:00,"mayo",155,330,2,0,2077,0,1,0,8
"transi0200pna",2018-06-01 01:00:00,2018-07-01 01:00:00,"junio",156,488,9,0,3683,1,1,0,7
"transi0200pna",2018-07-01 01:00:00,2018-08-01 01:00:00,"julio",137,486,2,0,1504,1,1,0,7
"transi0200pna",2018-08-01 01:00:00,2018-09-01 01:00:00,"agosto",128,285,4,1,2284,2,0,0,4
"transi0200pna",2018-09-01 01:00:00,2018-10-01 01:00:00,"septiembre",118,329,1,0,2686,1,1,0,6
"transi0200pna",2018-10-01 01:00:00,2018-11-01 00:00:00,"octubre",115,342,2,0,3166,1,0,0,3
"transi0200pna",2018-11-01 00:00:00,2018-12-01 00:00:00,"noviembre",110,276,1,0,2325,1,0,0,3
"transi0200uru",2018-03-01 00:00:00,2018-04-01 01:00:00,"marzo",4,0,0,0,0,0,0,0,0
"transi0200uru",2018-04-01 01:00:00,2018-05-01 01:00:00,"abril",4,0,0,0,0,0,0,0,0
"transi0200uru",2018-05-01 01:00:00,2018-06-01 01:00:00,"mayo",4,0,0,0,0,0,0,0,0
"transi0200uru",2018-06-01 01:00:00,2018-07-01 01:00:00,"junio",4,0,0,0,0,0,0,0,0
"transi0200uru",2018-07-01 01:00:00,2018-08-01 01:00:00,"julio",4,0,0,0,0,0,0,0,0
"transi0200uru",2018-08-01 01:00:00,2018-09-01 01:00:00,"agosto",4,0,0,0,0,0,0,0,0
"transi0200uru",2018-09-01 01:00:00,2018-10-01 01:00:00,"septiembre",4,0,0,0,0,0,0,0,0
"transi0200uru",2018-10-01 01:00:00,2018-11-01 00:00:00,"octubre",4,0,0,0,0,0,0,0,0
"transi0200uru",2018-11-01 00:00:00,2018-12-01 00:00:00,"noviembre",4,0,0,0,0,0,0,0,0
"transi0200uru",2018-12-01 00:00:00,2019-01-01 00:00:00,"diciembre",3,0,1,0,0,0,0,0,0
