organismo;mes;inic;s;a;
camcad0000pna;2;;13;45;
camcad0000uru;2;;8;17;
stjcad0000pna;2;;5;5;
camlab0000con;2;;12;24;
camlab0000gch;2;;7;7;
camlab0000uru;2;;19;10;
jdolab0000gay;2;;11;11;
jdolab0100uru;2;;24;3;
jdolab0200con;2;;6;12;
jdolab0200gch;2;;0;19;
jdolab0300con;2;;12;18;
jdolab0300gch;2;;18;18;
jdolab0300uru;2;;18;12;
jdolab0400con;2;;14;0;
salpen0100pna;2;;13;0;amp
camcad0000pna;3;;13;25;
camcad0000uru;3;;4;15;
stjcad0000pna;3;;5;12;
salpen0100pna;4;;85;30;imputación NA como A
camcad0000pna;4;;12;31;
camcad0000uru;4;;5;23;
stjcad0000pna;4;;2;2;
camcad0000pna;5;;13;25;
camcad0000uru;5;;2;14;
stjcad0000pna;5;;3;6;
salpen0100pna;5;;69;3;
salpen0100pna;6;;66;0;
stjcad0000pna;6;;8;9;
salpen0100pna;7;;103;4;
stjcad0000pna;7;;9;7;
salpen0100pna;8;;48;4;
salpen0100pna;9;;49;3;
