"circunscripcion","organismo_descripcion","organismo","Procesos","Trámites","desclasific"
"Paraná","Jdo Paz San Benito","jdopaz0000sbe",340,1188,0
"Paraná","Jdo Paz Crespo","jdopaz0000cre",160,252,0
"Colón","Jdo Paz San Jose","jdopaz0000sjo",150,1860,2
"Colón","Jdo Paz Villa Elisa","jdopaz0000vel",119,1883,2
"La Paz","Jdo de Paz Bovril","jdopaz0000bov",106,685,0
"Paraná","Jdo Paz Viale","jdopaz0000via",68,754,1
"Gualeguay","Jdo Paz Galarza","jdopaz0000gal",68,60,0
"Diamante","Jdo Paz Ramirez","jdopaz0000ram",65,3,1
"Paraná","Jdo Paz Maria Grande","jdopaz0000mgr",59,861,0
"Tala","Jdo Paz Mansilla","jdopaz0000man",48,53,0
"Villaguay","Jdo Paz Villa Dominguez","jdopaz0000vdo",33,138,0
"Paraná","Jdo Paz Hasenkamp","jdopaz0000has",32,837,2
"Paraná","Jdo Paz Oro Verde","jdopaz0000ove",32,583,0
"Gualeguaychú","Jdo Paz Larroque","jdopaz0000lar",31,1431,0
"Gualeguaychú","Jdo Paz Urdinarrain","jdopaz0000urd",31,2228,0
"Islas del Ibicuy","Jdo Paz Ibicuy","jdopaz0000ibi",27,380,0
"La Paz","Jdo Paz Alcaraz","jdopaz0000alc",25,165,0
"Paraná","Jdo Paz Hernandarias","jdopaz0000her",22,660,0
"Paraná","Jdo Paz Cerrito","jdopaz0000cer",22,803,2
"Nogoyá","Jdo Paz Lucas Gonzalez","jdopaz0000lgo",21,792,4
"Tala","Jdo Paz Macia","jdopaz0000mac",20,919,0
"Colón","Jdo Paz Ubajay","jdopaz0000uba",20,0,0
"Paraná","Jdo Paz Segui","jdopaz0000seg",19,550,0
"Uruguay","Jdo Paz Villa San Marcial","jdopaz0000vsa",17,136,4
"Paraná","Jdo Paz Villa Urquiza","jdopaz0000vur",16,168,0
"Islas del Ibicuy","Jdo Paz Ceibas","jdopaz0000cei",16,69,0
"Nogoyá","Jdo Paz Hernandez","jdopaz0000hez",15,417,0
"Chajarí","Jdo Paz San Jaime Front","jdopaz0000sja",15,162,0
"Uruguay","Jdo Paz Basavilbaso","jdopaz0000bas",14,266,0
"Federal","Jdo Paz Sauce de Luna","jdopaz0000slu",11,380,0
"Concordia","Jdo Paz Gral Campos","jdopaz0000gca",9,443,0
"Uruguay","Jdo Paz Villa Mantero","jdopaz0000vma",8,237,1
"Islas del Ibicuy","Jdo Paz V.Paranacito","jdopaz0000vpa",6,583,0
"Villaguay","Jdo Paz Villa Clara","jdopaz0000vca",5,60,0
"Paraná","Jdo Paz Pueblo Brugo","jdopaz0000pbr",3,49,1
"Concordia","Jdo Paz Estancia Gde","jdopaz0000egr",0,299,0
