"iep","data_interval_start","data_interval_end","months(data_interval_start)","TJUI_VS_AUTOS_DE_RESPONSABILIDAD","TJUI_VS_Cantidad_de_audiencias","TJUI_VS_Cantidad_de_audiencias_fracasadas","TJUI_VS_Cantidad_detenidos_a_disposicion","TJUI_VS_Procesos_Administrativos_en_Apelacion_Ingresados","TJUI_VS_Procesos_Constit_Ingresados_AMPARO","TJUI_VS_Procesos_Constit_Ingresados_HABEAS_CORPUS","TJUI_VS_Procesos_Constit_Ingresados_HABEAS_DATA","TJUI_VS_Procesos_Constit_Ingresados_OTROS","TJUI_VS_Procesos_Penales_Ingresados_APELACIONES","TJUI_VS_Procesos_Penales_Ingresados_CAUSAS_A_JUICIO","TJUI_VS_Procesos_Penales_Ingresados_OTROS","TJUI_VS_Procesos_Penales_Ingresados_QUERELLAS_DEL_ACC_PRIV","TJUI_VS_RESOL_apelaciones","TJUI_VS_RESOL_excarcelacion","TJUI_VS_RESOL_Juicios_Abreviados","TJUI_VS_RESOL_Juicios_Comunes","TJUI_VS_RESOL_otras","TJUI_VS_RESOL_otras_cautelares","TJUI_VS_RESOL_prision_preventiva","TJUI_VS_RESOL_sobreseimientos","TJUI_VS_RESOL_sustitutivas","TJUI_VS_SENTENCIAS_absolutorias","TJUI_VS_SENTENCIAS_condenatorias_absolutorias","TJUI_VS_SENTENCIAS_condenatorias_prision_condicional","TJUI_VS_SENTENCIAS_condenatorias_prision_efectiva","TJUI_VS_Total_Causas_en_tramite_ACTIVAS","TJUI_VS_Total_Causas_en_tramite_LATENTES","TJUI_VS_Visitas_Carcel_y_lugares_detencion"
"ogapen0000con",2018-03-01 00:00:00,2018-04-01 01:00:00,"marzo",0,74,22,17,0,24,0,0,0,11,11,0,0,9,1,1,3,2,0,2,0,0,0,0,1,5,208,244,0
"ogapen0000con",2018-04-01 01:00:00,2018-05-01 01:00:00,"abril",0,72,16,16,0,9,2,0,0,12,10,0,0,6,0,5,4,12,0,2,0,0,3,0,1,6,216,269,0
"ogapen0000con",2018-05-01 01:00:00,2018-06-01 01:00:00,"mayo",0,81,41,18,0,9,1,1,0,9,12,1,0,9,0,6,4,3,10,2,0,0,0,1,2,8,239,268,0
"ogapen0000gay",2018-03-01 00:00:00,2018-04-01 01:00:00,"marzo",1,9,0,11,0,1,0,0,0,8,10,0,0,5,0,3,0,3,0,0,3,0,0,0,1,0,63,0,0
"ogapen0000gay",2018-04-01 01:00:00,2018-05-01 01:00:00,"abril",0,19,1,16,0,1,0,0,0,2,2,0,0,4,0,4,0,1,0,3,0,0,1,0,2,1,68,0,0
"ogapen0000gay",2018-05-01 01:00:00,2018-06-01 01:00:00,"mayo",0,25,0,13,0,1,0,0,0,10,5,0,0,9,0,6,2,0,0,1,0,0,1,0,3,6,63,0,0
"ogapen0000gay",2018-08-01 01:00:00,2018-09-01 01:00:00,"agosto",0,0,0,0,0,0,0,0,0,0,0,0,0,0,0,0,0,0,0,0,4,0,0,0,0,0,11,0,0
"ogapen0000gay",2018-09-01 01:00:00,2018-10-01 01:00:00,"septiembre",0,6,0,1,0,0,0,0,0,0,1,0,0,0,0,0,4,0,0,0,0,0,2,0,2,0,10,0,0
"ogapen0000gay",2018-10-01 01:00:00,2018-11-01 00:00:00,"octubre",0,2,0,1,0,0,0,0,0,2,1,0,0,0,0,1,0,1,0,0,0,0,0,0,1,0,7,0,0
"ogapen0000gay",2018-11-01 00:00:00,2018-12-01 00:00:00,"noviembre",0,2,0,0,0,0,1,0,0,0,0,0,0,1,0,1,0,0,0,0,0,0,0,0,0,0,9,0,0
"ogapen0000gay",2018-12-01 00:00:00,2019-01-01 00:00:00,"diciembre",0,1,0,0,0,0,0,0,0,0,0,0,0,1,0,0,0,0,0,0,0,0,0,0,0,0,6,0,0
"ogapen0000gch",2018-03-01 00:00:00,2018-04-01 01:00:00,"marzo",0,21,4,0,0,0,0,0,0,8,5,0,0,2,0,6,3,1,0,2,2,0,1,0,4,5,61,45,0
"ogapen0000gch",2018-04-01 01:00:00,2018-05-01 01:00:00,"abril",0,27,3,0,0,1,0,0,0,8,8,0,0,6,0,5,4,0,0,2,0,0,2,0,6,1,70,37,0
"ogapen0000gch",2018-05-01 01:00:00,2018-06-01 01:00:00,"mayo",0,10,6,0,0,0,0,0,0,6,6,0,0,3,0,1,4,0,0,0,1,0,1,1,2,1,63,37,0
"ogapen0000lpa",2018-03-01 00:00:00,2018-04-01 01:00:00,"marzo",0,3,0,0,0,0,0,0,0,0,0,0,0,0,0,0,0,0,0,0,0,0,0,0,0,0,11,109,1
"ogapen0000lpa",2018-04-01 01:00:00,2018-05-01 01:00:00,"abril",0,3,0,0,0,1,0,0,0,0,0,0,0,0,0,0,2,0,0,0,0,0,0,0,0,2,9,116,1
"ogapen0000lpa",2018-05-01 01:00:00,2018-06-01 01:00:00,"mayo",0,5,1,0,0,0,0,0,0,1,0,0,0,1,0,2,0,0,0,0,0,0,0,0,0,1,9,116,1
"ogapen0000uru",2018-03-01 00:00:00,2018-04-01 01:00:00,"marzo",0,37,3,1,0,0,0,0,0,3,9,0,0,1,0,7,3,0,0,3,0,0,0,0,2,3,10,2,0
"ogapen0000uru",2018-04-01 01:00:00,2018-05-01 01:00:00,"abril",0,17,0,2,0,3,1,0,0,2,10,0,0,1,0,2,1,1,0,1,0,0,1,0,2,0,17,1,0
"ogapen0000uru",2018-05-01 01:00:00,2018-06-01 01:00:00,"mayo",0,29,7,11,0,2,1,0,0,7,10,0,0,2,1,7,0,4,0,2,0,0,0,0,1,6,12,2,0
