"tipo_proceso";"cantidad";"gtproc"
"ACCIDENTE DE TRABAJO";9;"OTROS"
"ACCION DE AMPARO";32;"OTROS"
"ACCION DE AMPARO POR MORA";14;"OTROS"
"ACCION DE DESIGNACION DE TUTOR \"AD LITEM\"";1;"OTROS"
"ACCION DE EJECUCION";2;"OTROS"
"ACCION DE HABEAS DATA";1;"OTROS"
"ACCION DE INCONSTITUCIONALIDAD";3;"OTROS"
"ACCION MERAMENTE DECLARATIVA";2;"OTROS"
"ACCION PREVENTIVA";4;"OTROS"
"ADOPCION";1;"OTROS"
"ALIMENTOS";4;"OTROS"
"ALIMENTOS Y LITIS EXPENSAS";1;"OTROS"
"AMENAZAS";1;"OTROS"
"AMPARO";1;"OTROS"
"APELACION DICTAMEN DE COMISION MEDICA";4;"OTROS"
"APELACION JUZGADO DE PAZ";11;"OTROS"
"APELACION MULTA ADMINISTRATIVA - AUTO";1;"OTROS"
"APREMIO";24;"OTROS"
"APREMIO MONITORIO";2;"OTROS"
"ASEGURAMIENTO DE PRUEBA";3;"OTROS"
"AUTORIZACION JUDICIAL";5;"OTROS"
"BENEFICIO DE LITIGAR SIN GASTOS";36;"OTROS"
"CEDULA LEY";1;"OTROS"
"CIVIL Y COMERCIAL";4;"OTROS"
"COBRO DE PESOS";29;"OTROS"
"COBRO DE PESOS Y ENTREGA DE CERTIFICACION LABORAL";1;"OTROS"
"COMPENSACION";1;"OTROS"
"CONCURSO CERRADO";1;"OTROS"
"CONCURSO PREVENTIVO";2;"OTROS"
"CONCURSO PREVENTIVO - art. 288 L.C.Q.";1;"OTROS"
"CONCURSOS";1;"OTROS"
"CONSIGNACION";3;"OTROS"
"CONVENIO";1;"OTROS"
"CONVOCATORIA DE ASAMBLEAS";1;"OTROS"
"COPIA Y RENOVACION DE TITULOS";5;"OTROS"
"CUADERNILLO";3;"OTROS"
"CUADERNO";1;"OTROS"
"CUIDADO PERSONAL DEL HIJO O DE LOS HIJOS";2;"OTROS"
"CUMPLIMIENTO DE SENTENCIA";1;"OTROS"
"DAÑOS";1;"OTROS"
"DECLARACION DE AUSENCIA";1;"OTROS"
"DECLARACION DE INCAPACIDAD";3;"OTROS"
"DENUNCIA DE DAÑO TEMIDO";2;"OTROS"
"DEPOSITO A SU FAVOR";1;"OTROS"
"DESALOJO";33;"OTROS"
"DESALOJO Y COBRO ALQUILERES";18;"OTROS"
"DESALOJO Y COBRO DE ALQUILERES";1;"OTROS"
"DESARCHIVO";3;"OTROS"
"DILIGENCIA PRELIMINAR";8;"OTROS"
"DILIGENCIA PRELIMINAR Y PRUEBA ANTICIPADA";1;"OTROS"
"DILIGENCIAS PRELIMINARES";26;"OTROS"
"DIVISION DE CONDOMINIO";12;"OTROS"
"DIVISION DE COSAS COMUNES";1;"OTROS"
"DIVORCIO";7;"OTROS"
"DIVORCIO POR MUTUO CONSENTIMIENTO";2;"OTROS"
"EJECUCION DE ASTREINTES";6;"OTROS"
"EJECUCION DE CONVENIO";16;"OTROS"
"EJECUCION DE CONVENIO Y HONORARIOS";6;"OTROS"
"EJECUCION DE HONORARIOS";36;"OTROS"
"EJECUCION DE MULTA PROCESAL";1;"OTROS"
"EJECUCION DE SALARIOS";1;"OTROS"
"EJECUCION DE SENTENCIA";29;"OTROS"
"EJECUCION DE SENTENCIA Y HONORARIOS";22;"OTROS"
"EJECUCION HIPOTECARIA";14;"OTROS"
"EJECUCION HIPOTECARIA MONITORIO EJECUTIVO";1;"OTROS"
"EJECUCION PRENDARIA";17;"OTROS"
"EJECUCIONES";1;"OTROS"
"EJECUCIONES DE ASTREINTES";2;"OTROS"
"EJECUTIVO";29;"OTROS"
"EJECUTIVO MONITORIO";2;"OTROS"
"ENFERMEDAD PROFESIONAL";2;"OTROS"
"EXHIBICION DE LIBROS";2;"OTROS"
"EXPROPIACION";1;"OTROS"
"EXPROPIACION INVERSA";1;"OTROS"
"GUARDA JUDICIAL";2;"OTROS"
"HABEAS DATA";1;"OTROS"
"HOMOLOGACION DE CONVENIO";28;"OTROS"
"IMPEDIMENTO DE CONTACTO";1;"OTROS"
"IMPUGNACION DE RECONOCIMIENTO";2;"OTROS"
"INCIDENTE";25;"INCIDENTES"
"INCIDENTE AUMENTO CUOTA ALIMENTARIA";2;"INCIDENTES"
"INCIDENTE DE ADMINISTRACION";3;"INCIDENTES"
"INCIDENTE DE CADUCIDAD DE INSTANCIA";1;"INCIDENTES"
"INCIDENTE DE EMBARGO";1;"INCIDENTES"
"INCIDENTE DE EMBARGO PREVENTIVO";6;"INCIDENTES"
"INCIDENTE DE EXCUSACION";4;"INCIDENTES"
"INCIDENTE DE FIJACION DE CANON LOCATIVO";6;"INCIDENTES"
"INCIDENTE DE IMPUGNACION DE PLANILLA";2;"INCIDENTES"
"INCIDENTE DE LEVANTAMIENTO DE EMBARGO";3;"INCIDENTES"
"INCIDENTE DE NULIDAD";9;"INCIDENTES"
"INCIDENTE DE NULIDAD DE NOTIFICACION";1;"INCIDENTES"
"INCIDENTE DE PAGO";1;"INCIDENTES"
"INCIDENTE DE RECHAZO DE EXCUSACION";1;"INCIDENTES"
"INCIDENTE DE REDARGUCION DE FALSEDAD";1;"INCIDENTES"
"INCIDENTE DE REMOCION DE ADMINISTRADOR";1;"INCIDENTES"
"INCIDENTE DE RESTITUCION DE BIENES";1;"INCIDENTES"
"INCIDENTE DE SUBASTA";2;"INCIDENTES"
"INCIDENTE DE SUSPENSION";1;"INCIDENTES"
"INCIDENTE DE SUSTITUCION DE DEPOSITO";10;"INCIDENTES"
"INCIDENTE DE VERIFICACION TARDIA";6;"INCIDENTES"
"INCIDENTE DESOCUPACION";2;"INCIDENTES"
"INCIDENTE DETERMINACION BASE ECONOMICA";2;"INCIDENTES"
"INCIDENTE EXCUSACION";1;"INCIDENTES"
"INCIDENTE FIJACION CANON LOCATIVO";7;"INCIDENTES"
"INCIDENTE HABITACION VIUDAL";1;"INCIDENTES"
"INCIDENTE IMPUGNACION DE INVENTARIO Y AVALUO";2;"INCIDENTES"
"INCIDENTE INIDONEIDAD DE TESTIGO";1;"INCIDENTES"
"INCIDENTE LEGAJO APELACION EFECTO DEVOLUTIVO";2;"INCIDENTES"
"INCIDENTE LEGITIMO ABONO";5;"INCIDENTES"
"INCIDENTE LEVANTAMIENTO DE EMBARGO";4;"INCIDENTES"
"INCIDENTE LEVANTAMIENTO DE EMBARGO SIN TERCERIA";1;"INCIDENTES"
"INCIDENTE LEVANTAMIENTO MEDIDA CAUTELAR";2;"INCIDENTES"
"INCIDENTE MEDIDA CAUTELAR";11;"INCIDENTES"
"INCIDENTE MODIFICACION REGIMEN DE VISITAS";1;"INCIDENTES"
"INCIDENTE NULIDAD";21;"INCIDENTES"
"INCIDENTE PRONTO PAGO";2;"INCIDENTES"
"INCIDENTE PRONTO PAGO Y VERIFICACION DE CREDITO";1;"INCIDENTES"
"INCIDENTE RECUSACION";3;"INCIDENTES"
"INCIDENTE REDARGUCION DE FALSEDAD";4;"INCIDENTES"
"INCIDENTE RENDICION DE CUENTAS";6;"INCIDENTES"
"INCIDENTE RESTITUCION DE BIENES";1;"INCIDENTES"
"INCIDENTE REVISION";4;"INCIDENTES"
"INCIDENTE TERCERIA DE DOMINIO";2;"INCIDENTES"
"INCIDENTE VERIFICACION DE CREDITO";3;"INCIDENTES"
"INCIDENTES (CIVIL)";3;"INCIDENTES"
"INCIDENTES (CONC. Y QUIEBRA)";2;"INCIDENTES"
"INDEMNIZACION POR DAÑOS Y PERJUICIOS";2;"OTROS"
"INFORMACION SUMARIA";8;"OTROS"
"INFORME";1;"OTROS"
"INSCRIPCION";1;"OTROS"
"INSCRIPCION DE DEFUNCION (PROTECCIONAL)";2;"OTROS"
"INTERDICTO DE OBRA NUEVA";1;"OTROS"
"INTERDICTO DE RECOBRAR";8;"OTROS"
"INTERDICTO DE RETENER";2;"OTROS"
"INTERNACION JUDICIAL";1;"OTROS"
"LABORAL";3;"OTROS"
"LEGAJO";3;"OTROS"
"LEVANTAMIENTO DE EMBARGO SIN TERCERIA";2;"OTROS"
"MEDIDA  AUTOSATISFACTIVA";15;"OTROS"
"MEDIDA CAUTELAR";6;"MEDIDAS CAUTELARES"
"MEDIDA CAUTELAR (CIVIL)";15;"MEDIDAS CAUTELARES"
"MEDIDA CAUTELAR ALIMENTOS PROVISORIOS";2;"MEDIDAS CAUTELARES"
"MEDIDA CAUTELAR ANOTACION DE LITIS";6;"MEDIDAS CAUTELARES"
"MEDIDA CAUTELAR ASEGURATIVA DE BIENES";2;"MEDIDAS CAUTELARES"
"MEDIDA CAUTELAR DE EMBARGO PREVENTIVO";3;"MEDIDAS CAUTELARES"
"MEDIDA CAUTELAR DENUNCIA DAÑO TEMIDO - ART. 604 BIS C.P.C.";1;"MEDIDAS CAUTELARES"
"MEDIDA CAUTELAR EMBARGO PREVENTIVO";24;"MEDIDAS CAUTELARES"
"MEDIDA CAUTELAR GENERICA";10;"MEDIDAS CAUTELARES"
"MEDIDA CAUTELAR INHIBICION GENERAL DE BIENES";6;"MEDIDAS CAUTELARES"
"MEDIDA CAUTELAR INNOVATIVA";1;"MEDIDAS CAUTELARES"
"MEDIDA CAUTELAR INTERVENCION JUDICIAL / ADMINISTRACION JUDICIAL";2;"MEDIDAS CAUTELARES"
"MEDIDA CAUTELAR PROHIBICION DE CONTRATAR";3;"MEDIDAS CAUTELARES"
"MEDIDA CAUTELAR PROHIBICION DE INNOVAR";9;"MEDIDAS CAUTELARES"
"MEDIDA CAUTELAR SECUESTRO";6;"MEDIDAS CAUTELARES"
"MEDIDA DE PROTECCION EXCEPCIONAL";2;"OTROS"
"MENSURA Y DESLINDE";1;"OTROS"
"MONITORIO";19;"OTROS"
"MONITORIO APREMIO";17;"OTROS"
"MONITORIO DESALOJO";17;"OTROS"
"MONITORIO DESALOJO Y COBRO DE ALQUILERES";7;"OTROS"
"MONITORIO EJECUTIVO";21;"OTROS"
"MONITORIO ORDINARIO";12;"ORDINARIO"
"MONITORIO SUMARISIMO";1;"SUMARISIMO"
"OPOSICION A LA EJECUCION DE REPARACIONES URGENTES";1;"OTROS"
"ORDINARIO";26;"ORDINARIO"
"ORDINARIO (CIVIL)";8;"ORDINARIO"
"ORDINARIO ACCIDENTES DE TRANSITO";9;"ORDINARIO"
"ORDINARIO ACCION DE COLACION";9;"ORDINARIO"
"ORDINARIO ACCION DE CONSIGNACION";6;"ORDINARIO"
"ORDINARIO ACCION DE NULIDAD";11;"ORDINARIO"
"ORDINARIO ACCION DE PETICION DE HERENCIA";4;"ORDINARIO"
"ORDINARIO ACCION DE REDUCCION";1;"ORDINARIO"
"ORDINARIO ACCION DE REPETICION";3;"ORDINARIO"
"ORDINARIO ACCION MERAMENTE DECLARATIVA";3;"ORDINARIO"
"ORDINARIO ACCION PAULIANA";3;"ORDINARIO"
"ORDINARIO ACCION REIVINDICATORIA";29;"ORDINARIO"
"ORDINARIO ACCIONES REALES Y POSESORIAS";2;"ORDINARIO"
"ORDINARIO COBRO DE PESOS";31;"ORDINARIO"
"ORDINARIO CUMPLIMIENTO DE CONTRATO";16;"ORDINARIO"
"ORDINARIO DAÑOS Y PERJUICIOS";35;"ORDINARIO"
"ORDINARIO DISOLUCION Y LIQUIDACION DE SOCIEDADES";2;"ORDINARIO"
"ORDINARIO DIVORCIO";1;"ORDINARIO"
"ORDINARIO ESCRITURACION";14;"ORDINARIO"
"ORDINARIO EXCLUSION HEREDITARIA";4;"ORDINARIO"
"ORDINARIO FILIACION";6;"ORDINARIO"
"ORDINARIO FILIACION E INDEMNIZACION DE DAÑOS";2;"ORDINARIO"
"ORDINARIO FILIACION ORDINARIO ACCION DE PETICION DE HERENCIA";1;"ORDINARIO"
"ORDINARIO IMPUGNACION DE ASAMBLEA";1;"ORDINARIO"
"ORDINARIO IMPUGNACION DE PATERNIDAD";1;"ORDINARIO"
"ORDINARIO NULIDAD DE ASAMBLEA";1;"ORDINARIO"
"ORDINARIO NULIDAD DE MATRIMONIO";1;"ORDINARIO"
"ORDINARIO RESOLUCION DE CONTRATO";2;"ORDINARIO"
"ORDINARIO REVOCATORIA DE DONACION";2;"ORDINARIO"
"ORDINARIO SEPARACION DE BIENES";1;"ORDINARIO"
"ORDINARIO SIMULACION";4;"ORDINARIO"
"ORDINARIO SIMULACION ORDINARIO DAÑOS Y PERJUICIOS";1;"ORDINARIO"
"PEDIDO DE QUIEBRA";2;"OTROS"
"PEDIDO DE QUIEBRA PROMOVIDO POR ACREEDOR";4;"OTROS"
"PERSONAL";1;"OTROS"
"PREPARACION DE LA VIA EJECUTIVA";17;"OTROS"
"PREPARACION DE LA VIA MONITORIA";22;"OTROS"
"PREPARACION DE LA VIA MONITORIA (DESALOJO Y COBRO DE ALQUILERES)";5;"OTROS"
"PREPARACION DE LA VIA MONITORIA (DESALOJO)";10;"OTROS"
"PREPARACION DE LA VIA MONITORIA (ORDINARIO)";6;"ORDINARIO"
"PREPARACION DE LA VIA MONITORIA (SUMARISIMO)";1;"SUMARISIMO"
"PREPARACION VIA MONITORIA";2;"OTROS"
"PROCESO DE FAMILIA (por excusación)";1;"OTROS"
"PROCESO LABORAL (por excusación)";1;"OTROS"
"PROCESOS ADMINISTRATIVOS";1;"OTROS"
"PRUEBA ANTICIPADA";26;"OTROS"
"QUIEBRA";1;"OTROS"
"RECONSTRUCCION DE EXPEDIENTE";7;"OTROS"
"RECTIFICACION DE PARTIDA";4;"OTROS"
"REGIMEN DE COMUNICACION";1;"OTROS"
"REGULACION DE HONORARIOS";23;"OTROS"
"RENDICION DE CUENTAS";3;"OTROS"
"RESTRICCIONES A LA CAPACIDAD";4;"OTROS"
"SALUD MENTAL";1;"OTROS"
"SECUESTRO PRENDARIO - ART. 39 LEY 12.962";5;"OTROS"
"SECUESTRO PRENDARIO - ART. 39 LEY 12962";3;"OTROS"
"SEGUNDO TESTIMONIO";34;"OTROS"
"SENTENCIAS";1;"OTROS"
"SOLICITA";1;"OTROS"
"SOLICITUD MATRICULA DE COMERCIANTE";2;"OTROS"
"SU DENUNCIA";1;"OTROS"
"Sucesorio";1;"OTROS"
"SUCESORIO AB INTESTATO";37;"OTROS"
"SUCESORIO TESTAMENTARIO";32;"OTROS"
"SUCESORIOS (CIVIL)";14;"OTROS"
"SUCESORIOS (CIVIL) SUCESORIO TESTAMENTARIO SUCESORIO AB INTESTATO";1;"OTROS"
"SUMARIO";4;"SUMARIO"
"SUMARISIMO";24;"SUMARISIMO"
"SUMARISIMO (CIVIL)";8;"SUMARISIMO"
"SUMARISIMO ACCION MERAMENTE DECLARATIVA";1;"SUMARISIMO"
"SUMARISIMO ACCION POSESORIA";1;"SUMARISIMO"
"SUMARISIMO COBRO DE PESOS";4;"SUMARISIMO"
"SUPLENCIA DE PARTIDA";3;"OTROS"
"TERCERIA DE DOMINIO";1;"OTROS"
"TESTIMONIO";1;"OTROS"
"TRANSFERENCIA FONDO DE COMERCIO - LEY 11.867";1;"OTROS"
"TUTELA";1;"OTROS"
"USO DE DOCUMENTO FALSIFICADO";1;"OTROS"
"USUCAPION";35;"OTROS"
"VIOLENCIA DE GENERO";3;"OTROS"
"VIOLENCIA FAMILIAR";2;"OTROS"
