id	nro	Referencia	Localidad/es de Domicilio registradas en sistema Lex_doctor (para las casusas con más de un actor se agregan sus respectivas localidades separadas “;”)
jdofam0200pna	21636	ACOSTA PABLO NESTOR 	COLONIAAVELLANEDA
jdofam0200pna	22095	AGUILAR JULIAN ALBER	SEGUI
jdofam0200pna	21446	AGUILAR SIXTA ANGELI	CRESPO;CRESPO
jdofam0200pna	21516	ALARCON FERNANDA VER	CRESPO
jdofam0200pna	22094	ALBORNOZ MARIA LINA 	VIALE
jdofam0200pna	21050	ALMADA MARIA JOSE BE	CURTIEMBRE-CERRITO-ENTRERÍOS
jdofam0200pna	21240	ANDEREGG DANTE DARIO	CRESPO;CRESPO
jdofam0200pna	22198	ANDRIAN MARTIN MARCE	CERRITO
jdofam0200pna	21551	ARANCIBIA AISPURU MA	ROSARIO
jdofam0200pna	21997	ARCE MABEL ALICIA EN	CRESPO
jdofam0200pna	21835	AREVALO MARA FLORENC	HASENKAMP
jdofam0200pna	21247	ARRUA MONICA ANTONEL	SANBENITO
jdofam0200pna	22333	BALCAR FAMEA GABRIEL	COLONIAAVELLANEDA
jdofam0200pna	21920	BALLA JULIO EDUARDO 	VIALE
jdofam0200pna	21388	BALLA SILVIA SABRINA	COLONIAAVELLANEDA
jdofam0200pna	22342	BALLA SILVIA SABRINA	COLONIAAVELLANEDA
jdofam0200pna	21599	BARCAROLA ALEJANDRO 	CONCORDIA
jdofam0200pna	21663	BARRENA ANDRES ALBER	SANBENITO
jdofam0200pna	21729	BARRERA CAROLINA LAU	SANBENITO
jdofam0200pna	21063	BARRETO MICAELA MARI	GUALEGUAY
jdofam0200pna	21869	BARSANTE FANNY NATAL	CRESPO;CRESPO
jdofam0200pna	21623	BAUMAN MARIA LUISA Y	CRESPO
jdofam0200pna	21811	BEISEL BALBO OSVALDO	CRESPO
jdofam0200pna	21011	BELTRAME GERMAN GONZ	SANBENITO;SANBENITO
jdofam0200pna	21806	BELTRAMINI ROCIO AYE	COLONIAAVELLANEDA;COLONIAAVELLANEDA
jdofam0200pna	22181	BERTOLI ANTONELLA DE	VIALE
jdofam0200pna	22048	BERTOLI MONICA MARIE	CHAJARÍ
jdofam0200pna	21845	BIERI HECTOR LEOPOLD	VIALE
jdofam0200pna	21865	BORDES ROSANA CLARIS	NOGOYÁ
jdofam0200pna	21526	BOSCATTO FERNANDO	VILLAALLENDE-CÓRDOBA
jdofam0200pna	21449	BRITOS MARIELA ELEON	CRESPO
jdofam0200pna	21646	BUCHAEMER JOSE ERNES	CRESPO;CRESPO
jdofam0200pna	21649	BURLANDO JUAN JOSE Y	LAPAZ;LAPAZ
jdofam0200pna	22461	BUSCHIAZZO FABIAN HO	DIAMANTE
jdofam0200pna	22937	BUSTOS MARIA ESTER C	SANBENITO
jdofam0200pna	21381	BUTUS NESTOR HORACIO	OROVERDE
jdofam0200pna	21996	CALDERON RODRIGUEZ M	LASFLORES(PCIA.DEBUENOSAIRES)
jdofam0200pna	21004	CAPRARULO ANDERSON A	SANBENITO
jdofam0200pna	22069	CARABAJAL LUIS ALFRE	PUEBLOBRUGO
jdofam0200pna	21964	CARDOSO MIRIAM EDITH	CRESPO;CRESPO
jdofam0200pna	22317	CARDOZO SIXTO ISMAEL	SANJAVIER-SANTAFE
jdofam0200pna	21452	CHAVEZ EUGENIA ANTON	COLONIAAVELLANEDA
jdofam0200pna	21671	CHAVEZ GEORGINA Y CU	VIALE
jdofam0200pna	22293	CHIARDOLA YESICA SOL	VIALE;VIALE
jdofam0200pna	21582	CIAN GISELA MARIA VA	HASENKAMP
jdofam0200pna	22239	COCERES TERESA RAMON	COLONIAAVELLANEDA
jdofam0200pna	21655	COLUGNATTI ROCIO CEL	SANBENITO
jdofam0200pna	21442	COMAS MARIANA EMILCE	VIALE
jdofam0200pna	21289	CORONA EDUARDO RAFAE	CERRITO
jdofam0200pna	21069	CORONEL CLARA ELIZAB	FORMOSA-PROV.DEFORMOSA
jdofam0200pna	22440	CORONEL NORMA VALERI	HERNANDARIAS
jdofam0200pna	21402	CRAVERO ALEJANDRO MA	HERNANDO,DPTO.TERCEROARRIBA-CÓRDOBA-
jdofam0200pna	21433	DALINGER BENITO ALBE	VIALE
jdofam0200pna	21830	DEHARBE KARINA MARIA	SANBENITO
jdofam0200pna	21312	DETTONI EDGARDO CIRO	CORONDA-SANTAFE
jdofam0200pna	21464	DIAZ ANDREA CARINA C	MARÍAGRANDE
jdofam0200pna	21948	DIFATO VIVIANA PATRI	VIALE
jdofam0200pna	22077	DONDA ALCIDES C/ KRE	NOGOYÁ;CRESPO
jdofam0200pna	21569	DURE DAIANA MARIELA 	CRESPO
jdofam0200pna	21670	ELSASSER MIRNA MARIA	VIALE
jdofam0200pna	21036	ERMACORA CRISTIAN O.	OROVERDE
jdofam0200pna	22096	FARIAS ADRIANA VANES	NOGOYÁ
jdofam0200pna	21281	FELIX BEATRIZ ELENA 	CRESPO
jdofam0200pna	21395	FIGUEROA WALTER GABR	VERA-PROV.STA.FE-
jdofam0200pna	21805	FIRPO CARLOS GUSTAVO	CRESPO
jdofam0200pna	22299	FLORES ANA LUCRECIA 	VIALE;CRESPO
jdofam0200pna	22128	FOLMER MARIA DE LOS 	HERNANDARIAS
jdofam0200pna	21153	FOLMER MARIA DE LOS 	HERNANDARIAS
jdofam0200pna	21235	FONCEA OLGA ESTER	COLONIAAVELLANEDA
jdofam0200pna	21278	FRANCK EVANGELINA NA	CRESPO
jdofam0200pna	21208	FRANCO BARBARA DESIR	CRESPO
jdofam0200pna	21929	FRANCO BARBARA DESIR	CRESPO
jdofam0200pna	21796	FRANK GABRIEL MARIA 	CRESPO;CRESPO
jdofam0200pna	21274	FRIAS EMILIO ENRIQUE	CAPITALFEDERAL
jdofam0200pna	21459	GALLARDO MIGUEL	E.E.U.U.
jdofam0200pna	22199	GALLO MARIA CARLA C/	VIALE
jdofam0200pna	21360	GARCIA JOSE LUIS Y K	MARIAGRANDE
jdofam0200pna	21570	GIGNONE ROXANA VANIN	CRESPO
jdofam0200pna	21810	GIMENEZ RAUL MARCELO	CRESPO;CRESPO
jdofam0200pna	21816	GIRARD VANESA EN REP	CERRITO
jdofam0200pna	21539	GODOY BISAI VICTOR R	MARIAGRANDE
jdofam0200pna	22325	GODOY JOSE ALBERTO C	DIAMANTE
jdofam0200pna	22119	GOMEZ ANGELA BETANIA	VILLASEGUÍ;VILLASEGUÍ
jdofam0200pna	21494	GOMEZ RITA ESTER C/ 	HERNANDARIAS
jdofam0200pna	22220	GONZALEZ NATALIA AN	COLONIAAVELLANEDA
jdofam0200pna	21239	GOODFRED ESTEFANIA C	VIALE
jdofam0200pna	21630	GORO JESUS MAXIMILIA	HERNANDARIAS
jdofam0200pna	21579	GOTTIG MARIA VIVIANA	SEGUI
jdofam0200pna	22273	GRAMUNDI EDUARDO GUS	COLONIAAVELLANEDA;VILLAGUAY
jdofam0200pna	21515	GRANDOLIO LUIS OSCAR	SANBENITO
jdofam0200pna	22358	GRANDOLIO LUIS OSCAR	SANBENITO
jdofam0200pna	21535	HABERKON MARIA ANDRE	CERRITO
jdofam0200pna	21989	HEFFEL FABIAN ALBERT	ARANGUREN(DPTO.VICTORIA)
jdofam0200pna	21615	HERBEL CARINA BELEN 	VIALE
jdofam0200pna	21712	HERNANDEZ ALBERTO RA	CRESPO;CRESPO
jdofam0200pna	22058	HERRERA MILAGROS DAN	CRESPO
jdofam0200pna	21260	HOFSTETTER RAUL C/ G	CERRITO
jdofam0200pna	21182	IRUSTA VIVIANA BEATR	CRESPO
jdofam0200pna	21849	KERPS DANIEL ENRIQUE	VIALE
jdofam0200pna	21506	KINSTLER FLORENCIA C	OROVERDE;FEDERAL
jdofam0200pna	21533	KLOSTER WALDEMAR Y N	CRESPO;CRESPO
jdofam0200pna	22419	LADONA SILVANA MARIA	CRESPO;CRESPO
jdofam0200pna	21135	LESCANO ROBERTO ANIB	CRESPO
jdofam0200pna	21844	LESTON NANCY MARÍA B	COLONIAAVELLANEDA
jdofam0200pna	22298	LLOSA DELFINA	FLORIDA-VICENTELÓPEZ-BS.AS.
jdofam0200pna	22107	LOPEZ MAXIMILIANO Y 	CRESPO;PUEBLODELCARMENGRAL.RACEDO
jdofam0200pna	22126	LOPEZ TORRES MARIA 	BERAZATEGUI(BUENOSAIRES)
jdofam0200pna	21974	LUQUEZ FABRE FATIMA 	HERNANDARIAS
jdofam0200pna	22240	MAGLIOCCHINI CARLOS 	PARAA
jdofam0200pna	22331	MAIDANA MARIA DE LOS	SANBENITO
jdofam0200pna	22211	MAIDANA NANCY LILIAN	PUERTOMADRYN-CHUBUT-
jdofam0200pna	21827	MAIDANA NATALIA ROMI	HERNANDARIAS
jdofam0200pna	21701	MANUCCI SONIA RAQUEL	HASENKAMP
jdofam0200pna	21336	MANUCCI SONIA RAQUEL	HASENKAMP
jdofam0200pna	22019	MARQUEZ SILVIA HAYDE	MARÍAGRANDE
jdofam0200pna	21367	MASDEU SILVIA RAQUEL	VIALE;VIALE
jdofam0200pna	21584	MENDEZ LUCRECIA GABR	OROVERDE
jdofam0200pna	21178	MEYER GUSTAVO GERMAN	VIALE
jdofam0200pna	21510	MILOCCO AGOSTINA AND	SAUCEMONTRULL
jdofam0200pna	21665	MIÑO MAGALI DEL LUJA	VIALE
jdofam0200pna	21946	MIRAGLIO GABRIELA EL	CRESPO
jdofam0200pna	22003	MIRANDA DIAZ LEONEL 	COLONIAAVELLANEDA
jdofam0200pna	21580	MODENUTTI MARISA MAB	ROSARIO
jdofam0200pna	21978	MOLINA ADRIAN NORBE	STROBEL-DIAMANTE
jdofam0200pna	22455	MOLINA ADRIAN NORBER	STROBEL-DIAMANTE
jdofam0200pna	22375	MOREIRA ANIBAL JOSE	CRESPO
jdofam0200pna	21754	MOREYRA DE TERRAROSA	SANBENITO;SANBENITO;SANBENITO;SANBENITO
jdofam0200pna	21542	MOREYRA JULIO JAVIER	VIALE
jdofam0200pna	22244	MUSSO GISELA YANINA 	SANBENITO;SANBENITO
jdofam0200pna	21934	NAZAR DARIO GERMAN C	HERNANDARIAS
jdofam0200pna	21523	NOGUERA SILVEIRO C/ 	URUGUAY
jdofam0200pna	21064	NOVATTI YANINA GRISE	OROVERDE;OROVERDE
jdofam0200pna	21738	OJEDA VANESA MARIA D	BUENOSAIRES;BUENOSAIRES;BUENOSAIRES
jdofam0200pna	21290	ORSICH GABRIEL MIGUE	HASENKAMP
jdofam0200pna	21581	PALACIOS MARIA CELES	COLONIAAVELLANEDA
jdofam0200pna	21455	PASSI ANDREA JUANA S	MARIAGRANDE
jdofam0200pna	21627	PASTRE CYNTHIA C/ CR	CRESPO
jdofam0200pna	21866	PEDUZZI NANCY LORENA	HERNANDARIAS
jdofam0200pna	21282	PERALTA CINTIA IVANA	HERNANDARIAS
jdofam0200pna	22001	PITTIA PABLO NORBERT	COLONIAAVELLANEDA
jdofam0200pna	21719	PORTMANN ENRIQUE JOS	VILLAURQUIZA
jdofam0200pna	21337	PROCESO RESERVADO	HASENKAMP
jdofam0200pna	21888	QUIROGA RUBEN DARIO	HERNANDARIAS
jdofam0200pna	21292	RAMOS JUAN CARLOS RA	GENERALRAMIREZ
jdofam0200pna	22322	REGNER RAMONA ALICIA	ALCARAZ-LAPAZ
jdofam0200pna	22221	RETAMAR EMANUEL MARC	CRESPO;CRESPO
jdofam0200pna	22452	REYNOSO LUIS ARIEL C	DIAMANTE
jdofam0200pna	21423	RIOS GISELA ESTEFANI	SEGUÍ
jdofam0200pna	21034	RIOS LEONARDO GREGOR	DIAMANTE
jdofam0200pna	22015	RODRIGUEZ CRISTIAN A	HERNANDARIAS
jdofam0200pna	21748	RODRIGUEZ LILIANA EL	SANBENITO
jdofam0200pna	22268	RODRIGUEZ SARA INES 	VIALE
jdofam0200pna	21566	ROMANUTTI GONZALO AG	VICTORIA-----ACTUALMENTE
jdofam0200pna	21760	ROSKOFF JESUS DARIO 	COLONIAAVELLANEDA
jdofam0200pna	22130	ROSKOPF CANDELA SOLA	OROVERDE
jdofam0200pna	21262	RUHL JENNIFER DE LOS	SANBENITO
jdofam0200pna	22450	RUIZ OSVALDO JAVIER 	HERNANDARIAS
jdofam0200pna	21993	RUPP MONICA IRENE y 	CRESPO;OROVERDE
jdofam0200pna	21631	SAAVEDRA JORGE GABRI	COLONIAAVELLANEDA
jdofam0200pna	22456	SANTA CRUZ JORGELINA	VILLASEGUI;VILLASEGUI
jdofam0200pna	22124	SANTANA MARINA ELENA	CERRITO
jdofam0200pna	21303	SANTUCHO MONICA LORE	VIALE
jdofam0200pna	22297	SCHAMNE PAULA ELENA 	CRESPO
jdofam0200pna	22309	SCHLOTTHAUER DANTE O	CRESPO;CRESPO
jdofam0200pna	21146	SEGERMAN GUILLERMO M	PARTIDODEMORENO,BUENOSAIRES
jdofam0200pna	21160	SENDRA MARIELA LOREN	CRESPO
jdofam0200pna	22454	SERVIN CORREA BLASID	GREGORIODELARERRERE-BUENOSAIRES-
jdofam0200pna	22217	SOÑEZ NADIA AGUSTINA	ESCOBAR-BUENOSAIRES
jdofam0200pna	21896	SOSA ELISA DEL CARME	COLONIAAVELLANEDA
jdofam0200pna	22434	SOSA ELISA DEL CARME	COLONIAAVELLANEDA
jdofam0200pna	21451	SOSA MARINA SOLEDAD	HERNANDARIAS;HERNANDARIAS
jdofam0200pna	21994	SPAHN PATRICIA MABEL	CRESPO;CRESPO
jdofam0200pna	21501	SPIZER TAMARA NATALI	COLONIAAVELLANEDA
jdofam0200pna	21698	STODOLA GABRIEL	CRESPO
jdofam0200pna	21252	TABORDA MIRTA BEATRI	CRESPO
jdofam0200pna	21864	TREVISAN MARIA DEL R	HERNANDARIAS
jdofam0200pna	22334	TRONCOSO LORENA BEAT	HERNANDARIAS
jdofam0200pna	22346	TRULLS MARIA LAURA C	LAPAZ
jdofam0200pna	21238	UTZ NELSON RONALDO C	VIALE
jdofam0200pna	21517	VALENZUELA ANDREA AL	VILLAURQUIZA;VILLAURQUIZA
jdofam0200pna	21549	VARISCO PABLO DANIEL	CERRITO
jdofam0200pna	21420	VEGA PEDRO JAVIER C/	USPAYATA,PROVINCIADEMENDOZA
jdofam0200pna	21735	VELAZQUEZ SOLANGE AL	OROVERDE
jdofam0200pna	21739	VELAZQUEZ SOLANGE AL	OROVERDE
jdofam0200pna	21740	VELAZQUEZ SOLANGE AL	OROVERDE
jdofam0200pna	22307	VENANZI VIRGILIO ANG	SAUCEVIEJO-SANTAFE
jdofam0200pna	21295	VERA VANINA SOLEDAD-	MARÍAGRANDE
jdofam0200pna	22236	VERA VANINA SOLEDAD 	MARÍAGRANDE
jdofam0200pna	21514	VIDOZ ROSANA MARIELA	VIALE;HASENKAMP
jdofam0200pna	21819	VILLAGRA MELISA Y BR	BERISSO(BUENOSAIRES)
jdofam0200pna	21907	VOGEL BELKYS BEATRIZ	SANBENITO
jdofam0200pna	21673	VOSSLER CLAUDIA PATR	CRESPO
jdofam0200pna	22207	WAIGEL CYNTHIA JANET	CRESPO
jdofam0200pna	21277	WENDLER LUCIANA DE L	CRESPO;CRESPO
jdofam0200pna	21528	WERNER FLAVIO OSCAR 	OROVERDE;OROVERDE
jdofam0200pna	21149	WERNER SERGIO DANIEL	CERRITO;CERRITO
jdofam0200pna	21408	YEDRO LUCIO JOSE MAR	DIAMANTE;SANBENITO
jdofam0200pna	22108	ZAPATA SEBASTIAN MAX	CRESPO
jdofam0400pna	21299	ACOSTA MATIAS EMANUE	SANBENITO,E.R.
jdofam0400pna	21264	ALANIS JOHANA ELIZAB	CRESPO,E.R.;CRESPO,E.R.
jdofam0400pna	20387	ALARCON FERNANDA VER	CRESPO
jdofam0400pna	21213	ALBORNOZ ARACELI ROM	VIALE,E.R.;VIALE,E.R.
jdofam0400pna	19937	ALBORNOZ LUCAS MARTI	SANTAFE
jdofam0400pna	20050	ALLES ELIANA MARIA G	SANBENITO,ER
jdofam0400pna	21408	ALMADA MONICA GABRIE	CERRITO,E.R.
jdofam0400pna	21043	ALTAMIRANO VALENTINA	VIALE,E.R.
jdofam0400pna	21289	ALTAMIRANO VALENTINA	VIALE-ENTRERIOS
jdofam0400pna	19998	ANDRIAN MONICA BEATR	CERRITO
jdofam0400pna	20507	ANDRIAN MONICA BEATR	CERRITO;CERRITO
jdofam0400pna	20462	ARAPEIZ PRISCILA JOS	COLONIAAVELLANEDA
jdofam0400pna	21075	ARRUA ANDREA VANINA 	COLONIAAVELLANEDA
jdofam0400pna	20289	ASENSIO MARIA CECILI	GUALEGUAY,E.R.
jdofam0400pna	20830	AUMUSSANNE MARCO S /	COLONIAAVELLANEDA
jdofam0400pna	20297	BALCAZA LUZ VERONICA	MARIAGRANDE,E.R.
jdofam0400pna	20000	BALLEJO BEATRIZ ALIC	SANBENITO,E.R.;SANBENITO,E.R.
jdofam0400pna	20391	BARBATTO LUIS ALBERT	ROSARIO,PROVINCIADESANTAFE
jdofam0400pna	20599	BARRIOS SANDRA BIBIA	PARNAA
jdofam0400pna	21052	BEBER ANGEL GABRIEL 	VIALE-E.R.-
jdofam0400pna	20541	BEBER ANGEL GABRIEL 	VIALE-E.R.-
jdofam0400pna	21434	BENITEZ DANIELA ROMI	VIALE;VIALE;VIALEE.R.
jdofam0400pna	20525	BERNHARDT MARIA CRIS	EJIDODECRESPO;CRESPO
jdofam0400pna	20533	BEVILACQUA VANINA Y 	SANBENITO
jdofam0400pna	21030	BODEMMAN HUGO MANUEL	SANTAELENA
jdofam0400pna	20870	BRITOS MARIELA E. - 	CRESPO;CRESPO
jdofam0400pna	20583	BUCHAEMER JOSE ERNES	CRESPO;CRESPO
jdofam0400pna	20212	CALVO VERONICA BEATR	CIUDADAUTONOMADEBUENOSAIRES
jdofam0400pna	21529	CANOZA FRANCISCO EDU	CRESPO,E.R.;CRESPO,E.R.
jdofam0400pna	20876	CAPRIZ NORMA LETICIA	SANBENITO,E.R.
jdofam0400pna	20416	CARABALLO CARLA MARI	CRESPO,E.R.
jdofam0400pna	21039	CARRANZA CESAR MARTI	CIUDADDEBUENOSAIRES,PROVINCIADEBS.AS.
jdofam0400pna	20647	CARTOTTO YANINA BELÉ	CRESPO
jdofam0400pna	20244	CASANOVA CAROLINA AN	SANBENITO,E.R.
jdofam0400pna	20057	CASTAÑEDA ARIEL OSCA	SANBENITO;SANBENITO,E.R.
jdofam0400pna	20608	CASTILLO JESUS HERNA	OROVERDE
jdofam0400pna	21464	CESPEDES KAREN YAMIN	OARANÁ,E.R.
jdofam0400pna	21451	CHERVO ANDREA CAROLI	HERNANDARIAS,E.R.
jdofam0400pna	21320	CHIARA JUAN IGNACIO 	SANBENITO
jdofam0400pna	20404	COMAR RODOLFO FRANCI	ROSARIO-PROV.SANTAFE-
jdofam0400pna	19913	COMAS LILIANA EVANGE	EJIDOVIALE
jdofam0400pna	21305	CORREA RICARDO IVAN-	VIALE,E.R.
jdofam0400pna	21269	DABIN HECTOR HORACIO	PUERTOCURTIEMBRE,E.R.
jdofam0400pna	20156	DEF. PÚBLICA Nº 9 EN	SANBENITO
jdofam0400pna	20886	DEL CASTILLO MIRIAM 	COLONIAAVELLANEDA
jdofam0400pna	20568	DEMARTIN MARIO DANIE	COLONIAAVELLANEDA;COLONIAAVELLANEDA
jdofam0400pna	20624	DONDA ROSANA TERESA 	HERNANDARIAS
jdofam0400pna	20030	ECCLESIA GLORIA INES	CRESPO;CRESPO
jdofam0400pna	20344	ELSASSER MIRNA MARIA	VIALE
jdofam0400pna	20342	ELSASSER MIRNA MARIA	VIALE
jdofam0400pna	20832	FARIAS DIEGO RAUL	CRESPO
jdofam0400pna	20332	FERREYRA VIRGINIA LI	CABA,PROV.BS.AS.
jdofam0400pna	20645	FIRPO NADIA AILEN C/	FUNES,ROSARIO-PROVINCIADESANTAFE;COPAHUE,PROVINCIADENEUQUEN
jdofam0400pna	21488	FONTANETTO VERONICA 	ROSARIO,SANTAFE
jdofam0400pna	20769	FRANCO CARINA ALEJAN	CRESPO,E.R.
jdofam0400pna	21074	FRANCO CARINA ALEJAN	CRESPO,E.R.
jdofam0400pna	20076	FRANCO MARINA DEL CA	CRESPO,E.R.;CRESPO,E.R.
jdofam0400pna	20133	GALLI ALTAMIRANO VIC	MARIAGRANDE,E.R.
jdofam0400pna	20554	GALVEZ MARIA VICTORI	HERNANDARIAS,E.R.
jdofam0400pna	20389	GALVEZ MARIA VICTORI	HERNANDARIAS,E.R.
jdofam0400pna	21182	GARCIA MATIAS DANIEL	CRESPO,E.R.;CRESPO,E.R.
jdofam0400pna	NA	GARZON EDURDO ANDRES	COLONIAAVELLANEDA
jdofam0400pna	20486	GASTALDI CARINA JAQU	CERRITO;CRESPO;CERRITO
jdofam0400pna	21274	GENZELIS ALBERTO C/ 	OROVERDE,E.R.
jdofam0400pna	20218	GIMENEZ MARIA SOLEDA	ARANGUREN-NOGOYA
jdofam0400pna	21444	GODOY CARLA EVANGELI	SANBENITO,E.R.
jdofam0400pna	20460	GODOY NAIARA MAYLEN	GENERALRACEDO;GENERALRACEDO
jdofam0400pna	20738	GODOY NORMA LEONOR C	VIALE
jdofam0400pna	20934	GOMEZ GISELA DE LOS 	SAUCEMONTRUL
jdofam0400pna	20733	GOMEZ MICAELA SOLEDA	CRESPO;CRESPO
jdofam0400pna	21337	GONZALEZ ARIANA FLOR	SEGUI
jdofam0400pna	19946	GONZALEZ DANIEL CARM	CRESPO;CRESPO
jdofam0400pna	21080	GONZÁLEZ DANIELA EST	SANBENITO,E.R.
jdofam0400pna	21005	GONZALEZ HECTOR RUBE	VILLAGUAY-ENTRERIOS
jdofam0400pna	21177	GONZALEZ JUAN CARLOS	HASENKAMP,E.R.;HASENKAMP,E.R.;HASENKAMP,E.R.
jdofam0400pna	21160	GUERRA MARIA CELESTE	FEDERAL,E.R.
jdofam0400pna	20477	HABERKORN REMIGIO OS	CRESPO
jdofam0400pna	21424	IZAGUIRRE JULIO MART	SANBENITO,E.R.
jdofam0400pna	21236	KAPPES GRACIELA INES	CRESPO,E.R.
jdofam0400pna	20978	KAUMAN VERONICA PAOL	VILLASEGUI
jdofam0400pna	21115	KRAUSS MARCELA ANDRE	CRESPO;CRESPO
jdofam0400pna	20099	LEISS SANDRA NOEMI C	HASENKAMP,E.R.
jdofam0400pna	21474	LEIVA FRANCO DANIEL 	SANTAFE
jdofam0400pna	21297	LOMAZZI VICTORIA MAG	SANTAFE,PROV.SANTAFE
jdofam0400pna	20543	LUCENA MONICA VIVIAN	HERNANDARIAS;HERNANDARIAS
jdofam0400pna	20660	MAIDANA ERIKA CAROLI	HERNANDARIAS-ER
jdofam0400pna	21057	MARQUEZ SILVIA HAYDE	MARIAGRANDE
jdofam0400pna	20955	MARTINEZ CARLOS DANI	LAPICADA
jdofam0400pna	21094	MARTINEZ MARIANA VAL	VIALE
jdofam0400pna	20330	MASUTTI PABLO ISMAEL	COLONIANUEVA-VILLAURQUIZA-;COLONIANUEVA-VILLAURQUIZA-
jdofam0400pna	20618	MEDRANO DAIANA DESIR	CRESPO
jdofam0400pna	21450	MENA JOSE GABRIEL C/	MARIAGRANDE,E.R.
jdofam0400pna	21319	MILANO JOSE ALBERTO 	SUARDI,PROVINCIADESANTAFE
jdofam0400pna	21400	MILANO JOSE ALBERTO 	SUARDI,PROVINCIADESANTAFE
jdofam0400pna	20835	MILANO MARIELA SOLED	SALTA
jdofam0400pna	20300	MILOCCO AGOSTINA AND	SAUCEMONTRULL
jdofam0400pna	20840	MIÑO LUISA MARIA INE	MARIAGRANDE
jdofam0400pna	20087	MONZON MARIA JOSE C/	URDINARRAIN,E.R.;CRESPO,ER
jdofam0400pna	20199	NICKEL WALTER HUGO C	VIALE
jdofam0400pna	20249	OLIVIERI MARCELO FAB	MACIA,E.R.;MACIA,E.R.
jdofam0400pna	20672	ORDUNA ANDREA U. Y F	CAPITALFEDERAL
jdofam0400pna	20374	PASCAL PAOLA GUADALU	SANBENITO,E.R.
jdofam0400pna	20681	PASUTTI LORENA SILVA	HASENKAMP
jdofam0400pna	20788	PEÑA MARIA SOLEDAD Y	COLONIAAVELLANEDA
jdofam0400pna	20029	PEREZ GABRIELA JAQUE	COLONIAAVELLANEDA
jdofam0400pna	20792	PEREZ GASTON NAHUEL	HERNANDARIAS
jdofam0400pna	21310	PEREZ SILVINA MARIA 	VIALE;VIALE
jdofam0400pna	21473	PICOTTI MARIA FERNAN	PUEBLOBRUGO,E.R.
jdofam0400pna	20362	PORTO WILIEZKO FELIP	CRESPO,E.R.
jdofam0400pna	20558	PUNTIN CRISTIAN FABI	OROVERDE;OROVERDE
jdofam0400pna	21397	QUARTINO LEONELA VAL	HERNANDARIAS
jdofam0400pna	20243	QUINDT GUILLERMO SAN	SANBENITO
jdofam0400pna	20641	QUIROZ ALEJANDRA GAB	HERNANDARIAS
jdofam0400pna	20622	RAMIREZ SILVINA ELIZ	CERRITO
jdofam0400pna	20521	RAMIREZ SUSANA BEATR	SANGUSTAVO,DPTO.LAPAZ
jdofam0400pna	20456	RETAMAL PAULA ELIZAB	SANBENITO,E.R.
jdofam0400pna	20587	RETAMAR JUAN GABRIEL	SANBENITO
jdofam0400pna	20019	REYNOSO LUZ MARIA DE	COLONIALAPROVIDENCIA-DTO.LAPAZ
jdofam0400pna	20794	RIEDEL LEDESMA ZAMIR	SANBENITO
jdofam0400pna	19949	RIFFEL YOLANDA EDITH	VIALE
jdofam0400pna	21452	RODRIGUEZ ISABEL C/ 	SANBENITO,E.R.
jdofam0400pna	20002	ROMERO FERNANDA NOEM	COLONIAAVELLANEDA,E.R.
jdofam0400pna	21457	ROMERO LUISA RAMONA 	COLONIAAVELLANEDA,E.R.
jdofam0400pna	21183	ROQUE PEDRO CESAR C/	ROSARIO,SANTAFÉ
jdofam0400pna	20435	ROSKOFF JOHANA MARIE	SANBENITO,E.R.
jdofam0400pna	21161	ROSKOP CANDELA SOLAN	OROVERDE
jdofam0400pna	21234	SANCHEZ SANDRA PAOLA	SANBENITO,E.R.;SANBENITO,E.R.
jdofam0400pna	20638	SCHANZEMPACH MARCELO	SANBENITO
jdofam0400pna	20236	SCHMIDT HORACIO ALBE	HERNANDARIAS
jdofam0400pna	20475	SCHMIT LORENA ANALIA	COLONIAAVELLANEDA;COLONIAAVELLANEDA
jdofam0400pna	20821	SILVA ALICIA ELENA C	HERNANDARIAS,E.R.
jdofam0400pna	20534	SOLIA JORGE ALBERTO 	VILLAHERNANDARIAS
jdofam0400pna	20180	SOTO MARIA EUGENIA C	COLONIAAVELLANEDA
jdofam0400pna	19948	SPAIS MARIA MERCEDES	MARÍAGRANDE
jdofam0400pna	20916	STRACK DIANA MARINA	CRESPO
jdofam0400pna	21162	SUREZ RUBEN DARIO C/	RIOGALLEGOS-SANTACRUZ
jdofam0400pna	20157	TEMPORETTI JESICA AN	ARROYOSECO,SANTAFE
jdofam0400pna	20116	TEMPORETTI LUIS OSCA	PUEBLOBRUGO,E.R.
jdofam0400pna	21370	TERENZANO SOLEDAD VA	COLONIAAVELLANEDA
jdofam0400pna	19918	TORRES LAUTARO RODRI	VIALE
jdofam0400pna	20675	TORRES LAUTARO RODRI	VIALE
jdofam0400pna	19990	TORRES MARIA DE LOS 	VIALE,ER
jdofam0400pna	20498	TRICARIQUE JUAN JOSE	HASENKAMP;HASENKAMP
jdofam0400pna	21265	VALLEJOS NELSON ANDR	SANBENITO
jdofam0400pna	20640	VALLEJOS NELSON ANDR	SANBENITO;SANBENITO
jdofam0400pna	20420	VARGAS ANA BELEN C/ 	HERNANDARIAS
jdofam0400pna	21255	VELAZQUEZ MONZON EZE	SANBENITO,E.R.
jdofam0400pna	21562	VERA GRISELDA MABEL 	FLORENCIOVARELA,PROVINCIADEBSAS.
jdofam0400pna	20196	VILCHE NERINA Y CLIV	OROVERDE
jdofam0400pna	21240	VILLAGRA GUILLERMO R	LAPAZ
jdofam0400pna	20944	VILLANUEVA EDGARDO R	TABOSSI
jdofam0400pna	20461	VILLARROEL CAROLINA 	COLONIAAVELLANEDA
jdofam0400pna	20676	VLACHOFF JAVIER GUST	HERNANDARIAS
jdofam0400pna	20100	WILLMAN ALICIA ROSAN	HASENKAMP,E.R.
jdofam0400pna	20627	WILLMAN ALICIA ROSAN	HASENKAMP,E.R.
jdofam0400pna	21148	ZALURZO CINTIA SOLED	COLONIAAVELLANEDA
jdofam0400pna	20730	ZUFIAURRE MARIA JOSE	FEDERAL
jdofam0400pna	21149	ZURITA RITO SANTOS R	CAPITALFEDERAL
