"circunscripcion","organismo_descripcion","mes","nro","fecha_efect_preliminar","fprogramada_vista_causa","¿en oralidad? si_no","razones para la no fijación de AVC"
"Chajarí","Jdo Civ y Com 1 -ccomp.Laboral","julio","13157/17",2018-07-26,"sin_dato"," "," "
"Chajarí","Jdo Civ y Com 1 -ccomp.Laboral","julio","13169/17",2018-07-31,"sin_dato"," "," "
"Chajarí","Jdo Civ y Com 1 -ccomp.Laboral","julio","12952/16",2018-07-05,"sin_dato"," "," "
"Chajarí","Jdo Civ y Com 2 -ccomp.Laboral","agosto","4423/16",2018-08-16,"sin_dato"," "," "
"Chajarí","Jdo Civ y Com 2 -ccomp.Laboral","julio","4480/16",2018-07-04,"sin_dato"," "," "
"Chajarí","Jdo Civ y Com 2 -ccomp.Laboral","julio","4075/15",2018-07-02,"sin_dato"," "," "
"Chajarí","Jdo Civ y Com 2 -ccomp.Laboral","julio","4748/18",2018-07-24,"sin_dato"," "," "
"Chajarí","Jdo Civ y Com 2 -ccomp.Laboral","julio","4704/17",2018-07-31,"sin_dato"," "," "
"Chajarí","Jdo Civ y Com 2 -ccomp.Laboral","septiembre","4662/17",2018-09-21,"sin_dato"," "," "
"Colón","Jdo Civ y Com 1 -ccomp.Laboral","septiembre","14108-18",2018-09-19,"sin_dato"," "," "
"Colón","Jdo Civ y Com 2 -ccomp.Laboral","agosto","13569",2018-08-08,"sin_dato"," "," "
"Colón","Jdo Civ y Com 2 -ccomp.Laboral","agosto","13343",2018-08-01,"sin_dato"," "," "
"Colón","Jdo Civ y Com 2 -ccomp.Laboral","agosto","13141",2018-08-22,"sin_dato"," "," "
"Colón","Jdo Civ y Com 2 -ccomp.Laboral","agosto","13396",2018-08-07,"sin_dato"," "," "
"Colón","Jdo Civ y Com 2 -ccomp.Laboral","julio","12164",2018-07-24,"sin_dato"," "," "
"Colón","Jdo Civ y Com 2 -ccomp.Laboral","septiembre","12272",2018-09-05,"sin_dato"," "," "
"Concordia","Jdo Civ y Com 1","agosto","12262",2018-08-02,"sin_dato"," "," "
"Concordia","Jdo Civ y Com 1","agosto","12039",2018-08-01,"sin_dato"," "," "
"Concordia","Jdo Civ y Com 1","agosto","11780",2018-08-07,"sin_dato"," "," "
"Concordia","Jdo Civ y Com 1","agosto","12204",2018-08-09,"sin_dato"," "," "
"Concordia","Jdo Civ y Com 1","julio","12127",2018-07-03,"sin_dato"," "," "
"Concordia","Jdo Civ y Com 1","julio","11744",2018-07-31,"sin_dato"," "," "
"Concordia","Jdo Civ y Com 4","agosto","9093",2018-08-09,"sin_dato"," "," "
"Concordia","Jdo Civ y Com 4","agosto","9323",2018-08-23,"sin_dato"," "," "
"Concordia","Jdo Civ y Com 4","agosto","9535",2018-08-16,"sin_dato"," "," "
"Concordia","Jdo Civ y Com 4","agosto","9500",2018-08-21,"sin_dato"," "," "
"Concordia","Jdo Civ y Com 4","agosto","8590",2018-08-15,"sin_dato"," "," "
"Concordia","Jdo Civ y Com 4","agosto","8590",2018-08-10,"sin_dato"," "," "
"Concordia","Jdo Civ y Com 4","agosto","9573",2018-08-02,"sin_dato"," "," "
"Concordia","Jdo Civ y Com 4","agosto","9083",2018-08-07,"sin_dato"," "," "
"Concordia","Jdo Civ y Com 4","julio","8714",2018-07-31,"sin_dato"," "," "
"Concordia","Jdo Civ y Com 4","octubre","9544",2018-10-04,"sin_dato"," "," "
"Concordia","Jdo Civ y Com 4","octubre","9057",2018-10-11,"sin_dato"," "," "
"Concordia","Jdo Civ y Com 4","octubre","9597",2018-10-09,"sin_dato"," "," "
"Concordia","Jdo Civ y Com 4","octubre","9291",2018-10-16,"sin_dato"," "," "
"Concordia","Jdo Civ y Com 4","septiembre","9463",2018-09-27,"sin_dato"," "," "
"Diamante","Jdo Civ y Com Lab","agosto","12055",2018-08-15,"sin_dato"," "," "
"Diamante","Jdo Civ y Com Lab","agosto","13053",2018-08-29,"sin_dato"," "," "
"Federación","Jdo Civ y Com Lab Fam","julio","15370",2018-07-25,"sin_dato"," "," "
"Federación","Jdo Civ y Com Lab Fam","septiembre","15031",2018-09-04,"sin_dato"," "," "
"Federación","Jdo Civ y Com Lab Fam","septiembre","15444",2018-09-25,"sin_dato"," "," "
"Federación","Jdo Civ y Com Lab Fam","septiembre","14756",2018-09-13,"sin_dato"," "," "
"Federal","Jdo Civ y Com Lab","agosto","18663",2018-08-09,"sin_dato"," "," "
"Federal","Jdo Civ y Com Lab","septiembre","18767",2018-09-27,"sin_dato"," "," "
"Gualeguaychú","Jdo Civ y Com 2","julio","11380",2018-07-26,"sin_dato"," "," "
"Gualeguaychú","Jdo Civ y Com 2","octubre","11360",2018-10-25,"sin_dato"," "," "
"Gualeguaychú","Jdo Civ y Com 2","septiembre","11392",2018-09-06,"sin_dato"," "," "
"Gualeguaychú","Jdo Civ y Com 3","octubre","6745",2018-10-10,"sin_dato"," "," "
"Gualeguaychú","Jdo Civ y Com 3","octubre","7148",2018-10-24,"sin_dato"," "," "
"Gualeguaychú","Jdo Civ y Com 3","octubre","7132",2018-10-31,"sin_dato"," "," "
"Gualeguaychú","Jdo Civ y Com 3","septiembre","6434",2018-09-11,"sin_dato"," "," "
"Gualeguaychú","Jdo Civ y Com 3","septiembre","6914",2018-09-25,"sin_dato"," "," "
"Islas del Ibicuy","Jdo Civ Com y Lab","agosto","413/",2018-08-01,"sin_dato"," "," "
"La Paz","Jdo Civ y Com 1 -ccomp.Laboral","agosto","4795",2018-08-09,"sin_dato"," "," "
"La Paz","Jdo Civ y Com 2 -ccomp.Laboral","julio","4664",2018-07-31,"sin_dato"," "," "
"La Paz","Jdo Civ y Com 2 -ccomp.Laboral","julio","5506",2018-07-26,"sin_dato"," "," "
"La Paz","Jdo Civ y Com 2 -ccomp.Laboral","octubre","5266",2018-10-17,"sin_dato"," "," "
"La Paz","Jdo Civ y Com 2 -ccomp.Laboral","septiembre","4671",2018-09-26,"sin_dato"," "," "
"Nogoyá","Jdo Civ y Com 1 -ccomp.Laboral","agosto","8341",2018-08-31,"sin_dato"," "," "
"Nogoyá","Jdo Civ y Com 1 -ccomp.Laboral","octubre","8919",2018-10-02,"sin_dato"," "," "
"Nogoyá","Jdo Civ y Com 1 -ccomp.Laboral","septiembre","8816",2018-09-25,"sin_dato"," "," "
"Nogoyá","Jdo Civ y Com 2 -ccomp.Laboral","julio","5133",2018-07-31,"sin_dato"," "," "
"Nogoyá","Jdo Civ y Com 2 -ccomp.Laboral","julio","5283",2018-07-25,"sin_dato"," "," "
"Paraná","Jdo Civ y Com 1","agosto","17714",2018-08-29,"sin_dato"," "," "
"Paraná","Jdo Civ y Com 2","agosto","18314",2018-08-17,"sin_dato"," "," "
"Paraná","Jdo Civ y Com 2","octubre","18482",2018-10-11,"sin_dato"," "," "
"Paraná","Jdo Civ y Com 2","septiembre","18514",2018-09-10,"sin_dato"," "," "
"Paraná","Jdo Civ y Com 3","agosto","33627",2018-08-28,"sin_dato"," "," "
"Paraná","Jdo Civ y Com 3","agosto","34089",2018-08-21,"sin_dato"," "," "
"Paraná","Jdo Civ y Com 3","agosto","34089",2018-08-21,"sin_dato"," "," "
"Paraná","Jdo Civ y Com 3","agosto","34089",2018-08-21,"sin_dato"," "," "
"Paraná","Jdo Civ y Com 3","agosto","34177",2018-08-16,"sin_dato"," "," "
"Paraná","Jdo Civ y Com 3","agosto","33329",2018-08-30,"sin_dato"," "," "
"Paraná","Jdo Civ y Com 3","agosto","33329",2018-08-30,"sin_dato"," "," "
"Paraná","Jdo Civ y Com 3","agosto","34087",2018-08-27,"sin_dato"," "," "
"Paraná","Jdo Civ y Com 3","agosto","34109",2018-08-02,"sin_dato"," "," "
"Paraná","Jdo Civ y Com 3","octubre","33043",2018-10-02,"sin_dato"," "," "
"Paraná","Jdo Civ y Com 3","octubre","34002",2018-10-18,"sin_dato"," "," "
"Paraná","Jdo Civ y Com 3","octubre","33231",2018-10-09,"sin_dato"," "," "
"Paraná","Jdo Civ y Com 3","septiembre","33231",2018-09-04,"sin_dato"," "," "
"Paraná","Jdo Civ y Com 3","septiembre","33707",2018-09-11,"sin_dato"," "," "
"Paraná","Jdo Civ y Com 3","septiembre","34025",2018-09-19,"sin_dato"," "," "
"Paraná","Jdo Civ y Com 4","julio","23083",2018-07-24,"sin_dato"," "," "
"Paraná","Jdo Civ y Com 4","octubre","22849",2018-10-02,"sin_dato"," "," "
"Paraná","Jdo Civ y Com 5","julio","29713",2018-07-05,"sin_dato"," "," "
"Paraná","Jdo Civ y Com 6","septiembre","14453",2018-09-06,"sin_dato"," "," "
"Paraná","Jdo Civ y Com 7","agosto","19463",2018-08-14,"sin_dato"," "," "
"Paraná","Jdo Civ y Com 7","agosto","19463",2018-08-14,"sin_dato"," "," "
"Paraná","Jdo Civ y Com 7","agosto","19463",2018-08-14,"sin_dato"," "," "
"Paraná","Jdo Civ y Com 7","agosto","19775",2018-08-07,"sin_dato"," "," "
"Paraná","Jdo Civ y Com 7","agosto","19413",2018-08-02,"sin_dato"," "," "
"Paraná","Jdo Civ y Com 7","agosto","19846",2018-08-24,"sin_dato"," "," "
"Paraná","Jdo Civ y Com 7","agosto","19944",2018-08-16,"sin_dato"," "," "
"Paraná","Jdo Civ y Com 7","julio","19685",2018-07-26,"sin_dato"," "," "
"Paraná","Jdo Civ y Com 7","julio","19544",2018-07-03,"sin_dato"," "," "
"Paraná","Jdo Civ y Com 8","agosto","19084",2018-08-02,"sin_dato"," "," "
"Paraná","Jdo Civ y Com 8","agosto","19219",2018-08-23,"sin_dato"," "," "
"Paraná","Jdo Civ y Com 8","agosto","19397",2018-08-07,"sin_dato"," "," "
"San Salvador","Jdo Civ y Com Lab Fam","julio","1195",2018-07-05,"sin_dato"," "," "
"Tala","Jdo Civ y Com -ccomp.Laboral","septiembre","8529",2018-09-18,"sin_dato"," "," "
"Uruguay","Jdo Civ y Com 1","agosto","8025",2018-08-21,"sin_dato"," "," "
"Uruguay","Jdo Civ y Com 1","agosto","7288",2018-08-15,"sin_dato"," "," "
"Uruguay","Jdo Civ y Com 1","agosto","6684",2018-08-07,"sin_dato"," "," "
"Uruguay","Jdo Civ y Com 1","agosto","7748",2018-08-28,"sin_dato"," "," "
"Uruguay","Jdo Civ y Com 1","agosto","7475",2018-08-08,"sin_dato"," "," "
"Uruguay","Jdo Civ y Com 1","agosto","7710",2018-08-22,"sin_dato"," "," "
"Uruguay","Jdo Civ y Com 1","julio","7064",2018-07-25,"sin_dato"," "," "
"Uruguay","Jdo Civ y Com 1","julio","7753",2018-07-03,"sin_dato"," "," "
"Uruguay","Jdo Civ y Com 1","julio","7823",2018-07-24,"sin_dato"," "," "
"Uruguay","Jdo Civ y Com 1","julio","7485",2018-07-06,"sin_dato"," "," "
"Uruguay","Jdo Civ y Com 1","septiembre","7872",2018-09-27,"sin_dato"," "," "
"Uruguay","Jdo Civ y Com 2","agosto","8724",2018-08-02,"sin_dato"," "," "
"Uruguay","Jdo Civ y Com 2","agosto","8323",2018-08-14,"sin_dato"," "," "
"Uruguay","Jdo Civ y Com 2","agosto","8614",2018-08-09,"sin_dato"," "," "
"Uruguay","Jdo Civ y Com 2","agosto","8818",2018-08-08,"sin_dato"," "," "
"Uruguay","Jdo Civ y Com 2","octubre","7765",2018-10-10,"sin_dato"," "," "
"Uruguay","Jdo Civ y Com 2","octubre","8511",2018-10-30,"sin_dato"," "," "
"Uruguay","Jdo Civ y Com 2","octubre","8169",2018-10-23,"sin_dato"," "," "
"Uruguay","Jdo Civ y Com 2","septiembre","7765",2018-09-20,"sin_dato"," "," "
"Uruguay","Jdo Civ y Com 2","septiembre","8775",2018-09-18,"sin_dato"," "," "
"Uruguay","Jdo Civ y Com 2","septiembre","8088",2018-09-12,"sin_dato"," "," "
"Victoria","Jdo Civ y Com -ccomp.Laboral","agosto","13684",2018-08-27,"sin_dato"," "," "
"Victoria","Jdo Civ y Com -ccomp.Laboral","agosto","12184",2018-08-31,"sin_dato"," "," "
"Victoria","Jdo Civ y Com -ccomp.Laboral","agosto","13343",2018-08-30,"sin_dato"," "," "
"Victoria","Jdo Civ y Com -ccomp.Laboral","septiembre","13415",2018-09-05,"sin_dato"," "," "
"Villaguay","Jdo Civ y Com 1 -ccomp.Laboral","agosto","8015",2018-08-14,"sin_dato"," "," "
"Villaguay","Jdo Civ y Com 1 -ccomp.Laboral","octubre","7845",2018-10-25,"sin_dato"," "," "
"Villaguay","Jdo Civ y Com 1 -ccomp.Laboral","octubre","7917",2018-10-24,"sin_dato"," "," "
"Villaguay","Jdo Civ y Com 1 -ccomp.Laboral","octubre","8209",2018-10-17,"sin_dato"," "," "
"Villaguay","Jdo Civ y Com 2 -ccomp.Laboral","agosto","5042",2018-08-16,"sin_dato"," "," "
"Villaguay","Jdo Civ y Com 2 -ccomp.Laboral","agosto","3310",2018-08-21,"sin_dato"," "," "
"Villaguay","Jdo Civ y Com 2 -ccomp.Laboral","agosto","4765",2018-08-28,"sin_dato"," "," "
"Villaguay","Jdo Civ y Com 2 -ccomp.Laboral","agosto","3034",2018-08-23,"sin_dato"," "," "
"Villaguay","Jdo Civ y Com 2 -ccomp.Laboral","octubre","4499",2018-10-11,"sin_dato"," "," "
"Villaguay","Jdo Civ y Com 2 -ccomp.Laboral","octubre","5068",2018-10-10,"sin_dato"," "," "
"Villaguay","Jdo Civ y Com 2 -ccomp.Laboral","septiembre","5104",2018-09-18,"sin_dato"," "," "
