iep,nro,carátula,tipo proceso,finicio,fdesp,fvenc1,fres,durac,inactiv. prev.
jdocco0000fed,1034 L,BURNA Marial Andrea y...,HOMOLOGACION...,15/06/2018,27/07/2018,10/08/2018,16/08/2018,62,14
jdocco0000fed,13514 F,BARBOZA Rubén Darío,DECLARACION ...,09/03/2015,28/06/2018,02/08/2018,17/08/2018,1257,29
jdocco0000fed,13691 F,MONTENEGRO Nahuel Mar...,DECLARACION ...,19/05/2015,28/06/2018,02/08/2018,21/08/2018,1190,30
jdocco0000fed,13730,FIASCHE Nancy  Mariel...,ORDINARIO,04/06/2015,01/03/2018,27/04/2018,02/08/2018,1155,91
jdocco0000fed,15511,WALLINGRE Amilcar Rub...,INCIDENTE DE...,23/10/2017,28/06/2018,26/07/2018,08/08/2018,289,14
jdocco0000fed,15519 F,BENITEZ Marlene María...,DIVORCIO,26/10/2017,27/04/2018,29/06/2018,09/08/2018,287,23
jdocco0000fed,15527 F,VAGO Gerardo Rodolfo ...,DIVORCIO,30/10/2017,09/04/2018,06/06/2018,03/08/2018,277,19
jdocco0000fed,15806,ORTIZ Guillermo Tadeo...,EJECUCION DE...,21/03/2018,06/08/2018,21/08/2018,22/08/2018,154,111
jdocco0000fed,15817 M,GALVEZ Marisol Isabel,MEDIDA DE PR...,26/03/2018,10/08/2018,17/08/2018,10/08/2018,137,22
jdocco0000fed,15857 F,SANCHEZ LEGAL Josefin...,ALIMENTOS,25/04/2018,10/08/2018,27/08/2018,29/08/2018,126,35
jdocco0000fed,15890 F,NAVARRO Pablo Javier ...,HOMOLOGACION...,07/05/2018,26/06/2018,24/07/2018,03/08/2018,88,18
jdocco0000fed,15917 F,SGUERZO Vanesa Yanina...,HOMOLOGACION...,18/05/2018,03/08/2018,31/08/2018,15/08/2018,89,39
jdocco0000fed,15930,AISPURU Jesus Hilmar ...,MONITORIO DE...,28/05/2018,01/08/2018,23/08/2018,10/08/2018,74,55
jdocco0000fed,829 L,GALVAN José Antonio C...,LABORAL,25/02/2016,07/05/2018,19/06/2018,16/08/2018,903,12
jdocco0000fed,961 L,ELGART Maria Rosa C/ ...,EJECUCION DE...,22/09/2017,12/06/2018,04/07/2018,08/08/2018,320,15
