"id_submission","iep","data_interval_start","data_interval_end","mes","GTIA_VS_cantidad_audiencias","GTIA_VS_cantidad_audiencias_fracasadas","GTIA_VS_cantidad_detenidos_a_disposicion","GTIA_VS_res_1_orden_detencion","GTIA_VS_RES_10_nulidades","GTIA_VS_RES_11_competencias","GTIA_VS_RES_12_Inhibiciones_recusaciones","GTIA_VS_RES_13_medidas_seguridad","GTIA_VS_RES_14_suspension_proceso_penal_a_prueba","GTIA_VS_RES_15_prorroga_I_P_P","GTIA_VS_RES_16_juicio_abreviado","GTIA_VS_RES_17_remision_a_juicio","GTIA_VS_RES_18_otras","GTIA_VS_RES_2_allanamientos","GTIA_VS_RES_3_medida_proteccion_a_la_victima","GTIA_VS_RES_4_otras_cautelares","GTIA_VS_RES_5_prision_preventiva","GTIA_VS_RES_6_excarcelacion","GTIA_VS_RES_7_sustitutivas_prision_preventiva","GTIA_VS_RES_8_const_querellante_particular_act_civil","GTIA_VS_RES_9_a1_sobreseimiento_extincion_accion_penal_x_prescr","GTIA_VS_RES_9_a2_sobreseimiento_extincion_accion_penal_x_fallec","GTIA_VS_RES_9_a3_sobreseimiento_extincion_accion_penal_x_otras","GTIA_VS_RES_9_b_sobreseimiento_76_ter_CP","GTIA_VS_RES_9_c_sobreseimiento_cumplimiento_acuerdo_mediacion_o","GTIA_VS_RES_9_d_sobreseimiento_causales_atipicidad_justificacio","GTIA_VS_total_causas_ingresadas","GTIA_VS_total_de_causas_en_tramite","GTIA_VS_visitas_de_carcel_y_lugar_de_detencion"
2292,"ogapen0000gay",2018-03-01 00:00:00,2018-04-01 01:00:00,"marzo",259,9,3,20,0,1,0,0,14,0,2,2,72,53,41,0,23,0,6,5,0,0,0,1,0,19,110,350,0
2302,"ogapen0000lpa",2018-03-01 00:00:00,2018-04-01 01:00:00,"marzo",39,2,5,2,0,0,0,0,1,0,2,0,1,30,10,6,4,5,3,4,0,0,1,1,4,1,52,125,1
2310,"jezpen0000frl",2018-03-01 00:00:00,2018-04-01 01:00:00,"marzo",38,1,0,0,0,0,1,0,9,0,0,2,0,6,13,1,2,0,1,1,0,0,0,2,0,4,30,66,0
2329,"jezpen0000dia",2018-03-01 00:00:00,2018-04-01 01:00:00,"marzo",70,5,9,3,0,2,0,0,8,0,5,2,0,26,9,11,3,6,3,0,0,0,0,6,3,7,25,375,1
2331,"jezpen0000vil",2018-03-01 00:00:00,2018-04-01 01:00:00,"marzo",38,1,1,0,0,0,0,0,6,0,3,1,6,8,0,0,3,0,0,0,3,0,1,2,4,1,39,39,1
2400,"jezpen0000fed",2018-03-01 00:00:00,2018-04-01 01:00:00,"marzo",35,17,1,1,0,0,0,0,4,0,1,0,0,18,5,0,2,0,1,1,0,1,0,7,0,4,32,841,0
2424,"jezpen0000vic",2018-03-01 00:00:00,2018-04-01 01:00:00,"marzo",46,0,11,0,0,0,0,0,8,0,2,1,2,13,0,2,5,5,1,1,0,1,0,0,3,3,27,1479,0
2543,"jezpen0000col",2018-03-01 00:00:00,2018-04-01 01:00:00,"marzo",21,9,2,1,0,1,0,0,3,0,3,0,21,11,2,0,4,0,0,0,0,0,0,3,0,1,24,1037,1
2563,"jezpen0000tal",2018-03-01 00:00:00,2018-04-01 01:00:00,"marzo",49,2,10,1,0,0,0,0,3,14,4,0,0,3,6,0,6,9,24,1,0,0,0,2,0,2,15,344,0
2649,"ogapen0000con",2018-03-01 00:00:00,2018-04-01 01:00:00,"marzo",263,70,42,3,0,2,0,0,28,0,19,6,17,73,51,11,36,46,46,1,8,1,22,19,0,27,167,4624,1
2673,"ogapen0000cha",2018-03-01 00:00:00,2018-04-01 01:00:00,"marzo",32,0,14,0,0,0,0,0,3,0,2,3,14,3,4,5,2,0,2,0,0,0,1,0,0,1,24,898,8
2810,"ogapen0000lpa",2018-04-01 01:00:00,2018-05-01 01:00:00,"abril",63,5,1,6,0,0,0,0,13,0,4,1,2,25,5,6,1,6,1,1,0,0,0,0,0,0,34,111,1
2814,"jezpen0000vic",2018-04-01 01:00:00,2018-05-01 01:00:00,"abril",26,1,3,0,0,2,0,0,5,0,1,1,0,7,1,1,0,2,1,1,0,0,0,0,0,4,23,1496,0
2833,"jezpen0000vil",2018-04-01 01:00:00,2018-05-01 01:00:00,"abril",38,0,6,3,0,0,0,0,4,1,3,1,15,4,2,0,1,0,1,1,0,0,0,1,2,0,38,38,1
2836,"jezpen0000fel",2018-03-01 00:00:00,2018-04-01 01:00:00,"marzo",16,5,3,0,0,0,0,0,0,0,4,0,0,5,4,0,3,0,1,0,0,0,0,1,0,0,16,16,1
2843,"jezpen0000fel",2018-04-01 01:00:00,2018-05-01 01:00:00,"abril",13,6,3,0,0,1,0,0,2,0,0,0,0,6,6,1,2,1,0,0,0,0,0,0,0,0,14,20,1
2877,"ogapen0000uru",2018-03-01 00:00:00,2018-04-01 01:00:00,"marzo",191,3,24,16,0,3,0,0,38,4,13,9,54,38,27,0,17,9,17,3,0,0,0,24,6,5,109,2196,1
2914,"jezpen0000dia",2018-01-01 00:00:00,2018-02-01 00:00:00,"enero",61,3,5,0,0,3,0,0,12,2,3,4,0,28,3,10,0,3,2,0,0,0,0,0,3,6,26,378,1
2933,"jezpen0000fed",2018-04-01 01:00:00,2018-05-01 01:00:00,"abril",25,13,1,0,0,1,0,0,0,0,0,1,1,13,7,0,1,0,3,0,1,0,0,4,0,2,42,878,0
3002,"ogapen0000con",2018-04-01 01:00:00,2018-05-01 01:00:00,"abril",265,65,42,6,0,0,0,1,34,0,28,6,16,61,63,7,9,52,54,1,11,0,1,10,0,11,193,4674,1
3066,"ogapen0000gay",2018-04-01 01:00:00,2018-05-01 01:00:00,"abril",126,5,5,3,0,1,0,0,11,0,4,2,0,29,25,0,5,0,1,2,0,0,0,5,0,12,79,423,0
3073,"jezpen0000dia",2018-04-01 01:00:00,2018-05-01 01:00:00,"abril",61,3,5,0,0,3,0,0,12,2,3,4,0,28,3,10,2,3,2,0,9,0,0,0,3,6,41,378,1
3110,"jezpen0000col",2018-04-01 01:00:00,2018-05-01 01:00:00,"abril",14,3,4,0,0,0,0,0,0,0,2,0,6,16,7,0,2,0,0,1,5,0,0,0,0,0,23,1051,1
3129,"ogapen0000nog",2018-04-01 01:00:00,2018-05-01 01:00:00,"abril",70,30,0,1,0,0,0,0,6,0,3,1,25,4,19,1,3,3,3,2,0,0,2,0,1,0,49,1218,1
3131,"ogapen0000nog",2018-03-01 00:00:00,2018-04-01 01:00:00,"marzo",63,15,3,1,0,0,0,0,6,1,1,4,17,2,14,8,3,2,0,2,10,0,0,0,15,0,38,1108,1
3189,"jezpen0000frl",2018-04-01 01:00:00,2018-05-01 01:00:00,"abril",41,1,0,1,0,0,3,0,7,0,0,0,0,4,12,0,1,0,1,0,0,0,0,3,0,11,47,111,0
3242,"ogapen0000uru",2018-04-01 01:00:00,2018-05-01 01:00:00,"abril",166,5,32,9,0,2,0,0,43,4,11,7,37,96,26,0,22,1,15,4,1,0,0,21,4,2,111,2217,1
3257,"ogapen0000gch",2018-03-01 00:00:00,2018-04-01 01:00:00,"marzo",271,10,51,14,1,5,2,0,6,3,10,12,21,43,52,4,13,0,27,2,4,0,0,0,0,1,137,1740,0
3269,"ogapen0000gch",2018-04-01 01:00:00,2018-05-01 01:00:00,"abril",195,9,59,14,0,3,1,0,5,8,4,5,14,48,54,1,6,0,20,5,0,0,3,0,1,3,122,1832,0
3277,"jezpen0000vic",2018-05-01 01:00:00,2018-06-01 01:00:00,"mayo",36,0,2,0,0,1,0,0,3,0,1,1,0,18,1,1,0,1,3,1,0,0,4,0,0,0,26,1521,0
3314,"ogapen0000lpa",2018-05-01 01:00:00,2018-06-01 01:00:00,"mayo",74,10,3,3,0,0,0,0,11,0,6,1,0,28,9,2,2,1,0,9,0,0,0,0,0,0,41,790,1
3346,"ogapen0000gay",2018-05-01 01:00:00,2018-06-01 01:00:00,"mayo",176,22,28,1,0,2,0,0,24,0,1,1,48,29,29,0,3,0,0,4,32,0,0,0,0,0,97,499,0
3353,"jezpen0000dia",2018-05-01 01:00:00,2018-06-01 01:00:00,"mayo",48,3,10,1,0,1,0,0,5,2,4,0,0,22,9,4,3,5,1,2,0,0,0,9,2,1,24,402,1
3449,"jezpen0000fed",2018-05-01 01:00:00,2018-06-01 01:00:00,"mayo",37,13,2,2,0,1,0,0,7,0,1,0,0,16,3,0,2,0,9,0,2,0,0,8,0,4,35,904,0
3541,"ogapen0000gch",2018-05-01 01:00:00,2018-06-01 01:00:00,"mayo",263,14,49,20,0,4,0,1,12,8,7,10,20,56,49,5,14,0,34,5,0,0,8,5,5,0,144,1864,0
3586,"ogapen0000con",2018-05-01 01:00:00,2018-06-01 01:00:00,"mayo",363,109,42,8,0,3,0,0,50,0,35,14,27,61,55,21,16,39,34,1,3,0,0,32,2,17,169,4786,1
3595,"jezpen0000fel",2018-05-01 01:00:00,2018-06-01 01:00:00,"mayo",14,4,4,1,0,0,0,0,2,0,0,1,0,6,3,1,2,3,0,0,0,0,0,0,0,0,15,15,1
3673,"jezpen0000tal",2018-04-01 01:00:00,2018-05-01 01:00:00,"abril",53,0,4,0,0,0,0,0,5,10,0,0,0,1,13,0,3,1,21,1,0,0,0,3,0,3,10,346,1
3674,"jezpen0000tal",2018-05-01 01:00:00,2018-06-01 01:00:00,"mayo",69,0,4,0,0,2,0,0,6,18,0,0,0,7,13,0,2,1,22,0,1,0,0,3,0,1,15,358,0
3702,"jezpen0000frl",2018-05-01 01:00:00,2018-06-01 01:00:00,"mayo",26,3,0,0,0,1,2,0,2,0,0,0,0,5,6,0,1,0,1,1,0,0,0,5,11,0,34,95,0
3705,"ogapen0000nog",2018-05-01 01:00:00,2018-06-01 01:00:00,"mayo",82,34,6,4,0,0,1,0,17,0,1,2,12,1,0,0,3,0,1,0,4,0,0,0,0,2,27,1233,1
3748,"jezpen0000vil",2018-05-01 01:00:00,2018-06-01 01:00:00,"mayo",49,4,6,2,0,0,0,0,2,1,2,2,13,5,4,0,2,0,2,1,2,0,1,4,2,0,49,49,1
3792,"ogapen0000cha",2018-04-01 01:00:00,2018-05-01 01:00:00,"abril",31,2,12,0,0,0,0,0,6,1,0,2,30,10,2,3,0,0,1,0,0,0,3,0,1,1,37,953,2
3824,"ogapen0000uru",2018-05-01 01:00:00,2018-06-01 01:00:00,"mayo",175,6,37,7,0,2,0,0,42,0,5,6,42,62,14,0,26,3,11,2,1,0,0,30,5,12,76,2210,1
5435,"ogapen0000cha",2018-05-01 01:00:00,2018-06-01 01:00:00,"mayo",31,2,12,0,0,0,0,0,6,1,0,2,30,10,2,3,0,0,1,0,2,0,1,0,1,1,37,953,10
5516,"jezpen0000col",2018-05-01 01:00:00,2018-06-01 01:00:00,"mayo",27,6,1,5,0,0,0,0,3,0,0,3,0,2,2,0,4,0,0,0,0,0,0,0,0,0,24,1088,1
