"circunscripcion","organismo descripcion","dimension evaluada","Muy Bien","Bien","Regular","Mal","NS NC"
"Chajarí","Jdo Civ y Com 1 -ccomp.Laboral","depurac_prueba",13,4,0,0,0
"Chajarí","Jdo Civ y Com 1 -ccomp.Laboral","intent_concil",14,3,0,0,0
"Chajarí","Jdo Civ y Com 1 -ccomp.Laboral","trato",15,2,0,0,0
"Chajarí","Jdo Civ y Com 2 -ccomp.Laboral","depurac_prueba",24,0,0,0,0
"Chajarí","Jdo Civ y Com 2 -ccomp.Laboral","intent_concil",19,5,0,0,0
"Chajarí","Jdo Civ y Com 2 -ccomp.Laboral","trato",24,0,0,0,0
"Colón","Jdo Civ y Com 1","depurac_prueba",42,6,0,0,0
"Colón","Jdo Civ y Com 1","intent_concil",36,5,0,0,7
"Colón","Jdo Civ y Com 1","trato",46,2,0,0,0
"Colón","Jdo Civ y Com 2","depurac_prueba",27,1,0,0,0
"Colón","Jdo Civ y Com 2","intent_concil",22,4,0,0,2
"Colón","Jdo Civ y Com 2","trato",28,0,0,0,0
"Concordia","Jdo Civ y Com 1","depurac_prueba",36,7,0,0,0
"Concordia","Jdo Civ y Com 1","intent_concil",35,7,1,0,0
"Concordia","Jdo Civ y Com 1","trato",39,4,0,0,0
"Concordia","Jdo Civ y Com 2","depurac_prueba",67,5,0,0,1
"Concordia","Jdo Civ y Com 2","intent_concil",66,6,1,0,0
"Concordia","Jdo Civ y Com 2","trato",70,3,0,0,0
"Concordia","Jdo Civ y Com 3","depurac_prueba",30,3,0,0,0
"Concordia","Jdo Civ y Com 3","intent_concil",29,3,0,0,1
"Concordia","Jdo Civ y Com 3","trato",33,0,0,0,0
"Concordia","Jdo Civ y Com 4","depurac_prueba",36,6,1,0,0
"Concordia","Jdo Civ y Com 4","intent_concil",35,5,0,0,3
"Concordia","Jdo Civ y Com 4","trato",41,2,0,0,0
"Concordia","Jdo Civ y Com 6","depurac_prueba",63,1,0,0,0
"Concordia","Jdo Civ y Com 6","intent_concil",61,3,0,0,0
"Concordia","Jdo Civ y Com 6","trato",64,0,0,0,0
"Diamante","Jdo Civ y Com Lab","depurac_prueba",48,3,0,0,9
"Diamante","Jdo Civ y Com Lab","intent_concil",52,7,0,0,1
"Diamante","Jdo Civ y Com Lab","trato",59,1,0,0,0
"Federación","Jdo Civ y Com Lab Fam","depurac_prueba",17,6,0,0,0
"Federación","Jdo Civ y Com Lab Fam","intent_concil",23,0,0,0,0
"Federación","Jdo Civ y Com Lab Fam","trato",23,0,0,0,0
"Federal","Jdo Civ y Com Lab","depurac_prueba",29,6,0,0,1
"Federal","Jdo Civ y Com Lab","intent_concil",26,7,3,0,0
"Federal","Jdo Civ y Com Lab","trato",32,4,0,0,0
"Gualeguay","Jdo Civ y Com 1","depurac_prueba",15,1,0,0,0
"Gualeguay","Jdo Civ y Com 1","intent_concil",15,1,0,0,0
"Gualeguay","Jdo Civ y Com 1","trato",16,0,0,0,0
"Gualeguay","Jdo Civ y Com 2","depurac_prueba",31,4,0,0,0
"Gualeguay","Jdo Civ y Com 2","intent_concil",30,5,0,0,0
"Gualeguay","Jdo Civ y Com 2","trato",33,2,0,0,0
"Gualeguaychú","Jdo Civ y Com 1","depurac_prueba",16,0,0,0,0
"Gualeguaychú","Jdo Civ y Com 1","intent_concil",15,1,0,0,0
"Gualeguaychú","Jdo Civ y Com 1","trato",16,0,0,0,0
"Gualeguaychú","Jdo Civ y Com 2","depurac_prueba",21,0,0,0,1
"Gualeguaychú","Jdo Civ y Com 2","intent_concil",20,2,0,0,0
"Gualeguaychú","Jdo Civ y Com 2","trato",22,0,0,0,0
"Gualeguaychú","Jdo Civ y Com 3","depurac_prueba",13,2,0,0,1
"Gualeguaychú","Jdo Civ y Com 3","intent_concil",14,2,0,0,0
"Gualeguaychú","Jdo Civ y Com 3","trato",16,0,0,0,0
"Islas del Ibicuy","Jdo Civ Com y Lab","depurac_prueba",4,0,0,0,0
"Islas del Ibicuy","Jdo Civ Com y Lab","intent_concil",4,0,0,0,0
"Islas del Ibicuy","Jdo Civ Com y Lab","trato",2,2,0,0,0
"La Paz","Jdo Civ y Com 1 -ccomp.Laboral","depurac_prueba",7,1,1,0,0
"La Paz","Jdo Civ y Com 1 -ccomp.Laboral","intent_concil",8,0,0,1,0
"La Paz","Jdo Civ y Com 1 -ccomp.Laboral","trato",8,0,1,0,0
"La Paz","Jdo Civ y Com 2 -ccomp.Laboral","depurac_prueba",15,7,0,0,2
"La Paz","Jdo Civ y Com 2 -ccomp.Laboral","intent_concil",19,5,0,0,0
"La Paz","Jdo Civ y Com 2 -ccomp.Laboral","trato",20,4,0,0,0
"Nogoyá","Jdo Civ y Com 1 -ccomp.Laboral","depurac_prueba",13,6,0,0,0
"Nogoyá","Jdo Civ y Com 1 -ccomp.Laboral","intent_concil",12,7,0,0,0
"Nogoyá","Jdo Civ y Com 1 -ccomp.Laboral","trato",15,4,0,0,0
"Nogoyá","Jdo Civ y Com 2 -ccomp.Laboral","depurac_prueba",3,1,0,0,0
"Nogoyá","Jdo Civ y Com 2 -ccomp.Laboral","intent_concil",3,1,0,0,0
"Nogoyá","Jdo Civ y Com 2 -ccomp.Laboral","trato",3,1,0,0,0
"Paraná","Jdo Civ y Com 1","depurac_prueba",24,5,0,0,1
"Paraná","Jdo Civ y Com 1","intent_concil",25,4,0,1,0
"Paraná","Jdo Civ y Com 1","trato",29,1,0,0,0
"Paraná","Jdo Civ y Com 2","depurac_prueba",7,0,0,0,0
"Paraná","Jdo Civ y Com 2","intent_concil",6,1,0,0,0
"Paraná","Jdo Civ y Com 2","trato",7,0,0,0,0
"Paraná","Jdo Civ y Com 3","depurac_prueba",0,2,0,0,2
"Paraná","Jdo Civ y Com 3","intent_concil",2,1,0,0,1
"Paraná","Jdo Civ y Com 3","trato",3,0,0,0,1
"Paraná","Jdo Civ y Com 4","depurac_prueba",16,0,0,0,0
"Paraná","Jdo Civ y Com 4","intent_concil",13,0,0,0,3
"Paraná","Jdo Civ y Com 4","trato",16,0,0,0,0
"Paraná","Jdo Civ y Com 5","depurac_prueba",20,3,1,0,0
"Paraná","Jdo Civ y Com 5","intent_concil",20,1,2,0,1
"Paraná","Jdo Civ y Com 5","trato",21,3,0,0,0
"Paraná","Jdo Civ y Com 6","depurac_prueba",34,3,0,0,0
"Paraná","Jdo Civ y Com 6","intent_concil",35,1,1,0,0
"Paraná","Jdo Civ y Com 6","trato",36,1,0,0,0
"Paraná","Jdo Civ y Com 7","depurac_prueba",52,3,3,0,1
"Paraná","Jdo Civ y Com 7","intent_concil",49,9,0,0,1
"Paraná","Jdo Civ y Com 7","trato",57,2,0,0,0
"Paraná","Jdo Civ y Com 8","depurac_prueba",25,4,1,0,0
"Paraná","Jdo Civ y Com 8","intent_concil",29,1,0,0,0
"Paraná","Jdo Civ y Com 8","trato",30,0,0,0,0
"San Salvador","Jdo Civ y Com Lab Fam","depurac_prueba",6,2,0,0,0
"San Salvador","Jdo Civ y Com Lab Fam","intent_concil",5,3,0,0,0
"San Salvador","Jdo Civ y Com Lab Fam","trato",6,2,0,0,0
"Tala","Jdo Civ y Com -ccomp.Laboral","depurac_prueba",10,3,0,0,0
"Tala","Jdo Civ y Com -ccomp.Laboral","intent_concil",9,2,1,0,1
"Tala","Jdo Civ y Com -ccomp.Laboral","trato",12,1,0,0,0
"Uruguay","Jdo Civ y Com 1","depurac_prueba",32,3,0,0,3
"Uruguay","Jdo Civ y Com 1","intent_concil",30,3,2,0,3
"Uruguay","Jdo Civ y Com 1","trato",37,1,0,0,0
"Uruguay","Jdo Civ y Com 2","depurac_prueba",42,1,0,0,0
"Uruguay","Jdo Civ y Com 2","intent_concil",41,1,0,0,1
"Uruguay","Jdo Civ y Com 2","trato",42,1,0,0,0
"Victoria","Jdo Civ y Com -ccomp.Laboral","depurac_prueba",24,1,0,0,7
"Victoria","Jdo Civ y Com -ccomp.Laboral","intent_concil",28,4,0,0,0
"Victoria","Jdo Civ y Com -ccomp.Laboral","trato",30,2,0,0,0
"Villaguay","Jdo Civ y Com 1 -ccomp.Laboral","depurac_prueba",32,5,0,0,0
"Villaguay","Jdo Civ y Com 1 -ccomp.Laboral","intent_concil",32,5,0,0,0
"Villaguay","Jdo Civ y Com 1 -ccomp.Laboral","trato",33,4,0,0,0
"Villaguay","Jdo Civ y Com 2 -ccomp.Laboral","depurac_prueba",35,0,0,0,0
"Villaguay","Jdo Civ y Com 2 -ccomp.Laboral","intent_concil",33,2,0,0,0
"Villaguay","Jdo Civ y Com 2 -ccomp.Laboral","trato",35,0,0,0,0
"Total","-","-",2863,271,19,2,55
