"nro","organismo","organismo_descripcion","circunscripcion","categoria"
1,"jdopaz0000cha","Jdo Paz Chajari","Chajarí",1
2,"jdopaz0000sja","Jdo Paz San Jaime Front","Chajarí",3
3,"jdopaz0000col","Jdo Paz Colón","Colón",1
4,"jdopaz0000sjo","Jdo Paz San Jose","Colón",2
5,"jdopaz0000vel","Jdo Paz Villa Elisa","Colón",2
6,"jdopaz0000uba","Jdo Paz Ubajay","Colón",3
7,"jdopaz0000con","Jdo Paz Concordia","Concordia",1
8,"jdopaz0000gca","Jdo Paz Gral Campos","Concordia",2
9,"jdopaz0000egr","Jdo Paz Estancia Gde","Concordia",3
10,"jdopaz0000dia","Jdo Paz Diamante","Diamante",1
11,"jdopaz0000ram","Jdo Paz Ramirez","Diamante",2
12,"jdopaz0000vli","Jdo Paz Villa Libertador","Diamante",3
13,"jdopaz0000fed","Jdo Paz Federacion","Federación",1
14,"jdopaz0000frl","Jdo Paz Federal","Federal",1
15,"jdopaz0000slu","Jdo Paz Sauce de Luna","Federal",2
16,"jdopaz0000fel","Jdo Paz Feliciano","Feliciano",1
17,"jdopaz0000gay","Jdo Paz Gualeguay","Gualeguay",1
18,"jdopaz0000gal","Jdo Paz Galarza","Gualeguay",3
19,"jdopaz0000gch","Jdo Paz Gualeguaychu","Gualeguaychú",1
20,"jdopaz0000lar","Jdo Paz Larroque","Gualeguaychú",2
21,"jdopaz0000urd","Jdo Paz Urdinarrain","Gualeguaychú",2
22,"jdopaz0000cei","Jdo Paz Ceibas","Islas del Ibicuy",3
23,"jdopaz0000ibi","Jdo Paz Ibicuy","Islas del Ibicuy",3
24,"jdopaz0000vpa","Jdo Paz V.Paranacito","Islas del Ibicuy",3
25,"jdopaz0000lpa","Jdo Paz La Paz","La Paz",1
26,"jdopaz0000bov","Jdo de Paz Bovril","La Paz",2
27,"jdopaz0000sel","Jdo de Paz Sta Elena","La Paz",2
28,"jdopaz0000alc","Jdo Paz Alcaraz","La Paz",3
29,"jdopaz0000nog","Jdo Paz Nogoyá","Nogoyá",1
30,"jdopaz0000hez","Jdo Paz Hernandez","Nogoyá",2
31,"jdopaz0000lgo","Jdo Paz Lucas Gonzalez","Nogoyá",3
32,"jdopaz0100pna","Jdo Paz 1 Parana","Paraná",1
33,"jdopaz0200pna","Jdo Paz 2 Parana","Paraná",1
34,"jdopaz0000cer","Jdo Paz Cerrito","Paraná",2
35,"jdopaz0000cre","Jdo Paz Crespo","Paraná",2
36,"jdopaz0000has","Jdo Paz Hasenkamp","Paraná",2
37,"jdopaz0000her","Jdo Paz Hernandarias","Paraná",2
38,"jdopaz0000mgr","Jdo Paz Maria Grande","Paraná",2
39,"jdopaz0000sbe","Jdo Paz San Benito","Paraná",2
40,"jdopaz0000via","Jdo Paz Viale","Paraná",2
41,"jdopaz0000ove","Jdo Paz Oro Verde","Paraná",3
42,"jdopaz0000pbr","Jdo Paz Pueblo Brugo","Paraná",3
43,"jdopaz0000seg","Jdo Paz Segui","Paraná",3
44,"jdopaz0000vur","Jdo Paz Villa Urquiza","Paraná",3
45,"jdopaz0000ssa","Jdo Paz San Svdor","San Salvador",1
46,"jdopaz0000tal","Jdo Paz Rosario Tala","Tala",1
47,"jdopaz0000mac","Jdo Paz Macia","Tala",2
48,"jdopaz0000man","Jdo Paz Mansilla","Tala",3
49,"jdopaz0000uru","Jdo Paz C.del Uruguay","Uruguay",1
50,"jdopaz0000bas","Jdo Paz Basavilbaso","Uruguay",2
51,"jdopaz0000cas","Jdo Paz Caseros","Uruguay",3
52,"jdopaz0000vma","Jdo Paz Villa Mantero","Uruguay",3
53,"jdopaz0000vsa","Jdo Paz Villa San Marcial","Uruguay",3
54,"jdopaz0000vic","Jdo Paz Victoria","Victoria",1
55,"jdopaz0000vil","Jdo Paz Villaguay","Villaguay",1
56,"jdopaz0000vca","Jdo Paz Villa Clara","Villaguay",3
57,"jdopaz0000vdo","Jdo Paz Villa Dominguez","Villaguay",3
