"circunscripcion","organismo descripcion","dimension evaluada","Muy Bien","Bien","Regular","Mal","NS NC"
"Chajarí","Jdo Civ y Com 1 -ccomp.Laboral","comprension",8,5,0,0,0
"Chajarí","Jdo Civ y Com 1 -ccomp.Laboral","escucha",10,3,0,0,0
"Chajarí","Jdo Civ y Com 1 -ccomp.Laboral","trato",11,2,0,0,0
"Chajarí","Jdo Civ y Com 2 -ccomp.Laboral","comprension",23,1,0,0,0
"Chajarí","Jdo Civ y Com 2 -ccomp.Laboral","escucha",20,4,0,0,0
"Chajarí","Jdo Civ y Com 2 -ccomp.Laboral","trato",23,1,0,0,0
"Colón","Jdo Civ y Com 1","comprension",30,8,0,0,1
"Colón","Jdo Civ y Com 1","escucha",32,6,0,0,1
"Colón","Jdo Civ y Com 1","trato",37,2,0,0,0
"Colón","Jdo Civ y Com 2","comprension",10,5,1,0,0
"Colón","Jdo Civ y Com 2","escucha",11,5,0,0,0
"Colón","Jdo Civ y Com 2","trato",14,2,0,0,0
"Concordia","Jdo Civ y Com 1","comprension",18,9,1,0,0
"Concordia","Jdo Civ y Com 1","escucha",19,8,1,0,0
"Concordia","Jdo Civ y Com 1","trato",24,4,0,0,0
"Concordia","Jdo Civ y Com 2","comprension",108,21,3,0,5
"Concordia","Jdo Civ y Com 2","escucha",113,18,0,0,6
"Concordia","Jdo Civ y Com 2","trato",108,24,0,0,5
"Concordia","Jdo Civ y Com 3","comprension",17,1,0,0,0
"Concordia","Jdo Civ y Com 3","escucha",17,1,0,0,0
"Concordia","Jdo Civ y Com 3","trato",18,0,0,0,0
"Concordia","Jdo Civ y Com 4","comprension",27,2,1,0,0
"Concordia","Jdo Civ y Com 4","escucha",23,4,0,0,3
"Concordia","Jdo Civ y Com 4","trato",28,2,0,0,0
"Concordia","Jdo Civ y Com 6","comprension",42,11,1,0,0
"Concordia","Jdo Civ y Com 6","escucha",48,6,0,0,0
"Concordia","Jdo Civ y Com 6","trato",51,3,0,0,0
"Diamante","Jdo Civ y Com Lab","comprension",32,7,0,1,2
"Diamante","Jdo Civ y Com Lab","escucha",33,7,1,0,1
"Diamante","Jdo Civ y Com Lab","trato",38,4,0,0,0
"Federación","Jdo Civ y Com Lab Fam","comprension",13,0,0,0,0
"Federación","Jdo Civ y Com Lab Fam","escucha",13,0,0,0,0
"Federación","Jdo Civ y Com Lab Fam","trato",13,0,0,0,0
"Federal","Jdo Civ y Com Lab","comprension",29,8,1,0,1
"Federal","Jdo Civ y Com Lab","escucha",32,5,0,0,2
"Federal","Jdo Civ y Com Lab","trato",33,5,0,0,1
"Gualeguay","Jdo Civ y Com 1","comprension",10,2,0,0,0
"Gualeguay","Jdo Civ y Com 1","escucha",10,2,0,0,0
"Gualeguay","Jdo Civ y Com 1","trato",10,2,0,0,0
"Gualeguay","Jdo Civ y Com 2","comprension",19,8,0,0,0
"Gualeguay","Jdo Civ y Com 2","escucha",23,4,0,0,0
"Gualeguay","Jdo Civ y Com 2","trato",25,2,0,0,0
"Gualeguaychú","Jdo Civ y Com 1","comprension",15,0,0,0,0
"Gualeguaychú","Jdo Civ y Com 1","escucha",12,3,0,0,0
"Gualeguaychú","Jdo Civ y Com 1","trato",15,0,0,0,0
"Gualeguaychú","Jdo Civ y Com 2","comprension",13,2,0,0,0
"Gualeguaychú","Jdo Civ y Com 2","escucha",12,3,0,0,0
"Gualeguaychú","Jdo Civ y Com 2","trato",14,1,0,0,0
"Gualeguaychú","Jdo Civ y Com 3","comprension",11,1,0,0,0
"Gualeguaychú","Jdo Civ y Com 3","escucha",11,1,0,0,0
"Gualeguaychú","Jdo Civ y Com 3","trato",12,0,0,0,0
"Islas del Ibicuy","Jdo Civ Com y Lab","comprension",4,0,0,0,0
"Islas del Ibicuy","Jdo Civ Com y Lab","escucha",4,0,0,0,0
"Islas del Ibicuy","Jdo Civ Com y Lab","trato",2,2,0,0,0
"La Paz","Jdo Civ y Com 1 -ccomp.Laboral","comprension",5,0,0,0,0
"La Paz","Jdo Civ y Com 1 -ccomp.Laboral","escucha",5,0,0,0,0
"La Paz","Jdo Civ y Com 1 -ccomp.Laboral","trato",4,1,0,0,0
"La Paz","Jdo Civ y Com 2 -ccomp.Laboral","comprension",10,5,1,0,0
"La Paz","Jdo Civ y Com 2 -ccomp.Laboral","escucha",11,5,0,0,0
"La Paz","Jdo Civ y Com 2 -ccomp.Laboral","trato",16,0,0,0,0
"Nogoyá","Jdo Civ y Com 1 -ccomp.Laboral","comprension",12,7,0,0,0
"Nogoyá","Jdo Civ y Com 1 -ccomp.Laboral","escucha",13,4,1,1,0
"Nogoyá","Jdo Civ y Com 1 -ccomp.Laboral","trato",16,3,0,0,0
"Nogoyá","Jdo Civ y Com 2 -ccomp.Laboral","comprension",7,2,0,0,0
"Nogoyá","Jdo Civ y Com 2 -ccomp.Laboral","escucha",6,3,0,0,0
"Nogoyá","Jdo Civ y Com 2 -ccomp.Laboral","trato",7,2,0,0,0
"Paraná","Jdo Civ y Com 1","comprension",9,4,0,0,0
"Paraná","Jdo Civ y Com 1","escucha",10,3,0,0,0
"Paraná","Jdo Civ y Com 1","trato",11,2,0,0,0
"Paraná","Jdo Civ y Com 2","comprension",3,2,0,0,0
"Paraná","Jdo Civ y Com 2","escucha",3,0,0,0,2
"Paraná","Jdo Civ y Com 2","trato",5,0,0,0,0
"Paraná","Jdo Civ y Com 3","comprension",0,0,0,0,1
"Paraná","Jdo Civ y Com 3","escucha",1,0,0,0,0
"Paraná","Jdo Civ y Com 3","trato",1,0,0,0,0
"Paraná","Jdo Civ y Com 4","comprension",8,2,0,0,0
"Paraná","Jdo Civ y Com 4","escucha",7,3,0,0,0
"Paraná","Jdo Civ y Com 4","trato",9,1,0,0,0
"Paraná","Jdo Civ y Com 5","comprension",12,1,0,0,0
"Paraná","Jdo Civ y Com 5","escucha",12,0,1,0,0
"Paraná","Jdo Civ y Com 5","trato",12,1,0,0,0
"Paraná","Jdo Civ y Com 6","comprension",17,0,0,0,0
"Paraná","Jdo Civ y Com 6","escucha",16,0,0,0,1
"Paraná","Jdo Civ y Com 6","trato",17,0,0,0,0
"Paraná","Jdo Civ y Com 7","comprension",28,5,1,0,0
"Paraná","Jdo Civ y Com 7","escucha",31,3,0,0,0
"Paraná","Jdo Civ y Com 7","trato",32,2,0,0,0
"Paraná","Jdo Civ y Com 8","comprension",17,1,0,0,0
"Paraná","Jdo Civ y Com 8","escucha",15,2,0,1,0
"Paraná","Jdo Civ y Com 8","trato",17,0,1,0,0
"San Salvador","Jdo Civ y Com Lab Fam","comprension",2,2,0,0,0
"San Salvador","Jdo Civ y Com Lab Fam","escucha",2,2,0,0,0
"San Salvador","Jdo Civ y Com Lab Fam","trato",3,1,0,0,0
"Tala","Jdo Civ y Com -ccomp.Laboral","comprension",12,3,0,0,0
"Tala","Jdo Civ y Com -ccomp.Laboral","escucha",12,2,0,0,1
"Tala","Jdo Civ y Com -ccomp.Laboral","trato",15,0,0,0,0
"Uruguay","Jdo Civ y Com 1","comprension",20,3,1,0,1
"Uruguay","Jdo Civ y Com 1","escucha",21,2,0,0,2
"Uruguay","Jdo Civ y Com 1","trato",22,3,0,0,0
"Uruguay","Jdo Civ y Com 2","comprension",21,4,0,0,0
"Uruguay","Jdo Civ y Com 2","escucha",22,2,0,0,1
"Uruguay","Jdo Civ y Com 2","trato",23,2,0,0,0
"Victoria","Jdo Civ y Com -ccomp.Laboral","comprension",19,3,2,0,0
"Victoria","Jdo Civ y Com -ccomp.Laboral","escucha",21,1,1,1,0
"Victoria","Jdo Civ y Com -ccomp.Laboral","trato",22,2,0,0,0
"Villaguay","Jdo Civ y Com 1 -ccomp.Laboral","comprension",13,6,0,0,0
"Villaguay","Jdo Civ y Com 1 -ccomp.Laboral","escucha",16,3,0,0,0
"Villaguay","Jdo Civ y Com 1 -ccomp.Laboral","trato",16,3,0,0,0
"Villaguay","Jdo Civ y Com 2 -ccomp.Laboral","comprension",14,2,1,0,0
"Villaguay","Jdo Civ y Com 2 -ccomp.Laboral","escucha",14,3,0,0,0
"Villaguay","Jdo Civ y Com 2 -ccomp.Laboral","trato",15,2,0,0,0
"Total","-","-",2078,342,20,4,37
