"circunscripcion","organismo descripcion","dimension evaluada","Muy Bien","Bien","Regular","Mal","NS NC"
"Chajarí","Jdo Civ y Com 1 -ccomp.Laboral","comprension",11,3,0,0,0
"Chajarí","Jdo Civ y Com 1 -ccomp.Laboral","duracion",11,3,0,0,0
"Chajarí","Jdo Civ y Com 1 -ccomp.Laboral","escucha",12,2,0,0,0
"Chajarí","Jdo Civ y Com 1 -ccomp.Laboral","trato",11,3,0,0,0
"Chajarí","Jdo Civ y Com 2 -ccomp.Laboral","comprension",5,0,0,0,0
"Chajarí","Jdo Civ y Com 2 -ccomp.Laboral","duracion",3,2,0,0,0
"Chajarí","Jdo Civ y Com 2 -ccomp.Laboral","escucha",5,0,0,0,0
"Chajarí","Jdo Civ y Com 2 -ccomp.Laboral","trato",5,0,0,0,0
"Colón","Jdo Civ y Com 2","comprension",1,1,0,0,0
"Colón","Jdo Civ y Com 2","duracion",1,1,0,0,0
"Colón","Jdo Civ y Com 2","escucha",1,1,0,0,0
"Colón","Jdo Civ y Com 2","trato",1,1,0,0,0
"Concordia","Jdo Civ y Com 1","comprension",6,0,0,0,0
"Concordia","Jdo Civ y Com 1","duracion",6,0,0,0,0
"Concordia","Jdo Civ y Com 1","escucha",5,1,0,0,0
"Concordia","Jdo Civ y Com 1","trato",6,0,0,0,0
"Concordia","Jdo Civ y Com 2","comprension",34,8,0,0,2
"Concordia","Jdo Civ y Com 2","duracion",35,8,0,0,1
"Concordia","Jdo Civ y Com 2","escucha",37,6,0,0,1
"Concordia","Jdo Civ y Com 2","trato",38,5,0,0,1
"Concordia","Jdo Civ y Com 3","comprension",7,1,0,0,0
"Concordia","Jdo Civ y Com 3","duracion",7,1,0,0,0
"Concordia","Jdo Civ y Com 3","escucha",8,0,0,0,0
"Concordia","Jdo Civ y Com 3","trato",8,0,0,0,0
"Concordia","Jdo Civ y Com 4","comprension",12,1,0,0,0
"Concordia","Jdo Civ y Com 4","duracion",11,1,0,1,0
"Concordia","Jdo Civ y Com 4","escucha",11,1,0,1,0
"Concordia","Jdo Civ y Com 4","trato",12,0,1,0,0
"Concordia","Jdo Civ y Com 6","comprension",11,4,0,0,0
"Concordia","Jdo Civ y Com 6","duracion",11,3,0,0,1
"Concordia","Jdo Civ y Com 6","escucha",12,3,0,0,0
"Concordia","Jdo Civ y Com 6","trato",14,1,0,0,0
"Diamante","Jdo Civ y Com Lab","comprension",16,1,0,0,0
"Diamante","Jdo Civ y Com Lab","duracion",16,1,0,0,0
"Diamante","Jdo Civ y Com Lab","escucha",15,2,0,0,0
"Diamante","Jdo Civ y Com Lab","trato",16,1,0,0,0
"Federación","Jdo Civ y Com Lab Fam","comprension",10,0,0,0,0
"Federación","Jdo Civ y Com Lab Fam","duracion",7,3,0,0,0
"Federación","Jdo Civ y Com Lab Fam","escucha",10,0,0,0,0
"Federación","Jdo Civ y Com Lab Fam","trato",10,0,0,0,0
"Federal","Jdo Civ y Com Lab","comprension",19,4,0,0,0
"Federal","Jdo Civ y Com Lab","duracion",18,2,3,0,0
"Federal","Jdo Civ y Com Lab","escucha",18,4,1,0,0
"Federal","Jdo Civ y Com Lab","trato",20,2,1,0,0
"Gualeguay","Jdo Civ y Com 1","comprension",13,5,0,0,0
"Gualeguay","Jdo Civ y Com 1","duracion",9,8,1,0,0
"Gualeguay","Jdo Civ y Com 1","escucha",14,4,0,0,0
"Gualeguay","Jdo Civ y Com 1","trato",17,1,0,0,0
"Gualeguay","Jdo Civ y Com 2","comprension",12,0,0,0,0
"Gualeguay","Jdo Civ y Com 2","duracion",10,2,0,0,0
"Gualeguay","Jdo Civ y Com 2","escucha",11,1,0,0,0
"Gualeguay","Jdo Civ y Com 2","trato",12,0,0,0,0
"Gualeguaychú","Jdo Civ y Com 2","comprension",3,0,0,0,0
"Gualeguaychú","Jdo Civ y Com 2","duracion",1,0,0,0,2
"Gualeguaychú","Jdo Civ y Com 2","escucha",3,0,0,0,0
"Gualeguaychú","Jdo Civ y Com 2","trato",3,0,0,0,0
"Gualeguaychú","Jdo Civ y Com 3","comprension",0,1,0,0,0
"Gualeguaychú","Jdo Civ y Com 3","duracion",1,0,0,0,0
"Gualeguaychú","Jdo Civ y Com 3","escucha",0,1,0,0,0
"Gualeguaychú","Jdo Civ y Com 3","trato",1,0,0,0,0
"Islas del Ibicuy","Jdo Civ Com y Lab","comprension",10,6,0,0,0
"Islas del Ibicuy","Jdo Civ Com y Lab","duracion",8,6,0,0,2
"Islas del Ibicuy","Jdo Civ Com y Lab","escucha",14,2,0,0,0
"Islas del Ibicuy","Jdo Civ Com y Lab","trato",14,2,0,0,0
"La Paz","Jdo Civ y Com 1 -ccomp.Laboral","comprension",7,6,0,0,0
"La Paz","Jdo Civ y Com 1 -ccomp.Laboral","duracion",10,3,0,0,0
"La Paz","Jdo Civ y Com 1 -ccomp.Laboral","escucha",7,4,2,0,0
"La Paz","Jdo Civ y Com 1 -ccomp.Laboral","trato",9,3,0,1,0
"La Paz","Jdo Civ y Com 2 -ccomp.Laboral","comprension",5,6,1,0,0
"La Paz","Jdo Civ y Com 2 -ccomp.Laboral","duracion",6,5,1,0,0
"La Paz","Jdo Civ y Com 2 -ccomp.Laboral","escucha",5,5,2,0,0
"La Paz","Jdo Civ y Com 2 -ccomp.Laboral","trato",8,1,3,0,0
"Nogoyá","Jdo Civ y Com 1 -ccomp.Laboral","comprension",15,7,0,0,0
"Nogoyá","Jdo Civ y Com 1 -ccomp.Laboral","duracion",11,9,1,1,0
"Nogoyá","Jdo Civ y Com 1 -ccomp.Laboral","escucha",16,6,0,0,0
"Nogoyá","Jdo Civ y Com 1 -ccomp.Laboral","trato",20,2,0,0,0
"Nogoyá","Jdo Civ y Com 2 -ccomp.Laboral","comprension",0,1,0,0,0
"Nogoyá","Jdo Civ y Com 2 -ccomp.Laboral","duracion",1,0,0,0,0
"Nogoyá","Jdo Civ y Com 2 -ccomp.Laboral","escucha",1,0,0,0,0
"Nogoyá","Jdo Civ y Com 2 -ccomp.Laboral","trato",0,1,0,0,0
"Paraná","Jdo Civ y Com 1","comprension",1,0,0,0,0
"Paraná","Jdo Civ y Com 1","duracion",1,0,0,0,0
"Paraná","Jdo Civ y Com 1","escucha",1,0,0,0,0
"Paraná","Jdo Civ y Com 1","trato",1,0,0,0,0
"Paraná","Jdo Civ y Com 6","comprension",7,0,0,0,0
"Paraná","Jdo Civ y Com 6","duracion",7,0,0,0,0
"Paraná","Jdo Civ y Com 6","escucha",7,0,0,0,0
"Paraná","Jdo Civ y Com 6","trato",7,0,0,0,0
"Paraná","Jdo Civ y Com 7","comprension",6,1,1,0,0
"Paraná","Jdo Civ y Com 7","duracion",6,1,1,0,0
"Paraná","Jdo Civ y Com 7","escucha",6,1,0,1,0
"Paraná","Jdo Civ y Com 7","trato",6,2,0,0,0
"Paraná","Jdo Civ y Com 8","comprension",3,0,0,0,0
"Paraná","Jdo Civ y Com 8","duracion",3,0,0,0,0
"Paraná","Jdo Civ y Com 8","escucha",3,0,0,0,0
"Paraná","Jdo Civ y Com 8","trato",3,0,0,0,0
"Tala","Jdo Civ y Com -ccomp.Laboral","comprension",25,10,0,0,0
"Tala","Jdo Civ y Com -ccomp.Laboral","duracion",27,7,1,0,0
"Tala","Jdo Civ y Com -ccomp.Laboral","escucha",26,9,0,0,0
"Tala","Jdo Civ y Com -ccomp.Laboral","trato",29,6,0,0,0
"Uruguay","Jdo Civ y Com 1","comprension",12,3,0,0,1
"Uruguay","Jdo Civ y Com 1","duracion",11,4,1,0,0
"Uruguay","Jdo Civ y Com 1","escucha",15,1,0,0,0
"Uruguay","Jdo Civ y Com 1","trato",16,0,0,0,0
"Uruguay","Jdo Civ y Com 2","comprension",5,0,0,0,0
"Uruguay","Jdo Civ y Com 2","duracion",5,0,0,0,0
"Uruguay","Jdo Civ y Com 2","escucha",5,0,0,0,0
"Uruguay","Jdo Civ y Com 2","trato",5,0,0,0,0
"Victoria","Jdo Civ y Com -ccomp.Laboral","comprension",3,0,0,0,0
"Victoria","Jdo Civ y Com -ccomp.Laboral","duracion",3,0,0,0,0
"Victoria","Jdo Civ y Com -ccomp.Laboral","escucha",3,0,0,0,0
"Victoria","Jdo Civ y Com -ccomp.Laboral","trato",3,0,0,0,0
"Villaguay","Jdo Civ y Com 1 -ccomp.Laboral","comprension",18,6,1,0,0
"Villaguay","Jdo Civ y Com 1 -ccomp.Laboral","duracion",20,5,0,0,0
"Villaguay","Jdo Civ y Com 1 -ccomp.Laboral","escucha",22,3,0,0,0
"Villaguay","Jdo Civ y Com 1 -ccomp.Laboral","trato",24,1,0,0,0
"Villaguay","Jdo Civ y Com 2 -ccomp.Laboral","comprension",18,13,2,0,0
"Villaguay","Jdo Civ y Com 2 -ccomp.Laboral","duracion",19,9,4,0,1
"Villaguay","Jdo Civ y Com 2 -ccomp.Laboral","escucha",21,8,3,1,0
"Villaguay","Jdo Civ y Com 2 -ccomp.Laboral","trato",23,9,0,1,0
"Total","-","-",1236,278,31,7,12
