"tipo_proc";"Cantidad_Proc";"Total_Mov";"Promedio_Mov";"Mov_2017";"Promedio_Mov_2017"
"HOMICIDIO SIMPLE";217;21520;99.17;5172;23.83
"ROBO AGRAVADO POR EL USO DE ARMA DE FUEGO";75;6677;89.03;2063;27.51
"ABUSO SEXUAL CON ACCESO CARNAL";72;6963;96.71;1556;21.61
"ROBO";65;10465;161;2138;32.89
"ROBO SIMPLE";46;3703;80.5;1288;28
"LESIONES GRAVES";44;3536;80.36;1368;31.09
"ABUSO SEXUAL";41;3880;94.63;969;23.63
"ABUSO SEXUAL CON ACCESO CARNAL AGRAVADO";38;3547;93.34;848;22.32
"ROBO AGRAVADO";37;4588;124;1043;28.19
"ROBO CON ARMA DE FUEGO CUYA APTITUD PARA EL DISPARO NO SE HA ACREDITADO (ART. 166 INC. 2, TERCER PARRAFO C.P.)";32;2701;84.41;1015;31.72
"LESIONES LEVES";29;1862;64.21;728;25.1
"EJECUCION DE PENAS";27;6221;230.41;607;22.48
"ABUSO SEXUAL AGRAVADO POR EL VINCULO";25;1592;63.68;358;14.32
"ROBO EN GRADO DE TENTATIVA";25;1746;69.84;586;23.44
"AMENAZAS";22;1344;61.09;558;25.36
"ABUSO DE ARMAS";18;1860;103.33;552;30.67
"HOMICIDIO AGRAVADO";18;2731;151.72;523;29.06
"HOMICIDIO AGRAVADO POR EL VINCULO";16;2537;158.56;428;26.75
"ABUSO SEXUAL GRAVEMENTE ULTRAJANTE";13;831;63.92;331;25.46
"HABEAS CORPUS";13;257;19.77;214;16.46
"HURTO";13;844;64.92;497;38.23
"HURTO EN GRADO DE TENTATIVA";13;759;58.38;322;24.77
"HOMICIDIO EN OCASION DE ROBO";12;1600;133.33;420;35
"AMENAZAS CALIFICADAS";11;912;82.91;461;41.91
"DESOBEDIENCIA";11;915;83.18;361;32.82
"HURTO SIMPLE";10;489;48.9;204;20.4
"PRIVACION ILEGITIMA DE LA LIBERTAD";9;869;96.56;198;22
"VIOLACION DE DOMICILIO";9;406;45.11;139;15.44
"ABUSO SEXUAL GRAVEMENTE ULTRAJANTE AGRAVADO";8;368;46;135;16.88
"COACCIONES";7;697;99.57;290;41.43
"PORTACION DE ARMA DE GUERRA";7;265;37.86;167;23.86
"TENENCIA DE ARMA DE FUEGO DE USO CIVIL";7;442;63.14;185;26.43
"ENCUBRIMIENTO";6;529;88.17;151;25.17
"MEDIDAS DE SEGURIDAD";6;710;118.33;208;34.67
"RESISTENCIA A LA AUTORIDAD";6;697;116.17;296;49.33
"ABUSO SEXUAL SIN ACCESO CARNAL AGRAVADO";5;302;60.4;151;30.2
"DAÑO SIMPLE";5;272;54.4;135;27
"HURTO CON ESCALAMIENTO";5;393;78.6;242;48.4
"RECEPTACION SOSPECHOSA DE BIENES";5;240;48;188;37.6
"ROBO CON ESCALAMIENTO";5;654;130.8;169;33.8
"ROBO EN LUGAR POBLADO Y EN BANDA";5;485;97;170;34
"TENENCIA DE ARMA DE GUERRA";5;355;71;156;31.2
"ESTUPRO";4;277;69.25;151;37.75
"HOMICIDIO CULPOSO";4;404;101;125;31.25
"HURTO AGRAVADO";4;321;80.25;146;36.5
"ROBO DE VEHICULO DEJADO EN LA VIA PUBLICA";4;292;73;150;37.5
"ROBO EN LUGAR DESPOBLADO Y EN BANDA";4;414;103.5;196;49
"ROBO SEGUIDO DE MUERTE";4;766;191.5;202;50.5
"ABUSO SEXUAL SIN ACCESO CARNAL";3;99;33;38;12.67
"CORRUPCION DE MENORES";3;514;171.33;26;8.67
"DAÑO";3;147;49;91;30.33
"DESOBEDIENCIA A LA AUTORIDAD";3;413;137.67;134;44.67
"HOMICIDIO ATENUADO";3;167;55.67;63;21
"PORTACION DE ARMA DE FUEGO DE USO CIVIL";3;314;104.67;95;31.67
"ROBO AGRAVADO -ART. 166 INC. 1 Y 2 del CODIGO PENAL";3;364;121.33;30;10
"ROBO AGRAVADO -ART. 166 ÚLTIMO PÀRRAFO del CODIGO PENAL";3;268;89.33;113;37.67
"ROBO AGRAVADO POR ESCALAMIENTO EN GRADO DE TENTATIVA";3;135;45;80;26.67
"SECUESTRO EXTORSIVO";3;368;122.67;114;38
"TENTATIVA DE HOMICIDIO";3;88;29.33;39;13
"ABANDONO DE PERSONAS";2;302;151;121;60.5
"AGRESION CON ARMAS";2;196;98;107;53.5
"ESTAFA";2;79;39.5;17;8.5
"EVASION";2;161;80.5;44;22
"HOMICIDIO AGRAVADO POR ALEVOSIA";2;148;74;11;5.5
"HOMICIDIO EN RIÑA";2;367;183.5;134;67
"HURTO DE VEHICULO DEJADO EN LA VIA PUBLICA";2;227;113.5;91;45.5
"LESIONES";2;120;60;34;17
"PECULADO";2;208;104;115;57.5
"PROMOCION A LA CORRUPCION";2;122;61;62;31
"SUSTRACCION DE MENORES";2;123;61.5;44;22
"VIOLACION DE LOS MEDIOS DE PRUEBA";2;65;32.5;25;12.5
NA;2;374;187;14;7
"ABIGEATO";1;252;252;12;12
"ABIGEATO AGRAVADO";1;41;41;38;38
"DAÑO AGRAVADO";1;10;10;4;4
"DAÑOS";1;55;55;3;3
"DEFRAUDACION";1;82;82;4;4
"EJECUCION DE PENAS Y MEDIDAS DE SEGURIDAD";1;163;163;14;14
"EXPLOTACION DE LA PROSTITUCION";1;42;42;28;28
"EXTORSION";1;181;181;73;73
"HURTO DE AUTOMOTOR";1;113;113;13;13
"IMPEDIMENTO O ESTORBO AL ACTO FUNCIONAL";1;76;76;34;34
"INCUMPLIMIENTO DEBERES PROCESALES";1;36;36;34;34
"INFRACCION A LA LEY Nº 13.944 (Incump. Deberes Asistencia Fliar.)";1;24;24;5;5
"LESIONES GRAVISIMAS";1;19;19;1;1
"PROMOCION DE LA PROSTITUCION";1;76;76;27;27
"PROMOCION DE LA PROSTITUCION AGRAVADA";1;79;79;25;25
"ROBO AGRAVADO -ART. 167 del CODIGO PENAL";1;116;116;61;61
"ROBO CON ARMA DE FUEGO NO APTA PARA EL DISPARO (ART. 166 INC. 2, SEGUNDO PARRAFO C.P.)";1;166;166;9;9
"ROBO CON EMPLEO DE ARMA DE UTILERIA (ART. 166 INC. 2 C.P.)";1;51;51;37;37
"SUSTRACCION DE PERSONA";1;19;19;2;2
"TRABAJO PARA LA COMUNIDAD";1;25;25;2;2
"USURPACION";1;99;99;48;48
