"circunscripcion","organismo descripcion","dimension evaluada","Muy Bien","Bien","Regular","Mal","NS NC"
"Chajarí","Jdo Civ y Com 1 -ccomp.Laboral","depurac_prueba",5,3,0,0,0
"Chajarí","Jdo Civ y Com 1 -ccomp.Laboral","instalaciones",4,3,1,0,0
"Chajarí","Jdo Civ y Com 1 -ccomp.Laboral","intent_concil",6,2,0,0,0
"Chajarí","Jdo Civ y Com 1 -ccomp.Laboral","trato",6,2,0,0,0
"Chajarí","Jdo Civ y Com 2 -ccomp.Laboral","depurac_prueba",5,0,0,0,0
"Chajarí","Jdo Civ y Com 2 -ccomp.Laboral","instalaciones",0,1,3,1,0
"Chajarí","Jdo Civ y Com 2 -ccomp.Laboral","intent_concil",4,1,0,0,0
"Chajarí","Jdo Civ y Com 2 -ccomp.Laboral","trato",5,0,0,0,0
"Colón","Jdo Civ y Com 1 -ccomp.Laboral","depurac_prueba",8,2,0,0,0
"Colón","Jdo Civ y Com 1 -ccomp.Laboral","instalaciones",1,2,4,3,0
"Colón","Jdo Civ y Com 1 -ccomp.Laboral","intent_concil",9,1,0,0,0
"Colón","Jdo Civ y Com 1 -ccomp.Laboral","trato",9,1,0,0,0
"Colón","Jdo Civ y Com 2 -ccomp.Laboral","depurac_prueba",7,0,0,0,0
"Colón","Jdo Civ y Com 2 -ccomp.Laboral","instalaciones",3,1,3,0,0
"Colón","Jdo Civ y Com 2 -ccomp.Laboral","intent_concil",6,1,0,0,0
"Colón","Jdo Civ y Com 2 -ccomp.Laboral","trato",7,0,0,0,0
"Concordia","Jdo Civ y Com 1","depurac_prueba",14,4,0,0,0
"Concordia","Jdo Civ y Com 1","instalaciones",9,7,2,0,0
"Concordia","Jdo Civ y Com 1","intent_concil",14,4,0,0,0
"Concordia","Jdo Civ y Com 1","trato",15,3,0,0,0
"Concordia","Jdo Civ y Com 2","depurac_prueba",25,4,0,0,0
"Concordia","Jdo Civ y Com 2","instalaciones",19,8,1,1,0
"Concordia","Jdo Civ y Com 2","intent_concil",24,4,1,0,0
"Concordia","Jdo Civ y Com 2","trato",27,2,0,0,0
"Concordia","Jdo Civ y Com 3","depurac_prueba",16,3,0,0,0
"Concordia","Jdo Civ y Com 3","instalaciones",13,3,2,1,0
"Concordia","Jdo Civ y Com 3","intent_concil",15,3,0,0,1
"Concordia","Jdo Civ y Com 3","trato",19,0,0,0,0
"Concordia","Jdo Civ y Com 4","depurac_prueba",17,4,1,0,0
"Concordia","Jdo Civ y Com 4","instalaciones",13,1,4,1,3
"Concordia","Jdo Civ y Com 4","intent_concil",18,3,0,0,1
"Concordia","Jdo Civ y Com 4","trato",20,2,0,0,0
"Concordia","Jdo Civ y Com 6","depurac_prueba",37,1,0,0,0
"Concordia","Jdo Civ y Com 6","instalaciones",23,7,7,1,0
"Concordia","Jdo Civ y Com 6","intent_concil",36,2,0,0,0
"Concordia","Jdo Civ y Com 6","trato",38,0,0,0,0
"Diamante","Jdo Civ y Com Lab","depurac_prueba",26,3,0,0,1
"Diamante","Jdo Civ y Com Lab","instalaciones",4,9,11,6,0
"Diamante","Jdo Civ y Com Lab","intent_concil",26,3,0,0,1
"Diamante","Jdo Civ y Com Lab","trato",29,1,0,0,0
"Federación","Jdo Civ y Com Lab Fam","depurac_prueba",1,0,0,0,0
"Federación","Jdo Civ y Com Lab Fam","instalaciones",1,0,0,0,0
"Federación","Jdo Civ y Com Lab Fam","intent_concil",1,0,0,0,0
"Federación","Jdo Civ y Com Lab Fam","trato",1,0,0,0,0
"Federal","Jdo Civ y Com Lab","depurac_prueba",20,2,0,0,0
"Federal","Jdo Civ y Com Lab","instalaciones",14,5,2,1,0
"Federal","Jdo Civ y Com Lab","intent_concil",16,4,2,0,0
"Federal","Jdo Civ y Com Lab","trato",21,1,0,0,0
"Gualeguay","Jdo Civ y Com 1","depurac_prueba",13,0,0,0,0
"Gualeguay","Jdo Civ y Com 1","instalaciones",9,3,1,0,0
"Gualeguay","Jdo Civ y Com 1","intent_concil",13,0,0,0,0
"Gualeguay","Jdo Civ y Com 1","trato",13,0,0,0,0
"Gualeguay","Jdo Civ y Com 2","depurac_prueba",9,1,0,0,0
"Gualeguay","Jdo Civ y Com 2","instalaciones",4,5,1,0,0
"Gualeguay","Jdo Civ y Com 2","intent_concil",9,1,0,0,0
"Gualeguay","Jdo Civ y Com 2","trato",9,1,0,0,0
"Gualeguaychú","Jdo Civ y Com 1","depurac_prueba",9,0,0,0,0
"Gualeguaychú","Jdo Civ y Com 1","instalaciones",2,2,4,1,0
"Gualeguaychú","Jdo Civ y Com 1","intent_concil",8,1,0,0,0
"Gualeguaychú","Jdo Civ y Com 1","trato",9,0,0,0,0
"Gualeguaychú","Jdo Civ y Com 2","depurac_prueba",7,0,0,0,1
"Gualeguaychú","Jdo Civ y Com 2","instalaciones",0,3,4,1,0
"Gualeguaychú","Jdo Civ y Com 2","intent_concil",6,2,0,0,0
"Gualeguaychú","Jdo Civ y Com 2","trato",8,0,0,0,0
"Gualeguaychú","Jdo Civ y Com 3","depurac_prueba",10,1,0,0,0
"Gualeguaychú","Jdo Civ y Com 3","instalaciones",3,3,5,0,0
"Gualeguaychú","Jdo Civ y Com 3","intent_concil",10,1,0,0,0
"Gualeguaychú","Jdo Civ y Com 3","trato",11,0,0,0,0
"Islas del Ibicuy","Jdo Civ Com y Lab","depurac_prueba",2,0,0,0,0
"Islas del Ibicuy","Jdo Civ Com y Lab","instalaciones",1,1,0,0,0
"Islas del Ibicuy","Jdo Civ Com y Lab","intent_concil",2,0,0,0,0
"Islas del Ibicuy","Jdo Civ Com y Lab","trato",1,1,0,0,0
"La Paz","Jdo Civ y Com 1 -ccomp.Laboral","depurac_prueba",7,1,1,0,0
"La Paz","Jdo Civ y Com 1 -ccomp.Laboral","instalaciones",5,3,0,0,1
"La Paz","Jdo Civ y Com 1 -ccomp.Laboral","intent_concil",8,0,0,1,0
"La Paz","Jdo Civ y Com 1 -ccomp.Laboral","trato",8,0,1,0,0
"La Paz","Jdo Civ y Com 2 -ccomp.Laboral","depurac_prueba",11,7,0,0,2
"La Paz","Jdo Civ y Com 2 -ccomp.Laboral","instalaciones",11,6,3,0,0
"La Paz","Jdo Civ y Com 2 -ccomp.Laboral","intent_concil",15,5,0,0,0
"La Paz","Jdo Civ y Com 2 -ccomp.Laboral","trato",16,4,0,0,0
"Nogoyá","Jdo Civ y Com 1 -ccomp.Laboral","depurac_prueba",12,5,0,0,0
"Nogoyá","Jdo Civ y Com 1 -ccomp.Laboral","instalaciones",7,6,4,0,0
"Nogoyá","Jdo Civ y Com 1 -ccomp.Laboral","intent_concil",11,6,0,0,0
"Nogoyá","Jdo Civ y Com 1 -ccomp.Laboral","trato",14,3,0,0,0
"Nogoyá","Jdo Civ y Com 2 -ccomp.Laboral","depurac_prueba",0,1,0,0,0
"Nogoyá","Jdo Civ y Com 2 -ccomp.Laboral","instalaciones",0,1,0,0,0
"Nogoyá","Jdo Civ y Com 2 -ccomp.Laboral","intent_concil",0,1,0,0,0
"Nogoyá","Jdo Civ y Com 2 -ccomp.Laboral","trato",0,1,0,0,0
"Paraná","Jdo Civ y Com 1","depurac_prueba",8,0,0,0,0
"Paraná","Jdo Civ y Com 1","instalaciones",6,2,0,0,0
"Paraná","Jdo Civ y Com 1","intent_concil",7,1,0,0,0
"Paraná","Jdo Civ y Com 1","trato",8,0,0,0,0
"Paraná","Jdo Civ y Com 2","depurac_prueba",5,0,0,0,0
"Paraná","Jdo Civ y Com 2","instalaciones",3,0,0,0,2
"Paraná","Jdo Civ y Com 2","intent_concil",4,1,0,0,0
"Paraná","Jdo Civ y Com 2","trato",5,0,0,0,0
"Paraná","Jdo Civ y Com 3","depurac_prueba",0,2,0,0,2
"Paraná","Jdo Civ y Com 3","instalaciones",2,1,0,0,1
"Paraná","Jdo Civ y Com 3","intent_concil",2,1,0,0,1
"Paraná","Jdo Civ y Com 3","trato",3,0,0,0,1
"Paraná","Jdo Civ y Com 4","depurac_prueba",2,0,0,0,0
"Paraná","Jdo Civ y Com 4","instalaciones",2,0,0,0,0
"Paraná","Jdo Civ y Com 4","intent_concil",2,0,0,0,0
"Paraná","Jdo Civ y Com 4","trato",2,0,0,0,0
"Paraná","Jdo Civ y Com 5","depurac_prueba",4,0,0,0,0
"Paraná","Jdo Civ y Com 5","instalaciones",4,0,0,0,0
"Paraná","Jdo Civ y Com 5","intent_concil",4,0,0,0,0
"Paraná","Jdo Civ y Com 5","trato",4,0,0,0,0
"Paraná","Jdo Civ y Com 6","depurac_prueba",5,1,0,0,0
"Paraná","Jdo Civ y Com 6","instalaciones",5,1,0,0,0
"Paraná","Jdo Civ y Com 6","intent_concil",6,0,0,0,0
"Paraná","Jdo Civ y Com 6","trato",6,0,0,0,0
"Paraná","Jdo Civ y Com 7","depurac_prueba",31,0,3,0,1
"Paraná","Jdo Civ y Com 7","instalaciones",23,10,1,0,1
"Paraná","Jdo Civ y Com 7","intent_concil",30,4,0,0,1
"Paraná","Jdo Civ y Com 7","trato",35,0,0,0,0
"Paraná","Jdo Civ y Com 8","depurac_prueba",11,1,0,0,0
"Paraná","Jdo Civ y Com 8","instalaciones",7,2,3,0,0
"Paraná","Jdo Civ y Com 8","intent_concil",11,1,0,0,0
"Paraná","Jdo Civ y Com 8","trato",12,0,0,0,0
"Paraná","Jdo Civ y Com 9 Sec 2","depurac_prueba",4,0,0,0,0
"Paraná","Jdo Civ y Com 9 Sec 2","instalaciones",3,1,0,0,0
"Paraná","Jdo Civ y Com 9 Sec 2","intent_concil",4,0,0,0,0
"Paraná","Jdo Civ y Com 9 Sec 2","trato",4,0,0,0,0
"San Salvador","Jdo Civ y Com Lab Fam","depurac_prueba",2,0,0,0,0
"San Salvador","Jdo Civ y Com Lab Fam","instalaciones",2,0,0,0,0
"San Salvador","Jdo Civ y Com Lab Fam","intent_concil",2,0,0,0,0
"San Salvador","Jdo Civ y Com Lab Fam","trato",2,0,0,0,0
"Tala","Jdo Civ y Com -ccomp.Laboral","depurac_prueba",5,1,0,0,0
"Tala","Jdo Civ y Com -ccomp.Laboral","instalaciones",2,3,0,0,1
"Tala","Jdo Civ y Com -ccomp.Laboral","intent_concil",4,1,0,0,1
"Tala","Jdo Civ y Com -ccomp.Laboral","trato",6,0,0,0,0
"Uruguay","Jdo Civ y Com 1","depurac_prueba",14,2,0,0,1
"Uruguay","Jdo Civ y Com 1","instalaciones",9,2,3,1,2
"Uruguay","Jdo Civ y Com 1","intent_concil",13,2,2,0,0
"Uruguay","Jdo Civ y Com 1","trato",17,0,0,0,0
"Uruguay","Jdo Civ y Com 2","depurac_prueba",31,1,0,0,0
"Uruguay","Jdo Civ y Com 2","instalaciones",12,1,0,17,2
"Uruguay","Jdo Civ y Com 2","intent_concil",30,1,0,0,1
"Uruguay","Jdo Civ y Com 2","trato",31,1,0,0,0
"Victoria","Jdo Civ y Com -ccomp.Laboral","depurac_prueba",15,0,0,0,7
"Victoria","Jdo Civ y Com -ccomp.Laboral","instalaciones",9,6,3,4,0
"Victoria","Jdo Civ y Com -ccomp.Laboral","intent_concil",20,2,0,0,0
"Victoria","Jdo Civ y Com -ccomp.Laboral","trato",20,2,0,0,0
"Villaguay","Jdo Civ y Com 1 -ccomp.Laboral","depurac_prueba",5,1,0,0,0
"Villaguay","Jdo Civ y Com 1 -ccomp.Laboral","instalaciones",4,2,0,0,0
"Villaguay","Jdo Civ y Com 1 -ccomp.Laboral","intent_concil",4,2,0,0,0
"Villaguay","Jdo Civ y Com 1 -ccomp.Laboral","trato",4,2,0,0,0
"Villaguay","Jdo Civ y Com 2 -ccomp.Laboral","depurac_prueba",8,0,0,0,0
"Villaguay","Jdo Civ y Com 2 -ccomp.Laboral","instalaciones",7,0,0,0,1
"Villaguay","Jdo Civ y Com 2 -ccomp.Laboral","intent_concil",7,1,0,0,0
"Villaguay","Jdo Civ y Com 2 -ccomp.Laboral","trato",8,0,0,0,0
"Total","-","-",1517,251,83,40,37
