"Tipo de proceso","Procesos"
"SALA PENAL STJ","27"
"     PRESENTACIÓN","1"
"     HABEAS CORPUS","1"
"     RECURSO DE QUEJA","16"
"     IMPUGNACION EXTRAORDINARIA","6"
"     ACCION DE REVISION","3"