"nro","caratula","tproc","asis","finicio","duracm","duracb","ffa","fea","faprueb","fprog","ta","ra","esta","jaud","oralidad","audvid","justiables","id_submission","iep","data_interval_start","data_interval_end"
"8714","MERELES, MARÍA INÉS C/ IAPV","SUMARISIMO ACCION MERAMENTE DECLARATIVA","5","03/12/2014","20","1","01/06/2018 ",2018-07-31,NA,NA,"1","S","2","1438",NA,NA,"SUPERIOR GOBIERNO DE LA PCIA DE ENTRE RIOS $$CITADO$CÓRDOBA Y MEXICO- CASA DE GOBIERNO%ERCON S.A. $$DEMANDADA$MARCELO T. DE ALVEAR 1277, PISO 5, DEPTO. 58 // URQUIZA Nº 313 CDIA.%BANCO HIPOTECARIO S.A $$DEMANDADA$URQUIZA 1100- EN EXP. Nº 3272  PELLEGRINI Nº 699-CDIA-%INSTITUTO AUTARQUICO DE PLANEAMIENTO Y VIVIENDA DE E. RIOS $$DEMANDADA$LAPRIDA Nº 351%MERELES MARÍA INÉS$Documento Nacional Identidad$ACTORA$BV. SAN LORENZO y CONCEJAL VEIGA - TORRE II - 8to PISO \"D\"%",5011,"jdocco0400con",2018-07-01,2018-08-01
"29713","GOMEZ PAOLA BEATRIZ por si y en representación de sus hijos menores Y OTROS C/ LEIVA GERMAN ANDRES Y OTRA","ORDINARIO ACCIDENTES DE TRANSITO","7","23/03/2018","40","1","12/06/2018 ",2018-07-05,NA,NA,"1","S","2","620",NA,"0","ZAPATA LIBERT PABLO E.$$MEDIADOR$%LA CAJA DE SEGUROS S.A $$CITADA EN GARANTIA$Gualeguaychu Nº 456%GOMEZ PAOLA BEATRIZ$27.618.068$ACTORA$CALLE GARAY Nº 2045%GAITAN FRANCISCO JAVIER$Documento Nacional Identidad 13.877.646$ACTORA$CALLE 2 DE ABRIL Y GOBERNADOR SEGUI%MONSERRAT SARA BEATRIZ$Documento Nacional Identidad 16.798.834$ACTORA$CALLE 2 DE ABRIL Y GOBERNADOR SEGUI%LEIVA GERMAN ANDRES$31.500.840$DEMANDADA$LAS GOLONDRINAS Nº 260 DPTO 4%",5025,"jdocco0500pna",2018-07-01,2018-08-01
"19413","PARQUE RESIDENCIAL VILLA ADELINA S.R.L. C/ SCHONFELD FABIAN OSCAR","ORDINARIO ACCION REIVINDICATORIA","3","24/02/2017","155",NA,"19/12/2017 ",2018-08-02,"02/08/2018",NA,"1","S","2","354","0","0","PARKINSON AURELIANO$$MEDIADOR$MORENO Nº 109%SCHONFELD Fabián Oscar$18.502.543$DEMANDADA$Alfredo Palacios Nº 456%ABOGADOS EXTRAS$$ACTORA$%PARQUE RESIDENCIAL VILLA ADELINA SRL $$ACTORA$España Nº 437%",5580,"jdocco0700pna",2018-07-01,2018-08-01
"19685","TOLOY ALEJANDRA MARÍA C/ FIDEICOMISO TORRE PANAMÁ 639 Y OTROS","ORDINARIO DAÑOS Y PERJUICIOS","10","11/09/2017","80",NA,"01/06/2018 ",2018-07-26,"26/07/2018",NA,"1","S","2","354",NA,"0","ABOGADOS EXTRAS $$CITADA EN GARANTIA$%COMPAÑIA ARGENTINA DE SEGUROS VICTORIA S.A. $$CITADA EN GARANTIA$Florida nº 556%RIO URUGUAY SEGUROS COOPERATIVA LIMITADA $$CITADA EN GARANTIA$Congreso de Tucumán nº 21%DE BUENO Abel Alberto$$MEDIADOR$Avda. Alameda de la Federación Nº 326%GOLDENBERG Pablo Gabriel$Documento Nacional Identidad 18.175.999$DEMANDADA$García Verdier nº 3147%CASTAÑEIRA Julieta Rocío$Documento Nacional Identidad 24.592.585$DEMANDADA$Laprida nº 410%CHIAVE S.R.L. $$DEMANDADA$Santiago del Estero nº 163, Piso 7º, Dpto. \"A\"%MORANA Rafael Alberto$$DEMANDADA$SANTIAGO DEL ESTERO 469%TOLOY Alejandra María$16.466.395$ACTORA$Panamá nº 643%",5580,"jdocco0700pna",2018-07-01,2018-08-01
"8189","FERREYRA RICARDO LORENZO C/ RODRIGUEZ HERMIDA ROLANDO Y OTRO","ORDINARIO DAÑOS Y PERJUICIOS","4","28/11/2017","80","2","03/05/2018 ",2018-07-25,NA,NA,"1","S","2","1931",NA,NA,"CALEDONIA ARGENTINA COMPAÑIA DE SEGUROS S.A. $Identificación tributaria 30-50003667-8$CITADA EN GARANTIA$LAVALLE Nº 348, PISO 2%RODRIGUEZ HERMIDA ROLANDO$Documento Nacional Identidad 92.383.439$DEMANDADA$CALLE 25 S/N, 1RA. SECC. CHACRAS%FERREYRA RICARDO LORENZO$Documento Nacional Identidad 17.117.249$ACTOR CIVIL$Bº PANCHO RAMIREZ CASA 11%",5665,"jdocco0200gay",2018-07-01,2018-08-01
"7470","GIMENEZ MARIA DEL ROSARIO C/ GIMENEZ ELSA BEATRIZ","ORDINARIO ACCION DE NULIDAD","4","14/03/2016","75","2","12/03/2018 ",2018-07-04,NA,NA,"1","S","2","1931","C","0","COLEGIO DE ESCRIBANOS DE ENTRE RIOS $$CITADO$URQUIZA Nº 1180%GIMENEZ ELSA BEATRIZ$Documento Nacional Identidad 23.497.089$DEMANDADA$BENJAMIN HALKETT Nº 265%GIMENEZ MARIA DEL ROSARIO$Documento Nacional Identidad 36.583.326$ACTOR CIVIL$COLON Nº 346%",5665,"jdocco0200gay",2018-07-01,2018-08-01
"8126","VILLANUEVA DAIANA Y OTROS C/ COGORNO LUIS ALBERTO Y OTROS","ORDINARIO ACCION REIVINDICATORIA","7","01/08/2017","90","3","04/05/2018 ",2018-08-01,"23/10/2018",NA,"1","S","2","1931",NA,"0","COGORNO LUIS ALBERTO$Documento Nacional Identidad 12.896.609$DEMANDADA$MAIPU Nº 695%GODOY YOLANDA CRISTINA$Documento Nacional Identidad 13.350.839$DEMANDADA$CALLE 26 y 108, 2DA. SECC. CHACRAS%VILLANUEVA DAIANA$33.317.871$ACTORA$ALEM Nº 449%VILLANUEVA ALESIO MIGUEL$$ACTORA$LEANDRO N. ALEM Nº 449%CARBALLO MONICA LILIANA$16.206.686$ACTORA$ALEM Nº 449%",5665,"jdocco0200gay",2018-07-01,2018-08-01
"12164","GUTIERREZ MARIA DELIA C/ SUCESORES DE MIGUEL OSCAR GONZALEZ","ORDINARIO FILIACION","6","27/03/2015","25","1","29/05/2018",2018-07-24,NA,NA,"1","S","2","1311",NA,"0","GONZALEZ JUAN ANTONIO$31.851.456$DEMANDADA$La Plaza 1381%AGENTE FISCAL $$FISCAL DE ESTADO$Despacho de Agente Fiscal de Tribunales%GONZALEZ SUSANA ANDREA$29.398.987$DEMANDADA$PaysandÃº al oeste%GONZALEZ ESTELA ISABEL$27.835.616$DEMANDADA$Plan Fonavi Dpto. 11%GONZALEZ CARLOS ISMAEL$26.374.201$DEMANDADA$Pasaje Maneco Sosa 233%GONZALEZ JOSE MARIA$17.675.881$DEMANDADA$Calle 519 NÂº 1804%GONZALEZ ESTELA ESTER$14.611.104$DEMANDADA$Churrinchen 2155%GONZALEZ Flora Elena$16.328.252$DEMANDADA$Lucilo GonzÃ¡lez 286%GONZALEZ PEDRO EDUARDO$12.432.062$DEMANDADA$Edison 415%SUCESORES DE MIGUEL OSCAR GONZALEZ $$DEMANDADA$%GUTIERREZ MARIA DELIA$30.160.046$ACTORA$Perito Moreno 288 (entre calles 1205 y 1203)%",6190,"jdocco0200col",2018-07-01,2018-08-01
"13100","VIERA ALEJANDRO LUIS C/ KARRA JOSE ALBERTO Y OTRA","ORDINARIO","3","23/12/2016","40","1","14/06/2018",2018-07-31,NA,NA,"1","T","2","1311",NA,"0","PARANA SEGUROS $$CITADA EN GARANTIA$Sarmiento NÂº 624%KARRA JOSE ALBERTO$Documento Nacional Identidad 16.858.665$DEMANDADA$TUCUMAN 23%VIERA ALEJANDRO LUIS$Documento Nacional Identidad 35.298.954$ACTORA$URQUIZA Y CASEROS S/N%",6190,"jdocco0200col",2018-07-01,2018-08-01
"18407","SOLIOZ ALEJANDRA PATRICIA C/ CANTERO VICTOR NORBERTO Y OTRO","ORDINARIO ACCIDENTES DE TRANSITO","0","15/03/2018","30",NA,"22/06/2018 ",2018-07-06,NA,NA,"1",NA,"2","SIONE",NA,NA,"TRIUNFO COOPERATIVA DE SEGUROS LIMITADA $$CITADA EN GARANTIA$Av. San Martin Nº 1092%ZAPATA LIBERT PABLO ENRIQUE$$MEDIADOR$GRAL. SAN MARTIN Nº1226%CANTERO VICTOR NORBERTO$Documento Nacional Identidad 26.150.077$DEMANDADA$ROCAMORA II, MANZANA I, CASA Nº 5%CABROL ESTERIO JOSE$Documento Nacional Identidad 5.923.791$DEMANDADA$JUJUY Nº 548%SOLIOZ ALEJANDRA PATRICIA$Documento Nacional Identidad 25.684.612$ACTORA$CORTADA 4 S/Nº, Bº MACARONE%",5078,"jdocco0200pna",2018-07-01,2018-08-01
"23083","RESTANO Franco Nazareno Ismael Y OTROS C/ SANABRIA  ALAGUIVE Yamila Micaela Y OTRA","ORDINARIO","6","06/02/2018","60","1","13/06/2018 ",2018-07-24,NA,NA,"1","S","2","1213","0","0","BERTOZZI Gustavo Arnaldo$Perito Médico$PERITO MEDICO$Luis Pasteur nº481%FONTANINI Leandro$Consultor Técnico$CONSULTOR TECNICO$Avda. Alameda de la Federación nº479, 4º Piso, Dpto.\"A\"%BIANCUCCI Ignacio$Consultor Técnico$CONSULTOR TECNICO$Belgrano nº544%RESTANO Franco Nazareno Ismael$39.684.000$ACTORA$Rondeau nº794%MONZÓN Alejandra Noemí$25.684.968$MADRE$El Guarán nº3053%ZAPATA Ramón Dionisio$17.616.254$PADRE$Rondeau s/n, Barrio Itatí, Casa 29%ZAPATA Jesús Antonio David (MENOR)$43.540.063$ACTOR MENOR DE EDAD$El Guarán nº3053%SANABRIA  ALAGUIVE Yamila Micaela$40.838.473$DEMANDADA$José Hernández nº691%ALAGUIVE María Marcela$21.942.875$DEMANDADA$José Hernández nº691%RIO URUGUAY Coop. de Seguros Ltda. $$CITADA EN GARANTIA$Congreso de Tucumán Nº21%ZAPATA LIBERT Pablo Enrique$$MEDIADOR$San Martín Nº 1226%",5286,"jdocco0400pna",2018-07-01,2018-08-01
"13625","BERON GRISELDA GRACIELA C/ OTERO RAUL ALBERTO","DESALOJO","2","12/10/2017","60","1","20/04/2018 ",2018-07-05,NA,NA,"1","TRUE","2","15898","0","0","OTERO ALBERTO RAUL$12.990.698$DEMANDADA$Franch entre San Martín y Alem%BERON GRISELDA GRACIELA$18.380.707$ACTORA$Arenales Nº 648%",5098,"jdocco0000vic",2018-07-01,2018-08-01
"18115","URBANI SOCIEDAD ANONIMA C/ BRITOS, JUAN JOSE","ORDINARIO CUMPLIMIENTO DE CONTRATO","4","30/06/2015","54",NA,"10/05/2018 ",2018-07-05,NA,NA,"1","TRUE","2","MORALES",NA,"0","BRITOS JUAN JOSE$Documento Nacional Identidad 16.981.320$DEMANDADA$Liniers nº 500%URBANI SOCIEDAD ANONIMA $$ACTORA$Mitre nº 265%",5303,"jdocco0800pna",2018-07-01,2018-08-01
"4664","Toci Juan Carlos C/ Yerliman Irma y/o herederos  y/o sucesores y/o quién resulte responsable registralmente del inmueble","USUCAPION","3","18/03/2014","50 MINUTOS",NA,"11/04/2018 ",2018-07-31,NA,NA,"1","S","2","DRA VEGA","1","0","Yerliman Irma$$DEMANDADA$%Toci Juan Carlos$Documento Nacional Identidad 13657098$ACTORA$miguel Tomé 251%",5714,"jdocco0200lpa",2018-07-01,2018-08-01
"5133","CEBALLOS CLAUDIO LUIS Y OTRA C/ QUIEN O QUIENES RESULTEN PROPIETARIOS.RECARATULADO: CEBALLOS CLAUDIO LUIS Y OTRA C/CABRERA CASCO FELICIANO MOISE Y/O SUS HEREDEROS Y/O SUCESORES","USUCAPION","2","05/05/2017","20",NA,"27/04/2018 ",2018-07-31,NA,NA,"1","S","2","ORLANDI","C","0","DURBANO MARIA SOLEDAD$$DEFENSOR DE AUSENTE$%SUPERIOR GOBIERNO DE LA PCIA. ENTRE RIOS $$DEMANDADA$Fernandez de la Puente Nº 220, Paraná%DIAZ SUSANA DEL CARMEN$Documento Nacional Identidad 21.735.784$ACTORA$SAN LUIS Nº 961%CEBALLOS CLAUDIO LUIS$Documento Nacional Identidad 18.601.087$ACTORA$SAN LUIS Nº 961%",5035,"jdocco0200nog",2018-07-01,2018-08-01
"17349","BOURNISSENT MARIA GABRIELA Y OTRO C/ VERA JORGE C. Y OTRA","ORDINARIO (CIVIL)","5","24/05/2017","50","1","14/06/2018 ",2018-07-04,NA,NA,"1","S","2","520",NA,"0","COLLADO MARIA EUGENIA$$MEDIADOR$%LIDERAR COMPAÑIA GENERAL DE SEGUROS S.A. $$CITADA EN GARANTIA$RECONQUISTA Nº 585 PISO 5%VERA JORGE CARLOS$22.524.826$DEMANDADA$AGUADO Nº 1124%BOURNISSENT LEANDRO$18.163.926$ACTORA$B. 80 VIVIENDAS MZA. 2 CASA Nº 79.%BOURNISSENT MARIA GABRIELA$22.514.202$ACTORA$SARGENTO CABRAL Nº 2908%",5506,"jdocco0100pna",2018-07-01,2018-08-01
"15370","IRIGOITIA QUIROGA Susana C/ RIOS Erika Lorena","ORDINARIO","2","12/09/2017","30","1","24/04/2018 ",2018-07-25,NA,NA,"1","S","2","MORAHAN","C","0","RÍOS Erika Lorena$Documento Nacional Identidad$DEMANDADA$Santa Fé Nº 668%IRIGOITIA QUIROGA Susana Clara$Documento Nacional Identidad 92.417.173$ACTORA$Colonia La Argentina- Federación%",5105,"jdocco0000fed",2018-07-01,2018-08-01
"17427","BRION DE MULLER NILSA G. Y OTROS C/ FRANCO JOSE G.","ORDINARIO (CIVIL)","4","27/07/2017","40","1","03/07/2018 ",2018-08-02,NA,NA,"1","S","2","520","0","0","MULLER ROBERTO DANIEL$Documento Nacional Identidad 14.718.650$ACTORA$%MULLER NILDA ARMINDA$Documento Nacional Identidad 14.160.526$ACTORA$%BRION DE MULLER NILSA GLADYS$Documento Nacional Identidad 03.779.964$ACTORA$%FRANCO JOSE GABRIEL$20.554.989$DEMANDADA$%MUNILLA CARLA DANIELA$$MEDIADOR$%",5506,"jdocco0100pna",2018-07-01,2018-08-01
"34177","ALARCON EDUARDO OSCAR Y OTRO C/ ASENSIO PABLO FRANCISCO","ORDINARIO ACCIDENTES DE TRANSITO","1","10/04/2018","30",NA,"12/06/2018 ",2018-08-16,NA,NA,"1","S","2","821",NA,NA,"ZAPATA LIBERT PABLO E.$$MEDIADOR$%ALARCON EDUARDO OSCAR$20.895.059$ACTORA$JOSE AREVALO Nº 2811%ALARCON CRISTIAN RAUL OSCAR$38.261.005$ACTORA$JOSE AREVALO Nº 2811%SAN CRISTOBAL SOCIEDAD MUTUAL SEGUROS GENERALES $$CITADA EN GARANTIA$RIVADAVIA 3052%ASENSIO PABLO FRANCISCO$17.277.714$DEMANDADA$AVDA. DE LAS AMERICAS Nº 4515%MODAD RENEE ALINE ELISA$$PERITO MEDICO$BUENOS AIRES Nº 60 - 3º \"B\"%PEREYRA LILIAN INES$$PERITO MEDICO$VICTORIA Nº 60 DEPTO 6%YANOVSKY JORGE EDUARDO$$PERITO INGENIERO$MONTE CASEROS Nº 454%",6723,"jdocco0300pna",2018-07-01,2018-08-01
"33627","ESTADO DE LA PROVINCIA DE ENTRE RIOS C/ OCAMPO OMAR","ORDINARIO DAÑOS Y PERJUICIOS","2","07/02/2017","20",NA,"04/07/2018 ",2018-08-28,NA,NA,"1","S","2","821",NA,NA,"ESTADO PROVINCIAL $$ACTORA$MEJICO Y CORDOBA%OCAMPO OMAR$12.474.359$DEMANDADA$20 DE FEBRERO Nº 270%LORENZINI ESTELA DIANA$$DEFENSOR DE AUSENTE$%",6723,"jdocco0300pna",2018-07-01,2018-08-01
"33329","MARTINEZ GUILLERMO DANIEL C/ SALINAS LEONARDO GUSTAVO Y OTRO","ORDINARIO ACCIDENTES DE TRANSITO","3","31/05/2016","45",NA,"22/06/2018 ",2018-08-30,NA,NA,"1","S","2","821",NA,NA,"MUNICIPALIDAD DE PARANA $$DEMANDADA$MONTE CASEROS Y URQUIZA%MARTINEZ GUILLERMO DANIEL$34.586.134$ACTORA$BAJADA GRANDE, CALLE X, CASA Nº 1009%ABOGADOS EXTRAS $$DEMANDADA$%SALINAS GUSTAVO LEONARDO$20-36208602-8$DEMANDADA$PROFESOR M. DEMONTE VITALI%INSTITUTO AUTARQUICO PROVINCIAL DEL SEGURO DE ENTRE RIOS $$CITADA EN GARANTIA$SAN MARTIN 918%CARABAJAL EXEQUIEL ALBERTO$$TESTIGO$CORTADA  1092  Nº 2165%LEDERHOS MARCOS DAVID$$TESTIGO$CALLE \"A\" S/N  BAJADA  GRANDE%BRUNENGO MARTIN  ARIEL$$TESTIGO$BAJADA  GRANDE, CALLE 153, MANZANA 2, CASA 7(pintada de amarillo con ventana  frente colo a mitadPIN TADA  DE AMARILLO%LEDERHOS LUCAS LUCIANO$$TESTIGO$BAJADA GRANDE, CALLE A  S/N%HAEDO FABRICIO JOSE$$TESTIGO$ESTEBAN RAMOS Nº 787%GOLPE LUCIO$$TESTIGO$SAN MARTIN  Nº 1247%ZARATE EDUARDO$$TESTIGO$FLORIDA  1537%ROMERO LUIS  ANTONIO$$TESTIGO$MORENO Nº 123%",6723,"jdocco0300pna",2018-07-01,2018-08-01
"34089","RODIMAR S.A. C/ ARA CESAR AUGUSTO Y OTRA","ORDINARIO DAÑOS Y PERJUICIOS","6","01/02/2018","60",NA,"19/06/2018 ",2018-08-21,NA,NA,"1","S","2","821",NA,NA,"SCHOJ HECTOR RAUL$10.069$PRESIDENTE DIRECTORIO$BAVIO 224%RODIMAR  SA $$ACTORA$25 DE JUNIO 472%DE BUENO ABEL ALBERTO$$MEDIADOR$MEXICO 466%ARA CESAR AUGUSTO$$DEMANDADA$SAN MARTIN 1253%ALVES PINHEIRO CANDIDA  AMELIA$$DEMANDADA$CORRIENTES 579%",6723,"jdocco0300pna",2018-07-01,2018-08-01
"34087","SAN CRISTOBAL SOCIEDAD MUTUAL DE SEGUROS GENERALES C/ SANCHEZ RAMON LEONARDO","ORDINARIO ACCION DE CONSIGNACION","3","01/02/2018","20",NA,"14/08/2018 ",2018-08-27,NA,NA,"1","S","2","821",NA,NA,"SANCHEZ RAMON  LEONARDO$21.735.123$DEMANDADA$VIRGEN DE  ITATI Nº 1978%PRATO ALEJANDRO$$MEDIADOR$SANTA FE Nº 165 - PLANTA ALTA DPTO 1%SAN CRISTOBAL SOCIEDAD MUTUAL SEGUROS GENERALES $$ACTORA$RIVADAVIA 3052%FERREYRA HUGO ANIBAL$$TESTIGO$GALAN  Nº 1332%",6723,"jdocco0300pna",2018-07-01,2018-08-01
"34109","VARON HECTOR ADRIAN C/ CUMINETTI URANGA FRANCISCO EUGENIO Y OTRO","ORDINARIO ACCIDENTES DE TRANSITO","5","20/02/2018","30",NA,"01/06/2018 ",2018-08-02,NA,NA,"1","S","2","821",NA,NA,"ZAPATA LIBERT PABLO E.$$MEDIADOR$%VARON HECTOR  ADRIAN$34.014.982$ACTORA$ALDEA  SANTA  MARIA  Nº 2121%CUMINETTI  URANGA FRANCISCO EUGENIO$20.882.400$DEMANDADA$SAN LORENZO  Nº  67%QBE SEGUROS LA BUENOS AIRES SOCIEDAD ANONIMA $$CITADA EN GARANTIA$AVDA LIBERTADOR 6350%",6723,"jdocco0300pna",2018-07-01,2018-08-01
"11744","ROLON LAGRAÑA, Ernesto Antonio por sí y en representación de su hijo menor LNRL C/ MORINIGO, Héctor Oscar","ORDINARIO DAÑOS Y PERJUICIOS","5","13/05/2016","30","1","15/05/2018 ",2018-07-31,"31/07/2018",NA,"1","S","2","2028","0","0","ROLON LAGRAÑA Luciano Nahuel$Documento Nacional Identidad 42.308.292$ACTORA$Ituzaingó Nº 1057%ASEGURADORA FEDERAL ARGENTINA S.A. $CUIT  30-68236302-5$CITADA EN GARANTIA$Diagonal Sur - Julio A. Roca Nº 721 -Belgrano Nº 926 -%MORINIGO Héctor Oscar$10.198.840$DEMANDADA$H. Primo Nº 1512%ROLON LAGRAÑA Ernesto Antonio$22.660.410$ACTORA$Ituzaingó Nº 1057%",5066,"jdocco0100con",2018-07-01,2018-08-01
"2851","CIRCULO MEDICO DE PARANA S- PEDIDO DE CONCURSO PREVENTIVO S- CONCURSO PREVENTIVO (Proceso Tipo A) - Expte. Nº 2459","INCIDENTE DE VERIFICACION TARDIA","5","20/09/2017","70","1","25/06/2018 ",2018-07-25,NA,NA,"1","S","2","16139, 1932","1","0","GONZALEZ VERONICA ANDREA$Documento Nacional Identidad 22.342.516$PERITO CONTADOR$%DURANDO ESTELA LILIANA$4226909$CONTADOR$PTE. PERON 709%ESTUDIO NEME. GONZALEZ FIRPO $$SINDICO$Córdoba 549 1º \"A\"%CIRCULO MEDICO PARANA $CONCURSADA$INCIDENTADA$Carlos Darwin Nº 1257%SOCIEDAD COSMOPOLITA DE SOCORROS MUTUOS $Identificación tributaria 30-63939527-4$INCIDENTANTE$BV. SAN MARTIN N° 231%",5136,"jdocco0902pna",2018-07-01,2018-08-01
"5283","LOPEZ CARLOS EDUARDO C/ QUIEN RESULTE PROPIETARIO DEL INMUEBLE","USUCAPION","1","11/09/2017","30",NA,"28/05/2018 ",2018-07-25,NA,NA,"1","S","2","ORLANDI","C","0","FIRPO CLAUDIO ANTONIO RAMON$$DEFENSOR DE AUSENTE$MAIPU Nº 1284%SUPERIOR GOBIERNO DE LA PROVINCIA DE ENTRE RIOS DESP OFICIAL DEL AG FISCAL$$DEMANDADA$CALLE F. DE LA PUENTE Nº 220 (CASA DE GOBIERNO)%LOPEZ CARLOS EDUARDO$Documento Nacional Identidad 12.977.169$ACTORA$OLEGARIO VICTOR ANDRADE%",5035,"jdocco0200nog",2018-07-01,2018-08-01
"16035","NICKEL RUBEN CARLOS C/ MUNDO AGROMOVIL S.A.","SUMARISIMO","3","21/02/2018","50","1","29/05/2018 ",2018-07-03,NA,NA,"1",NA,"2","RUFANACHT",NA,"0","MARIA LORENA PAMELA$$MEDIADOR$MALVINAS Nº 260%MUNDO AGROMOVIL S.A. $Documento Nacional Identidad 30-71221646-4$DEMANDADA$AVENIDA LA CORDILLERA Nº 4769%NICKEL RUBEN CARLOS$Documento Nacional Identidad 28.665.868$ACTORA$J. M . ESTRADA Nº 225%",5696,"jdocco0600pna",2018-07-01,2018-08-01
"15713","SPREAFICO SONIA GABRIELA C/ ESTADO PROVINCIAL","ORDINARIO DAÑOS Y PERJUICIOS","2","18/05/2017","30","1","22/06/2018 ",2018-08-02,NA,NA,"1","S","2","RUFANACHT",NA,"0","ESTADO PROVINCIAL $$DEMANDADA$%SPREAFICO SONIA$$ACTORA$GUIEMES Nº 1149%",5696,"jdocco0600pna",2018-07-01,2018-08-01
"5506","Andino Cirila C/ Solis Andres Fabian y Otro","ORDINARIO DAÑOS Y PERJUICIOS","3","05/09/2016","90 MINUTOS",NA,"03/04/2018 ",2018-07-26,NA,NA,"1","S","2","DRA. VEGA","1","0","SEguros Rivadavia Compañia de SEguros $$CITADA EN GARANTIA$%Solis Andres Fabian$$DEMANDADA$%Andino Cirila$$ACTORA$Ricardo Fels S/N - Barrio Estación - La Paz (E.R.)%",5714,"jdocco0200lpa",2018-07-01,2018-08-01
"1195","EBERLE, Melania Lucrecia C/ GONZALEZ, Facundo y Otro","ORDINARIO DAÑOS Y PERJUICIOS","4","26/11/2014","95","1","21/05/2018",2018-07-05,NA,NA,"1","S","2","15910","c","0","Río Uruguay Cooperativa de Seguros Ltda. $$CITADA EN GARANTIA$Congreso de Tucumán N° 21%WARD Ricardo Tomás Eugenio$Documento Nacional Identidad 26.437.973$DEMANDADA$%GONZALEZ Facundo$Documento Nacional Identidad 36.649.130$DEMANDADA$Primera Junta Nº 448%EBERLE Melania Lucrecia$Documento Nacional Identidad 29.173.220$ACTORA$Quiroz Nº269%",5172,"jdocco0000ssa",2018-07-01,2018-08-01
"5811","Sanchez Silvina Miriam C/ Geminiani Guido","ORDINARIO DAÑOS Y PERJUICIOS","0","06/10/2017",NA,NA,"22/05/2018 ",2018-07-04,NA,NA,"1",NA,"3",NA,"C",NA,"Geminiani Guido$$DEMANDADA$%San Cristobal Seguros S.M.S.G. $$DEMANDADA$Gualeguaychú 2305%Sanchez Silvina Miriam$Documento Nacional Identidad 26.596.053$ACTORA$Belgrano 3355- Bº Coop Agropecuaria%",5714,"jdocco0200lpa",2018-07-01,2018-08-01
"13157/17","MARMOL, Carlos César C/ SCATULARO, José Nazareno","ORDINARIO DAÑOS Y PERJUICIOS","3","13/02/2017","40","1","04/05/2018 ",2018-07-26,NA,NA,"1","S","2","Lena","C","0","LIDERAR CÍA. DE SEGUROS S.A. $$CITADA EN GARANTIA$Reconquista Nº 585%SCATULARO José Nazareno$20.098.626$DEMANDADA$Uruguay Nº 3730%MARMOL Carlos César$22.894.560$ACTORA$Pablo Stampa Nº 3960%",5777,"jdocco0100cha",2018-07-01,2018-08-01
"13169/17","RIVAROLA, Natalia Soledad C/ MARCHESSI, José Rafael y OTRA","ORDINARIO DAÑOS Y PERJUICIOS","7","24/02/2017","50","1","07/05/2018 ",2018-07-31,NA,NA,"1","S","2","Lena","C","0","LIDERAR CÍA. DE SEGUROS S.A. $$CITADA EN GARANTIA$Reconquista Nº 585%MONSALVO María del Carmen$Documento Nacional Identidad 12.238.950$DEMANDADA$Entre Ríos Nº 3710%MARCHESSI José Rafael$Documento Nacional Identidad 23.210.225$DEMANDADA$Alberdi Nº 1830%RIVAROLA Natalia Soledad$35.445.562$ACTORA$Pío XII Nº 2280%",5777,"jdocco0100cha",2018-07-01,2018-08-01
"7437","AGUIAR JUAN ANTONIO C/ ARISMENDI ANTONIO FABIAN Y OTRO","ORDINARIO DAÑOS Y PERJUICIOS","2","01/10/2014","60","1","04/06/2018 ",2018-07-26,NA,NA,"1","S","2","1798","C","0","ASEGURADORA FEDERAL ARGENTINA S.A. EN LIQUIDACIÓN $$CITADA EN GARANTIA$Belgrano nº 926%ASEGURADORA FEDERAL ARGENTINA S.A. $$CITADA EN GARANTIA$Balcarce Nº 683 - C.A.B.A.%AGUIAR Antonio Bernabe$Documento Nacional Identidad 22.699.041$ACTORA$Moreno Nº 1644 - Nogoyá%MENDEZ ARTURO RAUL$$MEDIADOR$%AGUIAR JUAN ANTONIO$Documento Nacional Identidad 41.611.592$ACTORA$Moreno Nº 1644 - Nogoyá%CALERO Daniel Eduardo$16.123.775$DEMANDADA$Mitre Nº 335 - Nogoyá%ARISMENDI Antonio Fabián$Documento Nacional Identidad 21.735.837$DEMANDADA$Córdoba Nº 225 -  Nogoyá%TOGNOLI Ana Claudia$Documento Nacional Identidad 23.917.278$ACTORA$Moreno Nº 1644 - Nogoyá%",5043,"jdocco0100nog",2018-07-01,2018-08-01
"12952/16","RUIZ DIAZ, José Antonio C/ CANO, Carlos Rodrigo","ORDINARIO ACCION REIVINDICATORIA","4","28/04/2016","65","1","22/05/2018 ",2018-07-05,NA,NA,"1","S","2","Lena","C","0","CANO Carlos Rodrigo$10.646.651$DEMANDADA$%RUIZ DIAZ José Antonio$20.417.398$ACTORA$Almirante Brown Nº 1463%",5777,"jdocco0100cha",2018-07-01,2018-08-01
"4480/16","AGOSTI, Roque Marcelo C/ GRUPAVI S.A. y Otra","ORDINARIO DAÑOS Y PERJUICIOS","4","23/12/2016","40","1","10/05/2018 ",2018-07-04,NA,NA,"1","S","2","1226","C","0","LA MERIDIONAL COMPAÑIA ARGENTINA DE SEGUROS S.A. $$CITADA EN GARANTIA$Tte. General Juan D. Perón Nº 646, Piso Nº 4%GRUPAVI S.A. $$DEMANDADA$Caronti Nº 679%AGOSTI Roque Marcelo$$ACTORA$José Arevalo y San Juan%AGOSTI Roque Marcelo$$ACTORA$José Arevalo y San Juan%",5803,"jdocco0200cha",2018-07-01,2018-08-01
"4075/15","IBARROLA Floriano Adán y OTROS C/ GUERREIRO José María y OTROS","ORDINARIO DAÑOS Y PERJUICIOS","5","08/07/2015","30","1","22/05/2018 ",2018-07-02,NA,NA,"1","S","2","1226","C","0","PARANA SOCIEDAD ANONIMA DE SEGUROS $$DEMANDADA$Maipú 215%GUERREIRO JOSE MARIA$11.584.830$DEMANDADA$Dr. Miguel Nessa Boeri Nº 2244%IBARROLA TOMAS ISAIAS$Documento Nacional Identidad 39.258.830$ACTORA$San martin Nº 810%IBARROLA YAMILA FLORIANA$Documento Nacional Identidad 40.989.637$ACTORA$%IBARROLA JESSICA GRACIELA$Documento Nacional Identidad 40.989.638$ACTORA$%IBARROLA LUCAS JOEL$Documento Nacional Identidad 40.989.639$ACTORA$San MArtín Nº 810%IBARROLA FLORIANO ADAN$Documento Nacional Identidad 12.386.908$ACTORA$San Martin Nº 810%LESCANO Graciela$16.213.199$ACTORA$San Martin Nº 810%",5803,"jdocco0200cha",2018-07-01,2018-08-01
"4748/18","LABRIOLA Juan Omar C/ BORGO, Juan Carlos y Otro","ORDINARIO DAÑOS Y PERJUICIOS","5","16/03/2018","40","1","31/05/2018 ",2018-07-24,NA,NA,"1","S","2","1226","C","0","INSTITUTO AUTARQUICO PROVINCIAL DEL SEGURO DE ENTRE RIOS $$DEMANDADA$San Martín Nº 918/956%BORGO Juan Carlos$Documento Nacional Identidad 5.828.634$DEMANDADA$Esc. Provincial Nº 8%LABRIOLA Juan Omar$11.810.508$ACTORA$Av. Belgrano Nº 572%",5803,"jdocco0200cha",2018-07-01,2018-08-01
"4704/17","LUCERO Angel Esteban C/ SIVIERO Javier Mario y Otro","ORDINARIO DAÑOS Y PERJUICIOS","3","19/12/2017","50","1","11/05/2018 ",2018-07-31,NA,NA,"1","S","2","1226","C","0","SEGUROS ESCUDOS S.A. $$CITADA EN GARANTIA$Av. Corrientes 330 - Piso 4º%SEGUROS ESCUDOS S.A. $$CITADA EN GARANTIA$Av. Corrientes 330 - Piso 4º%SIVIERO Javier Mario$16.173.879$DEMANDADA$Tres de FebreroNº 3445%SIVIERO Javier Mario$16.173.879$DEMANDADA$Tres de FebreroNº 3445%LUCERO Angel Esteban$12.128.711$ACTORA$Alberdi Nº 3395%",5803,"jdocco0200cha",2018-07-01,2018-08-01
"8828","BELLA RUBEN CARLOS DANIEL Y OTROS C/ ROMERO OLIVERIO JESUS Y OTRA","ORDINARIO DAÑOS Y PERJUICIOS","4","30/09/2013","80","1","17/05/2018 ",2018-07-03,NA,NA,"1","S","2","1798","C","0","SELING DANILO GABRIEL$Documento Nacional Identidad 37.420.731$ACTORA$ISLAS MALVINAS S/Nº%FOLGUERAS GABRIELA CRISTINA$Documento Nacional Identidad 33.269.693$ACTORA$EDUARDO MONGELO S/Nº%BELLA RUBEN CARLOS DANIEL$Documento Nacional Identidad 16.850.416$ACTORA$MARIANO MORENO Nº 1162%LA SEGUNDA COOP.LTDA.DE SEGUROS GENERALES $$CITADA EN GARANTIA$JUAN MANUEL DE ROSAS Nº 957%LAFFERRIERE AUGUSTO DIEGO$DNI.27.066.311$MEDIADOR$SAN MARTIN Nº 654%ROMERO OLIVERIO JESUS$Documento Nacional Identidad 21.596.193$DEMANDADA$BARRIO 20 VIVIENDAS, CASA 8, CALLE INT.PTE.PERÓN%",5043,"jdocco0100nog",2018-07-01,2018-08-01
"8731","CASCO VÍCTOR MANUEL","USUCAPION","3","30/06/2017","60","1","06/06/2018 ",2018-08-01,"01/08/2018",NA,"1","S","2","1798","1","0","MUNICIPALIDAD DE NOGOYA $Identificación tributaria 30-99900575-2$DEMANDADA$CASEROS Nº 965%SUPERIOR GOBIERNO DE LA PCIA. ENTRE RIOS $$DEMANDADA$G. Fernandez de la Puente Nº 220, Paraná%BUIATTI GONZALO ANTONIO$$DEFENSOR DE AUSENTE$ALEM 946%CASCO Victor Manuel$11.946.039$ACTORA$%",5043,"jdocco0100nog",2018-07-01,2018-08-01
"12134","BEJARANO IRMA FELIPA C/ SAFENRAITER MELANIA","ORDINARIO","6","30/12/2015","01:40:00","2","11/05/2018 ",2018-08-08,NA,NA,"1","S","2","1083","1","0","BRUMATTI HERNAN DARIO$Documento Nacional Identidad 30.390.912$DEMANDADA$Tratado del Pilar 727%SAFENRAITER MELANIA$Documento Nacional Identidad 29.908.530$DEMANDADA$Tratado del Pilar 727%BEJARANO IRMA FELIPA$Documento Nacional Identidad 5.890.221$ACTORA$Tratado del Pilar 725%",7158,"jdocco0000dia",2018-07-01,2018-08-01
"10893","DAVID ALICIA CRISTINA Y ZAPATA HECTOR RAMON C/ DAVID SANTIAGO","USUCAPION","5","06/03/2014","00:50:00","1","21/05/2018 ",2018-08-08,NA,NA,"1","S","2","1083","1","0","MUNICIPALIDAD DE DIAMANTE $$TERCERO$Eva PerÃÂ³n y EchagÃÂ¼e%DEFENSOR DE AUSENTES $$DEFENSOR DE AUSENTE$%DAVID SANTIAGO$$DEMANDADA$%ZAPATA HECTOR RAMON$10.572.751$ACTORA$San Lorenzo 891%DAVID ALICIA CRISTINA$12.064.549$ACTORA$San Lorenzo 891%",7158,"jdocco0000dia",2018-07-01,2018-08-01
"12678","ERHARDT BRUMATTI MAIA ANTONELLA C/ BGH S.A Y OTRO","SUMARISIMO","0","13/12/2016",NA,NA,"19/06/2018 ",2018-07-25,NA,NA,"1",NA,"3","1083","C","0","DIA ARGENTINA S.A Tienda 1503$$DEMANDADA$Independencia nÃÂº 1660%BGH S.A $$DEMANDADA$Brasil 731%ERHARDT BRUMATTI MAIA ANTONELLA$Documento Nacional Identidad 30.301.143$ACTORA$Dorrego nÃÂº 111%",7158,"jdocco0000dia",2018-07-01,2018-08-01
"28900","LESCANO EDUARDO OSCAR C/ ESTADO PROVINCIAL","ORDINARIO DAÑOS Y PERJUICIOS","3","27/04/2016","25","1","19/06/2018 ",2018-07-04,NA,NA,"1","S","2","620",NA,"0","ESTADO PROVINCIAL $$DEMANDADA$FERNANDEZ DE LA PUENTE Nº 220%LESCANO EDUARDO OSCAR$Documento Nacional Identidad 16.200.853$ACTORA$GÜEMES Nº 1153%",5025,"jdocco0500pna",2018-07-01,2018-08-01
"8609","INTERNATIONAL STAR S.A. C/ EXIMPORT S.R.L.","ORDINARIO","2","27/09/2017","40","1","24/05/2018 ",2018-07-25,"25/07/2018","02/10/2018","1","S","2","1619","1","0","EXIMPORT S.R.L. $$DEMANDADA$%INTERNATIONAL STAR S.A. $$ACTORA$%",5051,"jdocco0200uru",2018-07-01,2018-08-01
"11380","VERON NORA BEATRIZ C/ NEIFFERT WALTER GENARO Y OTRO","DESALOJO","4","12/04/2018","40","1","07/06/2018 ",2018-07-26,NA,NA,"1","S","2","60",NA,"0","VERON NORA BEATRÍZ$14.322.301$ACTORA$%NEIFFERT WALTER GENARO$33.297.829$DEMANDADA$%",5509,"jdocco0200gch",2018-07-01,2018-08-01
"11171","VOLKER EDGARDO ROGELIO C/ SPIAZZI ISIDORO ENRIQUE Y OTROS","USUCAPION","2","15/11/2017","30","1","12/06/2018 ",2018-08-02,NA,NA,"1",NA,"2","60",NA,"0","VOLKER EDGARDO ROGELIO$Documento Nacional Identidad 5.883.281$ACTORA$% $$DEMANDADA$% $$DEMANDADA$% $$DEMANDADA$%",5509,"jdocco0200gch",2018-07-01,2018-08-01
"29572","MAIDANA SILVIA LILIANA C/ LENARDUZZI DE MARCONI TEODOLINDA TERESA","ORDINARIO DAÑOS Y PERJUICIOS","5","08/11/2017","32","1","07/06/2018 ",2018-07-03,NA,NA,"1","S","2","620",NA,"0","CAMPOS SILVIA INES$$MEDIADOR$ALEM 344%ABOGADOS EXTRAS $$ACTORA$%MAIDANA SILVIA LILIANA$Documento Nacional Identidad 5.716.573$ACTORA$CORRIENTES Nº 232, 6º \"F\"%LENARDUZZI DE MARCONI TEODOLINA TERESA$2.382.871$DEMANDADA$CALLE JOSE MARIA TORRES Nº 804%",5025,"jdocco0500pna",2018-07-01,2018-08-01
"8777","SALOMON MARINO DANIEL Y PAPES FABRICIO C/ SMG COMPAÑIA ARGENTINA ASEGURADORA S.A.","ORDINARIO DAÑOS Y PERJUICIOS","4","13/03/2018","40","1","29/05/2018 ",2018-07-26,"26/07/2018","04/10/2018","1","S","2","1619","1","0","SMG COMPAÑIA ARGENTINA DE SEGUROS S.A. $$DEMANDADA$%SALOMON MALINO$$ACTORA$%",5051,"jdocco0200uru",2018-07-01,2018-08-01
"12127","AGUIRRE, César Daniel C/ COOPERATIVA ELÉCTRICA DE LA CIUDAD DE CONCORDIA","INTERDICTO DE OBRA NUEVA","6","15/06/2017","30","1","23/05/2018 ",2018-07-03,NA,NA,"1","S","2","2028","C","0","MUNICIPALIDAD de COLONIA AYUI $$TERCERO$Avda.Próspero Bovino 30%ROSATELLI Alicia Mirta$6.067.126$TERCERO$Tte. Ibañez 766%COOPERATIVA ELECTRICA Y OTROS SERVICIOS DE CDIA. LTDA. $$DEMANDADA$URQUIZA nº600(esquina 1ro de mayo%AGUIRRE César$Documento Nacional Identidad 26.173.295$ACTORA$Avenida Patria Nº 139%",5066,"jdocco0100con",2018-07-01,2018-08-01
"7064","GALARZA HOGAR S.A. C/ BASTO´S S.A.","ORDINARIO ESCRITURACION","6","09/10/2015","50",NA,"07/06/2018 ",2018-07-25,"10/10/2018",NA,"1","S","2","601","1","0","AGUIAR NANCY RAQUEL$$DEMANDADA$%BERNAY GUILLERMO CESAR$$TERCERO$%BASTO´S $$DEMANDADA$%MONTAÑANA GUSTAVO ALBERTO$16.217.125$ACTORA$Sta.Teresita 1277%",5562,"jdocco0100uru",2018-07-01,2018-08-01
"7753","LARRECHART JORGE ENRIQUE C/ MARNINI MARIO CRISTIAN","DESALOJO","4","16/08/2017","45",NA,"12/06/2018 ",2018-07-03,NA,NA,"1","S","2","601","0","0","MARNINI MARIO CRISTIAN$$DEMANDADA$%ZAVALLO RAUL ANIBAL$$ACTORA$%",5562,"jdocco0100uru",2018-07-01,2018-08-01
"7823","ALALUF ANDREA CAROLINA C/ TELECOM PERSONAL S.A.","ORDINARIO DAÑOS Y PERJUICIOS","3","26/09/2017","90",NA,"15/06/2018 ",2018-07-24,"03/10/2018",NA,"1","S","2","601","1","0","TELECOM ARGENTINA $$DEMANDADA$RUTA N°24%ALALUF ANDREA CAROLINA$$ACTORA$%",5562,"jdocco0100uru",2018-07-01,2018-08-01
"7485","HENDERSON LUCAS MAXIMILIANO Y OTROS C/ GEORGE JUAN MANUEL","ORDINARIO DAÑOS Y PERJUICIOS","3","27/12/2016","45",NA,"27/06/2018 ",2018-07-06,NA,NA,"1","S","2","601","0","0","GEORGE JUAN MANUEL$$DEMANDADA$%HENDERSON LUCAS MAXIMILIANO $29.172.999$ACTORA$%",5562,"jdocco0100uru",2018-07-01,2018-08-01
"19611","ALARCON MARIA ANGELICA C/ MIAVASA S.A. Y OTRO","INTERDICTOS (CIVIL)","4","03/08/2017","83",NA,"07/03/2018 ",2018-07-04,NA,NA,"1","T","2","354",NA,"0","SMG Compañía Argentina de Seguros SA $$CITADA EN GARANTIA$Av. Corrientes nº 1865 PB%ALARCON María Angélica$4.709.511$ACTORA$calle 1080 nº 3349%MUNICIPALIDAD DE PARANA $$TERCERO$CORIENTES Y URQUIZA%ABOGADOS EXTRAS $$APODERADO$%MIAVASA SA $$DEMANDADA$Osvaldo Cruz nº 2500%",5580,"jdocco0700pna",2018-07-01,2018-08-01
"19544","ASOCIACIÓN DE DEFENSA DE CONSUMIDORES ENTRERRIANOS C/ ASOCIACIÓN MUTUAL DEL PERSONAL JERARQUICO DE BANCOS OFICIALES NACIONALES","SUMARISIMO (CIVIL)","2","09/06/2017","55","1","23/05/2018 ",2018-07-03,NA,NA,"1","S","2","354",NA,"0","RUDI Jorge Omar$$PERITO CONTADOR$VILLAGUAY Nº 1156%PARKINSON AURELIANO$$MEDIADOR$MORENO Nº 109%ASOCIACION MUTUAL DEL PERSONAL JERARQUICO DE BANCOS OFICIAL $$DEMANDADA$FRANCISCO ZUVIRIA Nº 4584%ASOCIACION DE DEFENSA DE CONSUMIDORES ENTRERRIANOS (ADECEN) $30-71324730-4$ACTORA$Francisco de Miranda Nº 740%",5580,"jdocco0700pna",2018-07-01,2018-08-01
"19775","FERNANDEZ EDGARDO ELOY C/ GODOY HERNAN JESUS Y OTRA","ORDINARIO ACCIDENTES DE TRANSITO","5","21/11/2017","45",NA,"14/06/2018 ",2018-08-07,"07/08/2018",NA,"1","S","2","354","0","0","LA SEGUNDA COOPERATIVA LIMITADA DE SEGUROS GENERALES $$CITADA EN GARANTIA$Brigadier Juan Manuel de Rosas nº 957%GODOY Hernán Jesús$32.831.155$DEMANDADA$Villa Seguí nº 1037%MUÑOZ Claudia María$$MEDIADOR$calle CÓRDOBA Nº 379 PISO 2 OFICINA 7%FERNANDEZ Edgardo Eloy$36.703.727$ACTORA$Margazin nº 747%",5580,"jdocco0700pna",2018-07-01,2018-08-01
"8165","GIOVANARDI DE GRAZIANO, Marta Graciela C/ WARNER, Vanina y Otro","ORDINARIO","6","15/02/2018","190",NA,"24/05/2018 ",2018-08-09,"09/08/2018","18/10/2018","1","P","2","787","1","0","SIMONETTI Georgina$$MEDIADOR$RIVADAVIA Nº 631%GIOVANARDI DE GRAZIANO Marta Graciela$Documento Nacional Identidad 6.509.495$ACTORA$Saavedra Nº 64%WARNER Vanina$$DEMANDADA$Pascual Echagüe Nº 1388%LÓPEZ Alcides Marcelo$$DEMANDADA$Gerardo Yoya Nº 479%",6045,"jdocco0200con",2018-08-01,2018-09-01
"8099","GIOVANARDI de GRAZIANO, Marta Graciela C/ WARNER, Vanina y LOPEZ, Alcides Marcelo","DESALOJO","6","08/11/2017","17",NA,"11/06/2018 ",2018-08-09,"09/08/2018","18/10/2018","1","S","2","787","1","0","LOPEZ Alcides Marcelo$$DEMANDADA$Gerardo Yoya Nº 479%WARNER Vanina$$DEMANDADA$P. Echague 1388%GIOVANARDI DE GRAZIANO Marta Graciela$Documento Nacional Identidad 6.509.495$ACTORA$Saavedra Nº 64%",6045,"jdocco0200con",2018-08-01,2018-09-01
"7613","CASTAGNANI, Germán Horacio C/ SUPERIOR GOBIERNO DE LA PROVINCIA DE ENTRE RIOS","USUCAPION","3","23/08/2016","45",NA,"22/05/2018 ",2018-08-21,"21/08/2018","25/10/2018","1","S","2","787","1","0","MUNICIPALIDAD DE LA CRIOLLA $$CITADO$LA CRIOLLA%SUPERIOR GOBIERNO DE LAPROVINCIA DE ENTRE RIOS $$DEMANDADA$CORDOBA Y FERNANDEZ DE LA PUENTE%CASTAGNANI Germán Horacio$Documento Nacional Identidad 22.660.152$ACTORA$Calle Pública y Boulevard Yuquerí S/Nº%",6045,"jdocco0200con",2018-08-01,2018-09-01
"29528","TABORDA CESAR OSCAR C/ SUCESORES Y/O HEREDEROS DE TABORDA MARIO","USUCAPION","2","04/10/2017","30","1","06/07/2018 ",2018-08-23,"23/08/2018","30/10/2018","1","S","2","620","1","0","FISCALIA DE ESTADO DE LA PROVINCIA DE ENTRE RIOS $$FISCAL DE ESTADO$Córdoba y México%TABORDA CESAR OSCAR$12.590.696$ACTORA$PTE. JUAN DOMINGO PERON Nº338%SUCESORES DE MARIO TABORDA $$DEMANDADA$%",6036,"jdocco0500pna",2018-08-01,2018-09-01
"29644","BONA AURELIO EDUARDO Y OTRA C/ SWISS MEDICAL S.A. Y OTRO","SUMARISIMO (CIVIL)","0","28/12/2017","68","1","01/08/2018 ",2018-08-29,"29/08/2018","27/11/2018","1","S","2","620","1","0","BONA AURELIO EDUARDO$8.356.086$ACTORA$SANTA FE Nº450 PISO 11º DEPTO \"D\"%THEVENIN DE BONA LAURA TERESITA$12.756.352$ACTORA$SANTA FE Nº450 PISO 11º DEPTO. \"D\"%SWISS MEDICAL S.A. $$DEMANDADA$SAN MARTIN Nº 323 12º PISO%OBRA SOCIAL DEL PERSONAL DE DIRECCION ALFREDO FORTABAT $$DEMANDADA$CALLE CECILIA GRIERSON 355, DIQUE IV%",6036,"jdocco0500pna",2018-08-01,2018-09-01
"29032","BERTOS NATALIA IVANA C/ GOMEZ CELIO HECTOR Y OTRA","ORDINARIO DAÑOS Y PERJUICIOS","6","31/08/2016","90","1","28/06/2018 ",2018-08-16,NA,NA,"1","T","2","620","1","0","ABOGADOS EXTRA $$DEMANDADA$%FERREYRA DE GOMEZ MARIA CRISTINA$16.787.096$DEMANDADA$CALESTINO MARCO Nº 1432%SIMONELLI ANDREA KARINA$$MEDIADOR$%BERTOS NATALIA IVANA$28.257.747$ACTORA$LOS CIRUELOS Nº 111%GOMEZ CELIO HECTOR$Documento Nacional Identidad 05.940.501$DEMANDADA$Celestino Marcó Nº 1432%",6036,"jdocco0500pna",2018-08-01,2018-09-01
"13053","LOZA MATIAS JAVIER Y OTRO C/ ROJAS CLAUDIA ANDREA","DESALOJO","5","09/10/2017","00:25:00","2","26/06/2018 ",2018-08-29,NA,NA,"1","S","2","1083","1","0","LOZA DAMIAN ALBERTO$Documento Nacional Identidad 27.606.922$ACTORA$Belgrano 365%ROJAS CLAUDIA ANDREA$Documento Nacional Identidad 27.606.848$DEMANDADA$Feliciano y San Martín%LOZA MATIAS JAVIER$Documento Nacional Identidad 29.233.930$ACTORA$Belgrano 365%",6031,"jdocco0000dia",2018-08-01,2018-09-01
"12665","HEFFLING ROBERTO FABIAN Y OTRA C/ MULLER JUAN, SUS HEREDEROS Y/O SUCESORES","USUCAPION","4","14/12/2016","01:00:00","1","13/06/2018 ",2018-08-01,"01/08/2018","10/10/2018","1","S","2","1083","0","0","MULLER ELIO SANTIAGO$Documento Nacional Identidad 12.263.756$DEMANDADA$%DEFENSOR DE AUSENTES $$DEMANDADA$%MULLER HORACIO OSCAR$Documento Nacional Identidad 12.263.634$DEMANDADA$%MULLER BENITO HUMBERTO$Documento Nacional Identidad 7.886.958$DEMANDADA$Colon 895%MÜLLER JUAN$Libreta Enrolamiento 2.056.679$DEMANDADA$Colon 895%HEFFLING ROBERTO FABIAN$Documento Nacional Identidad 17.423.123$ACTORA$Güemes 557%JUNKER NORMA ALICIA$Documento Nacional Identidad 22.327.610$ACTORA$Güemes 557%",6031,"jdocco0000dia",2018-08-01,2018-09-01
"10893","DAVID ALICIA CRISTINA Y ZAPATA HECTOR RAMON C/ DAVID SANTIAGO","USUCAPION","5","06/03/2014","00:50:00","1","21/05/2018 ",2018-08-08,"08/08/2018","14/11/2018","1","S","2","1083","1","0","MUNICIPALIDAD DE DIAMANTE $$TERCERO$Eva Perón y Echagüe%DEFENSOR DE AUSENTES $$DEFENSOR DE AUSENTE$%DAVID SANTIAGO$$DEMANDADA$%ZAPATA HECTOR RAMON$10.572.751$ACTORA$San Lorenzo 891%DAVID ALICIA CRISTINA$12.064.549$ACTORA$San Lorenzo 891%",6031,"jdocco0000dia",2018-08-01,2018-09-01
"12134","BEJARANO IRMA FELIPA C/ SAFENRAITER MELANIA","ORDINARIO","6","30/12/2015","01:40:00","2","11/05/2018 ",2018-08-08,"08/08/2018","07/11/2018","1","S","2","1083","1","0","ABOGADOS EXTRAS $$ACTORA$%BRUMATTI HERNAN DARIO$Documento Nacional Identidad 30.390.912$DEMANDADA$Tratado del Pilar 727%SAFENRAITER MELANIA$Documento Nacional Identidad 29.908.530$DEMANDADA$Tratado del Pilar 727%BEJARANO IRMA FELIPA$Documento Nacional Identidad 5.890.221$ACTORA$Tratado del Pilar 725%",6031,"jdocco0000dia",2018-08-01,2018-09-01
"12055","BANCO PATAGONIA S.A. C/ BALBI MIRTA CATALINA","ORDINARIO","3","10/12/2015","01:20:00","2","04/07/2018 ",2018-08-15,NA,NA,"1","P","2","1083","1","0","BALBI MIRTA CATALINA$Documento Nacional Identidad 4.684.780$DEMANDADA$Moreno 442%BANCO PATAGONIA S.A. $$ACTORA$Tte. General J. D. Perón Nº 500%",6031,"jdocco0000dia",2018-08-01,2018-09-01
"12601","ARNOL de UNREIN CATALINA ESTER Y OTRA","USUCAPION","6","27/10/2016","01:00:00","2","02/07/2018 ",2018-08-16,"16/08/2018","28/11/2018","1","S","2","1083","1","0","DEFENSOR DE AUSENTES $$DEMANDADA$%PROVINCIA DE ENTRE RIOS $$TERCERO$25 de Mayo 177%MUNICIPALIDAD DE VILLA VALLE MARIA $$TERCERO$1° de Mayo y Urquiza%FISCAL DE ESTADO $$TERCERO$Casa de gobierno%ARNOL de UNREIN CATALINA ESTER$Documento Nacional Identidad 14.634.713$ACTORA$Peter Gassmann s/n%ARNOL MARÍA SUSANA$Documento Nacional Identidad 12.431.784$ACTORA$Av. San Martín y Colón -Strobel%",6031,"jdocco0000dia",2018-08-01,2018-09-01
"413/","SCHULZ RODOLFO ENRIQUE C/ DEL DO AMERICO MARTIN",NA,"@900","07/06/2016","90","1","01/08/2018",2018-08-01,"/  /","/  /","1","S","2","3701","C","0",NA,7122,"jdocco0000vpa",2018-08-01,2018-09-01
"18314","GODOY SUSANA C/ REGALI HUGO HERNAN y OTROS","ORDINARIO COBRO DE PESOS","7","26/07/2017",NA,NA,"06/07/2018 ",2018-08-17,NA,NA,"1","S","2","3392",NA,NA,"TORREALDAY CARLOS GUILLERMO$$MEDIADOR$SANTA FE Nº 174%REGALI HUGO HERNAN$32.509.468$DEMANDADA$%LEAL DEBORA SAMANTA$$DEMANDADA$MANDISOVI Nº 176%BUSSON JORGE HECTOR LUIS$Documento Nacional Identidad$DEMANDADA$25 DE MAYO Nº 568%GODOY SUSANA$13.069.056$ACTORA$VICENTE DEL CASTILLO 91%",6802,"jdocco0200pna",2018-08-01,2018-09-01
"18261","MONZON, Alicia Raquel C/ TITO, Alfredo Rodolfo y Otros","ORDINARIO (FAMILIA)","7","16/05/2017","47","1","13/06/2018 ",2018-08-15,"15/08/2018","01/11/2018","1","S","2","380","1","0","MONZON Alicia Raquel$14998696$ACTORA$J.J. VALLE nº 810%TITO Alfredo Rodolfo$5.801.523$DEMANDADA$San Luis Nº 874%URUNDE Paula Adelaida$13.703.460$DEMANDADA$Independencia Nº 25%TITO Jorge Ramón$35.057.747$DEMANDADA$Independencia nº 25%TITO Marcelo Fabian$$DEMANDADA$San Luis nº 874%TITO Daniel Alfredo$$DEMANDADA$San Luis Nº 874%",6442,"jdocco0000frl",2018-08-01,2018-09-01
"9573","RODA, AGUSTIN FERNANDO C/ RÍO URUGUAY COOPERATIVA DE SEGUROS LIMITADA y Otra","ORDINARIO DAÑOS Y PERJUICIOS","4","21/12/2017","30","1","01/06/2018 ",2018-08-02,"02/08/2018",NA,"1","S","2","1438","0",NA,"PEREZ MANUEL RAUL$$PERITO$Pellegrini Nº 577 7º AB%ARAGON MARIA SOLEDAD$Documento Nacional Identidad 23.143.530$DEMANDADA$ROQUE S. PEÑA Nº 139%RIO URUGUAY COOPERATIVA DE SEGUROS LTDA. $$DEMANDADA$CONGRESO DE TUCUMAN Nº 21%RODA AGUSTIN FERNANDO$Documento Nacional Identidad 40.692.804$ACTOR CIVIL$GREGORIA PÉREZ N º 269%",6322,"jdocco0400con",2018-08-01,2018-09-01
"19399","PAULINI OMAR JOSE C/ LONG AUTOMOTORES S.A.","SUMARISIMO COBRO DE PESOS","2","26/04/2018","76","1","27/06/2018 ",2018-08-21,"21/08/2018","23/10/2018","1","S","2","785","1","0","PAULINI OMAR JOSE$Libreta Cívica 7.622.619$ACTORA$Ruta 12 Km 19 de Sauce Montrul, Dpto. Paraná%LONG AUTOMOTORES S.A. $$DEMANDADA$Av. Int. O. Zobboli nº 128%ABOGADOS EXTRAS $$DEMANDADA$%",6722,"jdocco0800pna",2018-08-01,2018-09-01
"19397","GRANADA VANESA GISELA C/ SCHONFELD ALCIDES DANIEL Y SCHONFELD NORBERTO SANTIAGO","ORDINARIO ACCIDENTES DE TRANSITO","7","26/04/2018","34","1","21/06/2018 ",2018-08-07,"07/08/2018",NA,"1","S","2","785","0","0","SCHONFELD ALCIDES DANIEL$Documento Nacional Identidad 24.592.858$DEMANDADA$FRIULI 1109%SCHONFELD NORBERTO SANTIAGO$Documento Nacional Identidad 22.737.922$DEMANDADA$FRIULI 1109%SANCOR COOPERATIVA DE SEGUROS LIMITADA $$CITADA EN GARANTIA$Cura Álvarez Nº 594%GRANADA VANESA GISELA$Documento Nacional Identidad 30.322.248$ACTORA$calle 1094%",6722,"jdocco0800pna",2018-08-01,2018-09-01
"19288","BALLA VIVIANA SOLEDAD Y OTRO C/ GIL NICOLAS GONZALO Y OTROS","ORDINARIO ACCIDENTES DE TRANSITO","7","07/02/2018","51","1","04/06/2018 ",2018-08-09,NA,NA,"1","T","2","785","1","0","BALLA VIVIANA SOLEDAD$Documento Nacional Identidad 27.833.450$ACTORA$CELESTINO MARCO Nº1439%ROCHA LEONARDO CARLOS ALBERTO$Documento Nacional Identidad 30.187.221$ACTORA$CELESTINO MARCÓ Nº1439%GIL NICOLAS GONZALO$Documento Nacional Identidad 31.636.430$DEMANDADA$GORRITI Nº988%LIDERAR COMPAÑÍA GENERAL DE SEGUROS S.A. $Identificación tributaria 30-50005949-0$CITADA EN GARANTIA$RECONQUISTA 585 PISO 2%GIL JUAN CARLOS$12.134.562$DEMANDADA$GORRITTI 988%HURIE NOEMI MERCEDES$Documento Nacional Identidad 10.2329.567$DEMANDADA$GORRITI Nº988%",6722,"jdocco0800pna",2018-08-01,2018-09-01
"34089","RODIMAR S.A. C/ ARA CESAR AUGUSTO Y OTRA","ORDINARIO DAÑOS Y PERJUICIOS","6","01/02/2018","60",NA,"19/06/2018 ",2018-08-21,NA,NA,"1","S","2","821",NA,NA,"SCHOJ HECTOR RAUL$10.069$PRESIDENTE DIRECTORIO$BAVIO 224%RODIMAR  SA $$ACTORA$25 DE JUNIO 472%DE BUENO ABEL ALBERTO$$MEDIADOR$MEXICO 466%ARA CESAR AUGUSTO$$DEMANDADA$SAN MARTIN 1253%ALVES PINHEIRO CANDIDA  AMELIA$$DEMANDADA$CORRIENTES 579%",6721,"jdocco0300pna",2018-08-01,2018-09-01
"34087","SAN CRISTOBAL SOCIEDAD MUTUAL DE SEGUROS GENERALES C/ SANCHEZ RAMON LEONARDO","ORDINARIO ACCION DE CONSIGNACION","3","01/02/2018","20",NA,"14/08/2018 ",2018-08-27,NA,NA,"1","S","2","821",NA,NA,"SANCHEZ RAMON  LEONARDO$21.735.123$DEMANDADA$VIRGEN DE  ITATI Nº 1978%PRATO ALEJANDRO$$MEDIADOR$SANTA FE Nº 165 - PLANTA ALTA DPTO 1%SAN CRISTOBAL SOCIEDAD MUTUAL SEGUROS GENERALES $$ACTORA$RIVADAVIA 3052%FERREYRA HUGO ANIBAL$$TESTIGO$GALAN  Nº 1332%",6721,"jdocco0300pna",2018-08-01,2018-09-01
"5651","SISTEMA DE CREDITO DE LA PROVINCIA DE ENTRE RIOS S.A.(SI.DE.CRE.ER. S.A.) C/ GUIBAUDO, Jorge Arnoldo","ORDINARIO COBRO DE PESOS","3","21/10/2015","30",NA,"25/07/2018 ",2018-08-22,"22/08/2018","14/11/2018","1","S","2","1148","C","0","SISTEMA DE CREDITO DE ENTRE RIOS S.A. (SI.DE.CRE.ER.) $$ACTORA$SAN MARTIN Nº 956 - 3º PISO%GUIBAUDO Jorge Arnoldo$Documento Nacional Identidad 14.711.460$DEMANDADA$SAN  LUIS Nº 34%AUDISIO Diego L.$$MEDIADOR$%",6252,"jdocco0300con",2018-08-01,2018-09-01
"13339/17","CULZONI, Gabriel Alberto C/ Municipalidad de Chajari","ORDINARIO DAÃOS Y PERJUICIOS","4","29/11/2017","85","1","08/06/2018 ",2018-08-14,"14/08/2018","13/11/2018","1","S","2","2117","1","0","MUNICIPALIDAD DE CHAJARI $$DEMANDADA$Salvarredy NÂº 1430%CULZONI Gabriel Alberto$$ACTORA$9 de julio 3573%",7119,"jdocco0100cha",2018-08-01,2018-09-01
"33627","ESTADO DE LA PROVINCIA DE ENTRE RIOS C/ OCAMPO OMAR","ORDINARIO DAÑOS Y PERJUICIOS","2","07/02/2017","20",NA,"04/07/2018 ",2018-08-28,NA,NA,"1","S","2","821",NA,NA,"ESTADO PROVINCIAL $$ACTORA$MEJICO Y CORDOBA%OCAMPO OMAR$12.474.359$DEMANDADA$20 DE FEBRERO Nº 270%LORENZINI ESTELA DIANA$$DEFENSOR DE AUSENTE$%",6721,"jdocco0300pna",2018-08-01,2018-09-01
"19944","URAN BRUNO MAURICIO C/ LONDRA TITO ALCIDES Y OTRA","ORDINARIO ACCIDENTES DE TRANSITO","4","12/04/2018","50","1","19/06/2018 ",2018-08-16,"16/08/2018",NA,"1","S","2","354","0","0","URAN Bruno Mauricio$28.676.487$ACTORA$GENERAL GALAN Nº 1574%PIOCAMPO MARIA FABIANA$$MEDIADOR$PARAGUAY 351%QBE SEGUROS LA BUENOS AIRES SA $$DEMANDADA$AVENIDA DEL LIBERTADOR Nº 6350 PISO 11%LONDRA Tito Alcides$16.160.949$DEMANDADA$GABRIELA MISTRAL Nº 2469%URANGA JUSTO JOSE$Documento Nacional Identidad$PERITO$calle BUENOS AIRES Nº 227 DE PARANA%",6682,"jdocco0700pna",2018-08-01,2018-09-01
"11171","VOLKER EDGARDO ROGELIO C/ SPIAZZI ISIDORO ENRIQUE Y OTROS","USUCAPION","2","15/11/2017","30","1","12/06/2018 ",2018-08-02,NA,NA,"1",NA,"2","60",NA,"0","VOLKER EDGARDO ROGELIO$Documento Nacional Identidad 5.883.281$ACTORA$% $$DEMANDADA$% $$DEMANDADA$% $$DEMANDADA$%",6277,"jdocco0200gch",2018-08-01,2018-09-01
"13343","GILIO EDUARDO VICENTE C/ HORNOS HUGO -DIVISION DE CONDOMINIO","INCIDENTE RENDICION DE CUENTAS","3","04/08/2017","45","1","12/06/2018 ",2018-08-01,NA,NA,"1","S","2","1311","0","0","HORNOS HUGO$$INCIDENTANTE$Av. Benavides 2671%GILIO EDUARDO VICENTE$DNI 4.592.173$INCIDENTADA$Bvard. Francou 1983-Dpto.2%",6279,"jdocco0200col",2018-08-01,2018-09-01
"13141","PINGET FABIAN EDUARDO C/ DIZ LUIS EDUARDO","ORDINARIO","2","21/02/2017","25","1","05/07/2018 ",2018-08-22,NA,NA,"1","S","2","1311","1","0","PINGET FABIAN EDUARDO$Documento Nacional Identidad 20.300.197$ACTORA$Ituzaingó Nº 1860%DIZ LUIS EDUARDO$Documento Nacional Identidad 14.598.499$DEMANDADA$%",6279,"jdocco0200col",2018-08-01,2018-09-01
"9535","COSTA, Fabiana Silvia Graciela y OTRO C/ BAEZ, Sebastián Gabriel y OTRA","ORDINARIO","6","02/11/2017","20","1","19/06/2018 ",2018-08-16,NA,NA,"1","S","2","1438",NA,NA,"BAEZ SEBASTIAN GABRIEL$Documento Nacional Identidad 29.885.489$DEMANDADA$SARGENTO CABRAL Nº 890%RIO URUGUAY COOPERATIVA DE SEGUROS LTDA. $$CITADA EN GARANTIA$CONGRESO DE TUCUMAN Nº 21%DIAZ VELEZ NATALIA CAROLINA$$MEDIADOR$%BURGUI SERGIO ALBERTO$Documento Nacional Identidad 25.065.234$ACTOR CIVIL$RIO IGUAZU Nº 384%COSTA FABIANA SILVIA GRACIELA$Documento Nacional Identidad 26.188.282$ACTOR CIVIL$RIO IGUAZU Nº 384%",6322,"jdocco0400con",2018-08-01,2018-09-01
"8590","MACIEL, PABLO GABRIEL C/ VILLALBA, OSCAR ALBERTO","ORDINARIO RESCISION DE CONTRATO","0","07/08/2014",NA,"1","15/06/2018 ",2018-08-10,NA,NA,"1","S","2","1438",NA,NA,"VILLALBA OSCAR ALBERTO$Documento Nacional Identidad 20.192.253$DEMANDADA$SAN LORENZO Nº 1045%MACIEL PABLO GABRIEL$Documento Nacional Identidad 29.678.595$ACTORA$P. DEL CASTILLO Nº 1347%",6322,"jdocco0400con",2018-08-01,2018-09-01
"9359","MATTIASSI, IRMA GRACIELA C/ ROJAS DE CHIAPPE, CARMEN CANDIDA Y/O CONTRA SUS SUCESORES Y/O HEREDEROS","ORDINARIO","3","22/03/2017","45","1","02/07/2018 ",2018-08-28,"28/08/2018","31/10/2018","1","S","2","1438","1",NA,"TRENTIN GISELA ARACELI$Documento Nacional Identidad 27.811.931$DEFENSOR DE AUSENTE$ROCAMORA Nº 504%ROJAS DE CHIAPPE CARMEN CÁNDIDA$Documento Nacional Identidad 5.028.833$DEMANDADA$%MATTIASSI IRMA GRACIELA$Documento Nacional Identidad 6.370.322$ACTOR CIVIL$STO. CABRAL Nº 540%",6322,"jdocco0400con",2018-08-01,2018-09-01
"18016","GONZALEZ, Juan Eduardo y Otra C/ GODOY, Franco José y Otros","ORDINARIO DAÑOS Y PERJUICIOS","7","02/02/2017","85","0","02/07/2018 ",2018-08-23,"23/08/2018","08/11/2018","1","S","2","319","1","0","GODOY José María$17.118.828$DEMANDADA$Hipólito Irigoyen Nº 927%GONZALEZ Juan Eduardo$Documento Nacional Identidad 8.584.938$ACTORA$cortada Las Chilcas Nº 576%RIVAROLA Olga Yolanda$Documento Nacional Identidad 6.198.241$ACTORA$cortada Las Chilcas Nº 576%GODOY Franco José$Documento Nacional Identidad 42.406.733$DEMANDADA$Hipólito Irigoyen Nº 925%FLEITAS Lorena Beatriz$25.642.719$DEMANDADA$H. Irigoyen nº 927%Estado Provincial $$DEMANDADA$Casa de Gobierno%",6442,"jdocco0000frl",2018-08-01,2018-09-01
"18663","RUIZ, María Patricia C/ GOYHENEX, María Rosa","ORDINARIO","2","28/02/2018","26","1","30/07/2018 ",2018-08-09,NA,NA,"1","T","2","319","0","0","RUIZ María Patricia$Documento Nacional Identidad 25.642.896$ACTORA$Sabá Z. Hernández Nº 101%GOYHENEX María Rosa$Documento Nacional Identidad 10.281.764$DEMANDADA$Dónovan Nº 620%",6442,"jdocco0000frl",2018-08-01,2018-09-01
"17427","BRION DE MULLER NILSA G. Y OTROS C/ FRANCO JOSE G.","ORDINARIO (CIVIL)","4","27/07/2017","40","1","03/07/2018 ",2018-08-02,NA,NA,"1","S","2","520","0","0","MUNILLA CARLA DANIELA$$MEDIADOR$%FRANCO JOSE GABRIEL$20.554.989$DEMANDADA$%BRION DE MULLER NILSA GLADYS$Documento Nacional Identidad 03.779.964$ACTORA$%MULLER NILDA ARMINDA$Documento Nacional Identidad 14.160.526$ACTORA$%MULLER ROBERTO DANIEL$Documento Nacional Identidad 14.718.650$ACTORA$%",6561,"jdocco0100pna",2018-08-01,2018-09-01
"17714","GARCIA HECTOR E. C/ NORO HORACIO J.","ORDINARIO","4","15/03/2018","60","1","05/07/2018 ",2018-08-29,"29/08/2018",NA,"1","S","2","520","1","0","GARCIA HECTOR EDUARDO$20.288.489$ACTORA$%NORO HORACIO JOSE$12.313.830$DEMANDADA$%ZAPATA LIBERT PABLO ENRIQUE$$MEDIADOR$%QBE SEGUROS LA BUENOS AIRES SOCIEDAD ANONIMA $$CITADA EN GARANTIA$%",6561,"jdocco0100pna",2018-08-01,2018-09-01
"17191","MARTINEZ TRANCITA D. C/ BIANCHINI JOSE I. Y OTRA","ORDINARIO (CIVIL)","0","23/02/2016","60","1","28/05/2018 ",2018-08-01,NA,NA,"1","S","2","520","0","0","INSTITUTO AUTARQUICO PROVINCIAL DEL SEGURO DE ENTRE RIOS $$CITADA EN GARANTIA$%BIANCHINI JOSE IGNACIO$35.706.541$DEMANDADA$%MARTINEZ TRANCITA DOLORES$12.320.066$ACTORA$%PARKINSON AURELIANO$$MEDIADOR$%SAN CRISTOBAL SOCIEDAD MUTUAL DE SEGUROS GENERALES $$CITADA EN GARANTIA$%MUNICIPALIDAD  DE PARANA $$CITADA EN GARANTIA$URQUIZA y CORRIENTES 1º PISO%ABOGADOS EXTRAS $$CITADA EN GARANTIA$%",6561,"jdocco0100pna",2018-08-01,2018-09-01
"8341","BELTACO OLGA ESTER C/ ALMARA BELTACO FEDERICO MAXIMILIANO Y OTROS","DESALOJO","3","29/07/2016","30","1","21/08/2018 ",2018-08-31,"31/08/2018",NA,"1","P","2","1798","1","0","KRETZER ALFONSO$$DEMANDADA$SAN LORENZO 726%KRETZER FRANCISCO$$DEMANDADA$SAN LORENZO 726%GONZALEZ ARACELIS$$DEMANDADA$SAN LORENZO 726%MERNES MARTA MIRIAM$$DEMANDADA$SAN LORENZO 726%ALMARA BELTACO Federico Maximiliano$Documento Nacional Identidad 39.718.465$DEMANDADA$SAN LORENZO 726 -NOGOYA-%BELTACO OLGA ESTER$5.693.722$ACTORA$San Martin Nº 1150%",6681,"jdocco0100nog",2018-08-01,2018-09-01
"8731","CASCO VÍCTOR MANUEL","USUCAPION","3","30/06/2017","60","1","06/06/2018 ",2018-08-01,"01/08/2018",NA,"1","S","2","1798","1","0","MUNICIPALIDAD DE NOGOYA $Identificación tributaria 30-99900575-2$DEMANDADA$CASEROS Nº 965%SUPERIOR GOBIERNO DE LA PCIA. ENTRE RIOS $$DEMANDADA$G. Fernandez de la Puente Nº 220, Paraná%BUIATTI GONZALO ANTONIO$$DEFENSOR DE AUSENTE$ALEM 946%CASCO Victor Manuel$11.946.039$ACTORA$%",6681,"jdocco0100nog",2018-08-01,2018-09-01
"8284","LUNA LETICIA DEL CARMEN Y OTRO C/ ESCUDERO WALTER JOSE MANUEL Y OTRO","ORDINARIO DAÑOS Y PERJUICIOS","6","18/05/2016","65","1","06/06/2018 ",2018-08-08,"08/08/2018","23/10/2018","1","S","2","1798","0","0","LA SEGUNDA COOP.LTDA.DE SEGUROS GENERALES $$CITADA EN GARANTIA$JUAN MANUEL DE ROSAS Nº 957%GALIZZI ANDRES MARTIN$$MEDIADOR$COLON 448, MODULO 1, PISO 1, DPTO 2 -PARANA-%ESCUDERO WALTER JOSE MANUEL$Documento Nacional Identidad$DEMANDADA$Hipólito Yrigoyen Nº 678 - Nogoyá%LOZADA HORACIO MIGUEL$Documento Nacional Identidad 18.511.986$ACTORA$Federal Nº 750 - Nogoyá%LUNA LETICIA DEL CARMEN$Documento Nacional Identidad 21.878.618$ACTORA$Federal Nº 750 - Nogoyáç%",6681,"jdocco0100nog",2018-08-01,2018-09-01
"7658","PEREYRA BRENDA PRISCILA Y OTRO C/ GONZALEZ FERNANDEZ EMILIO CEFERINO Y OTROS","ORDINARIO DAÑOS Y PERJUICIOS","3","30/12/2014","120","1","02/07/2018 ",2018-08-17,"17/08/2018","30/10/2018","1","S","2","1798","1","0","LEIVA HECTOR ALEJO DANIEL$$PERITO INGENIERO$EJERCITO ARGENTINO 1415 -PARANA-%GALIZZI DANIEL ALEJANDRO$$MEDIADOR$Belgrano 538 - Nogoyá%COOPERACIÓN MUTUAL PATRONAL S.M.S.G. $Identificación tributaria$DEMANDADA$25 de Mayo Nº 530 - Venado Tuerto - Santa Fe%TAPON Alejandrina Maricel$$DEMANDADA$La Valle Nº 1550 - Vera - Pcia de Santa Fe%GONZALEZ FERNANDEZ Emilio Ceferino$Documento Nacional Identidad 13.779.865$DEMANDADA$Lavalle Nº 1550 - Vera - Pcia. de Santa Fe%FIGUEROA Carlos Xavier$34.471.998$ACTORA$Calle Pública - Barrio 27 Viviendas - Casa Nº 16%PEREYRA BRENDA PRISCILA$Documento Nacional Identidad 37.567.504$ACTORA$Calle Pública - Barrio 27 Viviendas - Casa Nº 16%",6681,"jdocco0100nog",2018-08-01,2018-09-01
"8984","WEBER BRIAN JOSÉ C/ LEGUIZAMÓN ARNAU ROMINA ELIZABETH Y OTROS","ORDINARIO DAÑOS Y PERJUICIOS","3","13/03/2018","60","1","15/06/2018 ",2018-08-22,"22/08/2018","08/11/2018","1","S","2","1798","1","0","NELLI RODOLFO ANDRES$$DEMANDADA$ALEM  Nº 1126%HUNDT MARINA SOLEDAD$Documento Nacional Identidad$MEDIADOR$MAIPÚ Nº 1159 - NOGOYÁ%MAPFRE ARGENTINA SEGUROS S.A. $$CITADA EN GARANTIA$Alferéz Hipólito Bouchard 4191%LEGUIZAMÓN ARNAU ROMINA ELIZABETH$$DEMANDADA$Bº 130 VIVIENDAS MANZANA Nº 6 CASA Nº 83%WEBER BRIAN JOSE$Documento Nacional Identidad 38.261.944$ACTORA$9 DE JULIO 1436%",6681,"jdocco0100nog",2018-08-01,2018-09-01
"19463","LENHARDT ELVA C/ MUNICIPALIDAD DE PARANA  Y OTRA","ORDINARIO DAÑOS Y PERJUICIOS","6","07/04/2017","90",NA,"21/06/2018 ",2018-08-14,"14/08/2018",NA,"1","S","2","354","0","0","D`AGOSTINO Jorge José César$$PERITO INGENIERO$Catamarca nº 319%PESUTO IVAN ALEJANDRO$$MEDIADOR$ALAMEDA DE LA FEDERACIÓN Nº156 - 2º PISO - DPTO. D%LUIS LOSI SA $Identificación tributaria 30-69050479-7$DEMANDADA$Avda. de las Américas Nº 2604%LENHARDT Elva$18.820.468$ACTORA$Avda. Almafuerte Nº 3833%ABOGADOS EXTRAS$$DEMANDADA$%BERKLEY INTERNATIONAL SEGUROS SA $$CITADA EN GARANTIA$CALLE MITRE Nº 699%MUNICIPALIDAD DE PARANA $$DEMANDADA$Corrientes y Urquiza%ABOGADOS EXTRAS $$DEMANDADA$%",6682,"jdocco0700pna",2018-08-01,2018-09-01
"16997","MORCILLO JOSE MARIA FRANCISCO C/ ETCHEVEHERE JUAN DIEGO Y OTROS","ORDINARIO DAÑOS Y PERJUICIOS","6","30/10/2012","125",NA,"02/08/2018 ",2018-08-30,"30/08/2018","23/10/2018","1","S","2","354","1","0","ETCHEVEHERE LUIS FÉLIX$5.917.628$DEMANDADO FALLECIDO$%ETCHEVEHERE Juan Diego$24.264.829$HEREDERO DEMANDADO$LOS VASCOS Nº 845%ETCHEVEHERE Arturo Sebastián$17.615.912$HEREDERO DEMANDADO$LOS VASCOS Nº 883%ETCHEVEHERE Dolores$$HEREDERO DEMANDADO$PANAMERICANA RAMAL PILAR KM. 38,5, COUNTRY TORTUGAS, LOTE 182%BARBERO MARCIAL Leonor María Magdalena$4.531.465$HEREDERO DEMANDADO$LOS VASCOS Nº 811%MORCILLO José María Francisco$11.946.972$ACTORA$RUTA PROVINCIAL Nº 1 KM. 1 y 1/2%ETCHEVEHERE Luis Miguel$14.718.347$HEREDERO DEMANDADO$LOS VASCOS Nº 861%LAS MARGARITAS SA $30-51306621-6$DEMANDADA$URQUIZA Nº 814%ABOGADOS EXTRA $$DEMANDADA$%",6682,"jdocco0700pna",2018-08-01,2018-09-01
"19413","PARQUE RESIDENCIAL VILLA ADELINA S.R.L. C/ SCHONFELD FABIAN OSCAR","ORDINARIO ACCION REIVINDICATORIA","3","24/02/2017","155",NA,"19/12/2017 ",2018-08-02,"02/08/2018",NA,"1","S","2","354","0","0","PARQUE RESIDENCIAL VILLA ADELINA SRL $$ACTORA$España Nº 437%ABOGADOS EXTRAS$$ACTORA$%PARKINSON AURELIANO$$MEDIADOR$MORENO Nº 109%SCHONFELD Fabián Oscar$18.502.543$DEMANDADA$Alfredo Palacios Nº 456%JUAREZ SENICEN Facundo Martín$$PERITO CALIGRAFO$MISIONES Nº 184%",6682,"jdocco0700pna",2018-08-01,2018-09-01
"7882","WILLIMAN, Martín y Otra C/ OBARRIO, Hernán Eugenio y Otros","ORDINARIO","7","03/05/2017","70",NA,"22/05/2018 ",2018-08-14,"14/08/2018","23/10/2018","1","S","2","787","1","0","OBARRIO Hernán Eugenio$Documento Nacional Identidad 8.252.306$DEMANDADA$Alsina Nº 447, Dpto. 417%MENDIZABAL Jorge Pablo Francisco$Libreta Enrolamiento 4.299.800$DEMANDADA$Elortondo Nº 1.515%LOMBARDO Fernando$Documento Nacional Identidad 22.885.153$DEMANDADA$Murguiondo Nº 287%GALOTTO Pablo Daniel$Documento Nacional Identidad 10.949.775$DEMANDADA$Andrade Nº 481%LISTA Maria Beatriz$Documento Nacional Identidad 6.035.501$ACTORA$pellegrini 599%WILLIMAN Martín$Documento Nacional Identidad 8.419.194$ACTORA$Pellegrini N° 1.322%",6045,"jdocco0200con",2018-08-01,2018-09-01
"12209","CASTILLO, Maria Isabel y otro C/ ORGE, Juan Pablo y otro","ORDINARIO DAÑOS Y PERJUICIOS","8","04/09/2017","40","1","29/06/2018 ",2018-08-14,"14/08/2018","24/10/2018","1","S","2","2028","1","0","LA CAJA SEGUROS S.A. $$CITADA EN GARANTIA$Gualeguaychú Nº 456%CETTOUR Pablo Ismael$22.660.921$ACTORA$Colón 1485- Casa 13%CASTILLO María Isabel$Documento Nacional Identidad 24.467.192$ACTORA$Colón Nº 1485%ORGE Juan Pablo$21425413$DEMANDADA$Batalla de Cepeda Nº 279%PASARELLA Andrea Elizabeth$23864033$DEMANDADA$Batalla de Cepeda Nº 279%",6068,"jdocco0100con",2018-08-01,2018-09-01
"10981","FLORES, Olga Celina C/ LENCINA, Rosa Amalia y otros","ORDINARIO ACCION REIVINDICATORIA","3","04/02/2014","30","1","23/05/2018 ",2018-08-16,"16/08/2018","30/10/2018","1","S","2","2028","1","0","BENITEZ Pablo Maximiliano$36.101.229$DEMANDADA$Bolivia 483 ciudad%LENCINA Rosa Amalia$5.445.974$DEMANDADA$Bolivia 483 ciudad%FLORES Olga Celina$$ACTORA$Silvano ruiz 741 Casa 24 Sector 2 Barrio Toronjal%",6068,"jdocco0100con",2018-08-01,2018-09-01
"11780","MATTIASSI, Isolina Ester C/ ROUSE, Diego Ramón y Otros","ORDINARIO DAÑOS Y PERJUICIOS","4","29/06/2016","30","1","30/05/2018 ",2018-08-07,"07/08/2018",NA,"1","S","2","2028","0","0","VILLALBA Oscar$$DEMANDADA$%MUNICIPALIDAD DE CONCORDIA $$DEMANDADA$MITRE N° 76%ROUSE Diego Ramón$18.832.474$DEMANDADA$Mendiburu y Paula Albarracín de Sarmiento -esquina Sur-Oeste-%MATTIASSI Isolina Ester$13.673675$ACTORA$A.DEL VALLE 337%",6068,"jdocco0100con",2018-08-01,2018-09-01
"12204","RAMIREZ, Ricardo José -por sí y en repr. de sus hijos menores de edad  A.J.R. y D.A.R.- C/ TAMAÑO, José Manuel","ORDINARIO (CIVIL)","4","28/08/2017","40","1","04/06/2018 ",2018-08-09,"09/08/2018",NA,"1","S","2","2028","0","0","CAVALLO Jorge Gustavo$$MEDIADOR$Tucumán 71%SEGUROS BERNARDINO RIVADAVIA COOPERATIVA LIMITADA $$CITADA EN GARANTIA$Avda. 7 - Nº 755 - La Plata -%TAMAÑO José Manuel$Documento Nacional Identidad 21.060.145$DEMANDADA$calle López Jordán Nº 132%RAMÍREZ Dante Anselmo$Documento Nacional Identidad 46.860.519$MENOR DE EDAD$calle Isthilart Nº 1474%RAMÍREZ Alan José$Documento Nacional Identidad 44.439.628$MENOR DE EDAD$calle Isthilart Nº 1474%RAMÍREZ Ricardo José$Documento Nacional Identidad 22.023.702$ACTORA$calle Isthilart Nº 1474%",6068,"jdocco0100con",2018-08-01,2018-09-01
"8438","GALARZA HUGO ALBERTO C/ ORMAECHEA DE CORIA NELIDA ISABEL Y/U OTROS","USUCAPION","0","17/08/2017","51","1","06/08/2018 ",2018-08-24,NA,"09/10/2018","1","S","2","3759","0","0","ORMAECHEA DE CORIA NELIDA ISABEL$$DEMANDADA$%GALARZA HUGO ALBERTO$10.415.796$ACTORA$SANTA FE Y 12 DE OCTUBRE%",6081,"jdocco0000tal",2018-08-01,2018-09-01
"7082","LARRIVEY LUCIANO FRANCISCO C/ DIAZ CLEMENTE FERMIN","SUMARISIMO","4","10/05/2017","70","1","13/08/2018 ",2018-08-29,NA,NA,"1","T","2","1207","1","0","LARRIVEY LUCIANO FRANCISCO$33.014.070$ACTORA$%DIAZ CLEMENTE FERMIN$$DEMANDADA$%",6100,"jdocco0300gch",2018-08-01,2018-09-01
"13225","CAÑETE BERNACHEA CAROLINA SOLEDAD C/ MUÑOZ EDUARDO CARACIOLO y OTRA","ORDINARIO DAÑOS Y PERJUICIOS","3","03/03/2017","90","1","13/06/2018 ",2018-08-07,NA,NA,"1","T","2","382","1","0","HEREÑU MARIA DEL CARMEN$16.627.795$DEMANDADA$Bv. Brown Nº 213%MUÑOZ EDUARDO CARACIOLO$12.521.091$DEMANDADA$Formosa e/Victoria y Villaguay, depto interno Nº 1%CAÑETE BERNACHEA CAROLINA SOLEDAD$26.800.081$ACTORA$Cramer Nº 4771 PB 1 - Buenos Aires%",6144,"jdocco0000vic",2018-08-01,2018-09-01
"13343","PEÑALBA, HAYDEE JOSEFA C/ GAREIS, MARIA  NATALIA Y OTRA","IMPUGNACION DE RECONOCIMIENTO","2","26/04/2017","60","1","08/05/2018 ",2018-08-30,NA,NA,"1","S","2","15898","1","0","ESPINDOLA STEFANIA$42.388.609$MENOR DE EDAD$Lamadrid entre Psor. Abásolo y 25 de mayo%GAREIS MARIA NATALIA$28.667.524$DEMANDADA$Lamadrid entre Psor. Abásolo y 25 de mayo%PEÑALBA HAYDEE JOSEFA$4.273.540$ACTORA$GUEMES 541%",6144,"jdocco0000vic",2018-08-01,2018-09-01
"5746","Gomez Eric Manuel C/ Ruiz Diaz Jose Alberto y otro","ORDINARIO DAÃOS Y PERJUICIOS","5","02/08/2017","50","2","20/04/2018 ",2018-08-30,NA,NA,"1",NA,"2","3414","1","0","Liderar Cia Gral de Seguros S.A. $$DEMANDADA$Reconquista NÂº 585%Ruiz Diaz Jose Alberto$Documento Nacional Identidad 14.507.058$DEMANDADA$Carlos Gardel 293%Gomez Eric Emanuel$$ACTORA$%",7130,"jdocco0200lpa",2018-08-01,2018-09-01
"5774","Ojeda Juan Maximiliano C/ NuÃ±ez Juan DarÃ­o","ORDINARIO","4","06/09/2017","80","1","24/04/2018 ",2018-08-15,NA,NA,"1","T","2","3414","1","0","NuÃ±ez Juan DarÃ­o$Documento Nacional Identidad 30.609.209$DEMANDADA$Interseccion calles Granadero Baigorria y La Delfina%Ojeda Juan Maximiliano$$ACTORA$%",7130,"jdocco0200lpa",2018-08-01,2018-09-01
"5415","Vergara Miguel C/ Mantero Leonardo Edmundo y Otra","ORDINARIO COBRO DE PESOS","0","16/05/2016","90",NA,"13/04/2018 ",2018-08-07,NA,NA,"1","T","2","3414","1","0","Wolcoff Vanesa$Documento Nacional Identidad 27.247.211$DEMANDADA$%Mantero Leonardo Edmundo$Documento Nacional Identidad 23.978.447$DEMANDADA$%Vergara Miguel$$ACTORA$%",7130,"jdocco0200lpa",2018-08-01,2018-09-01
"4459","Ferreyra Miguel Angel C/ Propietarios Desconocidos y/o quien resulte propietario registral del inmueble referenciado en el promocional","USUCAPION","2","05/09/2013","35","1","17/04/2018 ",2018-08-16,"05/12/2018","05/12/2018","1","S","2","3414","1","0","Propietarios desconocidos $$DEMANDADA$%Ferreyra Miguel Angel$Documento Nacional Identidad 16.156.037$ACTORA$Avda 9 de Julio S/N%",7130,"jdocco0200lpa",2018-08-01,2018-09-01
"8338","RÃOS, Ramiro y Otros C/ GILABERT, Elsa Susana y Otros","DIVISION DE CONDOMINIO","14","22/12/2017","90","1","14/05/2018 ",2018-08-07,NA,NA,"1","T","2","15398","s","0","GILABERT Elsa Susana$Documento Nacional Identidad 11.840.883$DEMANDADA$calle Hidalgo 638%GILABERT HÃ©ctor Eduardo$Documento Nacional Identidad 13.575.904$DEMANDADA$calle Urquiza 221%GILABERT Santiago$Documento Nacional Identidad 28.650.156$DEMANDADA$calle J. J. Mega 38%GILABERT MarÃ­a JosÃ©$Documento Nacional Identidad 29.597.653$DEMANDADA$calle RamÃ­rez 160, departamento 1%GILABERT Mercedes$Documento Nacional Identidad 31.537.408$DEMANDADA$calle San Juan 581%GILABERT Jorge Oscar$Documento Nacional Identidad 20.248.814$DEMANDADA$calle 63 NÂ° 1564%RAGGIO Adolfo NÃ©stor$$MEDIADOR$R.S. PeÃ±a NÂº 283 P.A. Of. 1%GILABERT JoaquÃ­n$Documento Nacional Identidad 34.164.264$DEMANDADA$calle San Juan 581%GILABERT Constanza$Documento Nacional Identidad 32.795.126$DEMANDADA$calle San Juan 581%RÃOS Ignacio$Documento Nacional Identidad 31.537.223$ACTORA$calle San Juan 515%RÃOS Agustina$Documento Nacional Identidad 32.659.374$ACTORA$calle San Juan 515%RÃOS Ramiro$Documento Nacional Identidad 30.691.083$ACTORA$calle San Juan 515%",7124,"jdocco0600con",2018-08-01,2018-09-01
"8724","BURGOS PEDRO LEONEL C/ TARABORELLI AUTOMOBILE S.A. Y OTRO","SUMARISIMO","4","01/02/2018","75","2","02/08/2018 ",2018-08-07,NA,NA,"1","T","2","1619","1","0","TARABORELLI AUTOMOTORES S.A. $$DEMANDADA$GALARZA Nº 1736%FCA S.A. DE AHORRO PARA FINES DETERMINADOS $$DEMANDADA$%BURGOS PEDRO LEONEL$$ACTORA$%",7120,"jdocco0200uru",2018-08-01,2018-09-01
"8323","SUPPO MARTA ALEJANDRA Y OTRAS C/ COMPAÑÍA DE SEGUROS GALICIA SEGUROS S.A.","ORDINARIO","3","13/02/2017","30","1","27/06/2018 ",2018-08-14,NA,NA,"1","S","2","601","1","0","GALICIA SEGUROS S.A. $$DEMANDADA$%ALVAREZ VALENTINA$32.851.589$ACTORA$%ALVAREZ CONSTANZA EUGENIA$28.912.845$ACTORA$%ALVAREZ LUCIA$30.688.814$ACTORA$%ALVAREZ ANA CLARA$28.776.109$ACTORA$%ALVAREZ AGUSTINA$31.757.950$ACTORA$%Suppo Marta Alejandra$$ACTORA$%",7120,"jdocco0200uru",2018-08-01,2018-09-01
"8724","BURGOS PEDRO LEONEL C/ TARABORELLI AUTOMOBILE S.A. Y OTRO","SUMARISIMO","5","01/02/2018","40","1","15/06/2018 ",2018-08-02,NA,NA,"1","S","2","1619","1","0","TARABORELLI AUTOMOTORES S.A. $$DEMANDADA$GALARZA Nº 1736%FCA S.A. DE AHORRO PARA FINES DETERMINADOS $$DEMANDADA$%BURGOS PEDRO LEONEL$$ACTORA$%",7120,"jdocco0200uru",2018-08-01,2018-09-01
"13353/17","MARTINEZ, MatiÃ¡s Alberto C/ SCHEJTER y SCHEJTER S.A.","ORDINARIO DAÃOS Y PERJUICIOS","0","11/12/2017",NA,"1","14/05/2018 ",2018-08-02,NA,NA,"1","T","2","2117","1","0","SCHEJTER Y SCHEJTER S.A. $$DEMANDADA$Colon NÂº 622%MARTINEZ MatÃ­as Alberto$34.425.598$ACTORA$Guarumba NÂº 3580%",7119,"jdocco0100cha",2018-08-01,2018-09-01
"4765","MOLARES MARIA NIEVES Y OTROS","USUCAPION","2","28/04/2017","20","1","01/06/2018",2018-08-28,NA,NA,"1","S","2","15192","C","0","GIACOMINO JUAN EUGENIO MARIA$DNI 16.328.467$ABOGADO$RAMIREZ Nº 361%MOLARES MARIA ELINA$$ACTOR CIVIL$ALBERTI 1440-PEATONAL OESTE%",7041,"jdocco0200vil",2018-08-01,2018-09-01
"3310","LARREA MARIA ANGELICA C/ HEREDEROS Y SUCESORES DE NARCISO LARREA Y OTROS","ORDINARIO IMPUGNACION DE PATERNIDAD","8","08/08/2013","40","1","28/06/2018",2018-08-21,NA,NA,"1","S","2","15192","1","0","MENDIBURU LAURA ALICIA$10.576.674$DEMANDADA$MOJONES SUD%MENDIBURU MARIA DEL CARMEN$DNI 16.992.606$DEMANDADA$Mojones Sud 1%LARREA MARIA ANGELICA$30.243.234$ACTOR CIVIL$%",7041,"jdocco0200vil",2018-08-01,2018-09-01
"4423/16","DALZOTTO Maricel C/ DALZOTTO Jorge Dario y Otros","ORDINARIO ACCION DE NULIDAD","21","26/10/2016","180","1","14/05/2018 ",2018-08-16,"16/08/2018",NA,"1","S","2","1226","0","0","ZARATE Veronica Silvina$16.566.477$DEMANDADA$Pablo Stampa 3055%MASETTO Luis Ramon$20.667.733$DEMANDADA$Pío XII nº 1420%VIERA Elsa Emilia$6.386.736$DEMANDADA$Brasil Nº 1530%DAVID Gerónimo José$Documento Nacional Identidad 8.357.425$DEMANDADA$Brasil 1530%ZAMPEDRI Jorge Nicolás$Documento Nacional Identidad 33.927.678$DEMANDADA$Belgrano y Pío XII%AGUT Luis Mariano$12.128.662$DEMANDADA$Av. Belgrano Nº 1795%CHIESA ANTONIO LEONARDO$20.648.622$DEMANDADA$COLONIA ENSANCHE%DALZOTTO Patricia Noemí$17.578.136$DEMANDADA$Barrio Autopista- Torre 4, Dpto 4 \"B\", Tapiales%DALZOTTO Matilde Rosana$23.729.200$DEMANDADA$Belgrano  S/Nº%DALZOTTO René Nelson$14.588.719$DEMANDADA$Pablo Stampa Nº 2750%DALZOTTO Silvia Teresa$16.173.825$DEMANDADA$Belgrano y Pio XII%DALZOTTO Jorge Darío$13.632.551$DEMANDADA$Pasaje Algarrobo y 1º de mayo/ Avda. 1 de Mayo Nº 2365%DALZOTTO MARICEL$35.718.242$ACTORA$9 DE JULIO Nº 3348, Dpto. 2%",6902,"jdocco0200cha",2018-08-01,2018-09-01
"17218","CABRERA CELESTINA B. C/ BREGANT CARLOS C., SUS SUCESORES Y/O HEREDEROS","ORDINARIO (CIVIL)","4","21/02/2017","60","1","28/06/2018 ",2018-08-23,"23/08/2018","13/11/2018","1","S","2","520","1","0","CABRERA CELESTINA BEATRIZ$24.630.921$ACTORA$AVENIDA INTENDENTE ALDO LANDRA 504%CABRERA MARIA ROSA$12.619.865$MADRE FALLECIDA$%BREGANT CARLOS CELESTINO$5.935.374$DEMANDADO FALLECIDO$%BREGANT LILA CATALINA$1.895.997$HEREDERO DEMANDADO$%",6561,"jdocco0100pna",2018-08-01,2018-09-01
"16639","AYALA  FLORENCIA  N. C/ HEIZENREDER MARCOS G. Y OTRO","ORDINARIO (CIVIL)","4","02/11/2015","50","1","30/05/2018 ",2018-08-07,NA,NA,"1","S","2","520","0","0","AYALA FLORENCIA  NATALIA$38.388.032$ACTORA$%ABT DELMA LILIANA$16.431.270$MEDIADOR$%HEIZENREDER MARCOS GABRIEL$30.782.632$DEMANDADA REBELDE$%SEGUROS BERNARDINO RIVADAVIA COOPERATIVA LIMITADA $$CITADA EN GARANTIA$%",6561,"jdocco0100pna",2018-08-01,2018-09-01
"9083","SARMIENTO, María Ester C/ CAJA DE SEGUROS S.A.","ORDINARIO COBRO DE PESOS","4","01/04/2016","50","1","04/06/2018 ",2018-08-07,"07/08/2018",NA,"1","S","2","1438",NA,NA,"SIMONETTI GEORGINA$$MEDIADOR$RIVADAVIA Nº 631%SARMIENTO MARIA ESTER$18.459.426$ACTOR CIVIL$SOLARI NORTE Nº 975%MINISTERIO FISCAL $$MINISTERIO FISCAL$%CAJA DE SEGUROS S.A. $$DEMANDADA$FITZ ROY Nº 957%",6322,"jdocco0400con",2018-08-01,2018-09-01
"19084","ORREGO GRACIELA ISABEL Y OTRO C/ SHLEGEL GABRIELA MABEL Y OTROS","ORDINARIO DAÑOS Y PERJUICIOS","3","30/08/2017","29","1","10/05/2018 ",2018-08-02,"02/08/2018",NA,"1","S","2","785","0","0","ORREGO GRACIELA ISABEL$13.770.912$ACTORA$BELGRANO 15%FRANCO MARIO FABIÁN$10.431.380$ACTORA$BELGRANO 15%PEREYRA MARIO CELESTINO$14.294.524$DEMANDADA$CASTILLA MIRA 521%TABORDA MARIELA$24.630.469$DEMANDADA$CASTILLA MIRA 521%SCHLEGEL GABRIELA MABEL$29.970.829$DEMANDADA$RIVADAVIA 558%HILL HERNÁN JORGE$27.428.262$DEMANDADA$RIVADAVIA 558%",6722,"jdocco0800pna",2018-08-01,2018-09-01
"19219","BERSANO MARIA PAULA C/ LEDESMA AUGUSTO RAMON","ORDINARIO ACCION REIVINDICATORIA","5","23/11/2017","52","2","08/06/2018 ",2018-08-23,"23/08/2018",NA,"1","S","2","785","1","0","BERSANO María Paula$Documento Nacional Identidad 30.322.342$ACTORA$DIVISIÓN LOS ANDES Nº 1056%GAREIS ALICIA NOEMI$$MEDIADOR$JUAN BAEZ 474%LEDESMA Augusto Ramón$$DEMANDADA$RICARDO BALBIN Nº 1832/78%",6722,"jdocco0800pna",2018-08-01,2018-09-01
"19021","ASOCIACION DE DEFENSA DE CONSUMIDORES ENTRERRIANOS -ADECEN- C/ PREVENCION SALUD S.A.","ORDINARIO (CIVIL)","3","25/07/2017","95","1","27/06/2018 ",2018-08-14,"14/08/2018","20/11/2018","1","S","2","785","1","0","ASOCIACION DE DEFENSA DE CONSUMIDORES ENTRERRIANOS -A.DE.C.E $$ACTORA$Francisco Miranda nº 740%PREVENCION SALUD S.A. $$DEMANDADA$Kilómetro 257, Ruta Naciona Nº 34%",6722,"jdocco0800pna",2018-08-01,2018-09-01
"34109","VARON HECTOR ADRIAN C/ CUMINETTI URANGA FRANCISCO EUGENIO Y OTRO","ORDINARIO ACCIDENTES DE TRANSITO","5","20/02/2018","30",NA,"01/06/2018 ",2018-08-02,NA,NA,"1","S","2","821",NA,NA,"ZAPATA LIBERT PABLO E.$$MEDIADOR$%VARON HECTOR  ADRIAN$34.014.982$ACTORA$ALDEA  SANTA  MARIA  Nº 2121%CUMINETTI  URANGA FRANCISCO EUGENIO$20.882.400$DEMANDADA$SAN LORENZO  Nº  67%QBE SEGUROS LA BUENOS AIRES SOCIEDAD ANONIMA $$CITADA EN GARANTIA$AVDA LIBERTADOR 6350%",6721,"jdocco0300pna",2018-08-01,2018-09-01
"19846","RODRIGUEZ GUSTAVO FABIAN C/ MUNDO AGROMOVIL S.A.","SUMARISIMO","3","01/02/2018","35","1","10/08/2018 ",2018-08-24,"24/08/2018",NA,"1","S","2","354","0","0","RODRIGUEZ Gustavo Fabian$20.789.088$ACTORA$SAN LUIS Nº 819%MARIA Lorena Pamela$$MEDIADOR$calle MALVINAS Nº 260%MUNDO AGROMOVIL SA $$DEMANDADA$LA CORDILLERA Nº 4769%",6682,"jdocco0700pna",2018-08-01,2018-09-01
"13396","ROMERO JONATHAN MATIAS C/ BENITEZ NORMA INES","INTERDICTO DE RECOBRAR","4","22/09/2017","40","1","15/06/2018 ",2018-08-07,NA,NA,"1","S","2","1311","0","0","BENITEZ NORMA INES$Documento Nacional Identidad 17.245.385$DEMANDADA$FLORENCIO VARELA S/N Bo. SAN BERNARDO%ROMERO JONATHAN MATIAS$Documento Nacional Identidad 32.545.872$ACTORA$PRINCESA MARIA S/N BO. SAN BERNARDO%",6279,"jdocco0200col",2018-08-01,2018-09-01
"13569","VITASSE CLAUDIA MARIA EVANGELINA C/ CALDERON VICTORIO","ORDINARIO DAÑOS Y PERJUICIOS","4","26/02/2018","30","1","15/06/2018 ",2018-08-08,NA,NA,"1","S","2","1311","0","0","CALDERON VICTORIO$Documento Nacional Identidad 10.280.108$DEMANDADA$Chacabuco Nº 1012%VITASSE CLAUDIA MARIA EVANGELINA$DNI 26.717.208$ACTORA$%",6279,"jdocco0200col",2018-08-01,2018-09-01
"9323","ASUETA, FRANCISCO JOSÉ C/ ECHEVERRÍA, MARÍA DEL CARMEN Y OTRAS","ORDINARIO ESCRITURACION","7","28/12/2016","85","1","02/07/2018 ",2018-08-23,"23/08/2018",NA,"1","S","2","1438",NA,NA,"ASUETA Francisco José$Documento Nacional Identidad 28.650.089.-$ACTORA$LUCAS GONZALEZ Nº 1625-EXPTE Nº 9323: ENTRE RÍOS Nº 328-%ASUETA Francisco José$Documento Nacional Identidad 28.650.089.-$ACTORA$LUCAS GONZALEZ Nº 1625-EXPTE Nº 9323: ENTRE RÍOS Nº 328-%ECHEVERRÍA Maria del Carmen$DNI.12.426.866$DEMANDADA$PELLEGRINI N° 1178%ECHEVERRÍA María Angélica$DNI.10.911.945$DEMANDADA$SAN JUAN N° 671%ECHEVERRÍA Lilian María Inés$$DEMANDADA$BILLINGHURST Nº 2476 - 1º PISO%MACTAVISH Maria Silvana$$MEDIADOR$CARRIEGO Nº 182%",6322,"jdocco0400con",2018-08-01,2018-09-01
"9500","LAFOURCADE, Nora Elena y OTRA C/ LAFOURCADE DE CARUBIA, María Estanislada","USUCAPION","3","18/09/2017","10","1","19/06/2018 ",2018-08-21,NA,NA,"1","S","2","1438",NA,NA,"LAFOURCADE de CARUBIA María Estanislada$Documento Nacional Identidad 3.924.043$DEMANDADA$25 de Mayo 724%LAFOURCADE MARIA TERESITA$Documento Nacional Identidad 5.658.332$ACTOR CIVIL$M. BERNARD Nº 1.023%FISCALIA DE ESTADO $$TERCERO$CASA DE GOBIERNO-CALLES CORDOBA Y MEXICO%LAFOURCADE NORA ELENA$Documento Nacional Identidad 6.238.617$ACTOR CIVIL$MONTEVIDEO 133%",6322,"jdocco0400con",2018-08-01,2018-09-01
"8590","MACIEL, PABLO GABRIEL C/ VILLALBA, OSCAR ALBERTO","ORDINARIO RESCISION DE CONTRATO","3","07/08/2014","25","1","15/06/2018 ",2018-08-15,NA,NA,"1","S","2","1438",NA,NA,"VILLALBA OSCAR ALBERTO$Documento Nacional Identidad 20.192.253$DEMANDADA$SAN LORENZO Nº 1045%MACIEL PABLO GABRIEL$Documento Nacional Identidad 29.678.595$ACTORA$P. DEL CASTILLO Nº 1347%",6322,"jdocco0400con",2018-08-01,2018-09-01
"10371","PASTORINI AMELIA ELENA Y OTROS C/ PASTORINI HUMBERTO LUCIO Y OTROS","ORDINARIO ACCION DE NULIDAD","3","14/12/2017","45","1","08/08/2018 ",2018-08-30,"30/08/2018","11/10/2018","1","P","2","1099","1","1","ABOGADOS EXTRAS $$ABOGADO$%CANAVESI NATALIA BELEN$$ACTORA$%CANAVESI JOSÉ LUIS$$ACTORA$%PASTORINI AMELIA ELENA$$ACTORA$%PASTORINI AMELIA ELENA$$ACTORA$JUJUY Nº 187%",6580,"jdocco0100gay",2018-08-01,2018-09-01
"8983","TULA EDMUNDO RAMÓN DANIEL C/ ALBERTO JUAN DOMINGO Y OTROS","ORDINARIO DAÑOS Y PERJUICIOS","3","02/03/2018","100","1","05/06/2018 ",2018-08-14,"25/10/2018","25/10/2018","1","S","2","1798","1","0","ACOSTA EDUARDO ANTONIO$$PERITO INGENIERO$Mantegazza Nº 791 - Nogoyá%YEDRO CANOVA DAVID EMILIO$Documento Nacional Identidad 36.478.406$DEMANDADA$SAN LORENZO Nº 710 - NOGOYÁ%FRANK VANESA NATALIA$$MEDIADOR$%LA SEGUNDA COOP.LTDA.DE SEGUROS GENERALES $$CITADA EN GARANTIA$JUAN MANUEL DE ROSAS Nº 957%RIO URUGUAY COOP.SEG.LTDA. $$CITADA EN GARANTIA$AVDA. RAMÍREZ Nº 2613 - PARANÁ%ALBERTO JUAN DOMINGO$Documento Nacional Identidad 8.593.723$DEMANDADA$VIRREYNATO DEL RÍO DE LA PLATA Nº163 - NOGOYÁ%TULA EDMUNDO RAMÓN DANIEL$Documento Nacional Identidad 27.609.440$ACTORA$MENDIZABAL Nº 2088 - NOGOYÁ%",6681,"jdocco0100nog",2018-08-01,2018-09-01
"19775","FERNANDEZ EDGARDO ELOY C/ GODOY HERNAN JESUS Y OTRA","ORDINARIO ACCIDENTES DE TRANSITO","5","21/11/2017","45","1","14/06/2018 ",2018-08-07,"07/08/2018",NA,"1","S","2","354","0","0","FERNANDEZ Edgardo Eloy$36.703.727$ACTORA$Margazin nº 747%MUÑOZ Claudia María$$MEDIADOR$calle CÓRDOBA Nº 379 PISO 2 OFICINA 7%GODOY Hernán Jesús$32.831.155$DEMANDADA$Villa Seguí nº 1037%LA SEGUNDA COOPERATIVA LIMITADA DE SEGUROS GENERALES $$CITADA EN GARANTIA$Brigadier Juan Manuel de Rosas nº 957%AVA Domingo Luis$$PERITO INGENIERO$PABLO CRAUSAZ Nº 844%BERTOZZI GUSTAVO ARNALDO$4.992.333$PERITO MEDICO$Luis Pasteur nº 481%",6682,"jdocco0700pna",2018-08-01,2018-09-01
"12262","ALVAREZ, Alberto Javier y Otra C/ ALVAREZ, Maria Luisa y Otros","ORDINARIO ACCION DE CONSIGNACION","7","20/10/2017","40","1","18/05/2018 ",2018-08-02,"02/08/2018",NA,"1","P","2","2028","0","0","ALVAREZ María Luisa$3.695.263$DEMANDADA$Zapiola Nº 851 - piso 2 -Dpto D%MAS Pedro David Agustín$$DEMANDADA$Rivadavia Nº 691 -Ciudad-%MAS Pedro Diego Agustin$$DEMANDADA$Rivadavia Nº 691%JANDET Florencia$$MEDIADOR$Rivadavia Nº 631%RAMERI Cintia Paola$Documento Nacional Identidad 28.678.255$ACTORA$Federaci{on Nº 1631%ALVAREZ Alberto Javier$Documento Nacional Identidad 25.065.082$ACTORA$Federación Nº 1631%",6068,"jdocco0100con",2018-08-01,2018-09-01
"12039","MAINEZ, Luis Maria C/ MAINEZ, Maria Teresa y Otros","COMPENSACION","5","21/02/2017","30","1","21/06/2018 ",2018-08-01,"01/08/2018",NA,"1","S","2","2028","0","0","MAINEZ Luis Maria$Documento Nacional Identidad 10.198.202$ACTORA$ENTRE RIOS N° 1740%EL MOCHO S.C. $$DEMANDADA$BUENOS AIRES Nº 355%MAINEZ Antonio Eduardo$Documento Nacional Identidad 12.426.561$DEMANDADA$SARMIENTO Nº 618%MAINEZ de CORRARO María Teresa$11.161.388$INCIDENTADA$Antelo 1198%MAINEZ Mónica María$$DEMANDADA$Damian P. Garat Nº 545%",6068,"jdocco0100con",2018-08-01,2018-09-01
"12305","WENDLER, Juan Manuel C/ OBRA SOCIAL DE PETROLEROS","SUMARISIMO","2","24/11/2017","20","1","04/07/2018 ",2018-08-23,"23/08/2018","07/11/2018","1","S","2","2028","1","0","SIMONETTI Georgina$$MEDIADOR$Rivadavia Nº 631%OBRA SOCIAL DE PETROLEROS $$DEMANDADA$San Martin Nº 597 - Paraná%WENDLER Juan manuel$$ACTORA$Rio Bermejo s/n - La Criolla%",6068,"jdocco0100con",2018-08-01,2018-09-01
"2136","COMAS ARTURO MISAEL C/ QUIEN RESULTE PROPIETARIO Y/O TITULAR DE DOMINIO","USUCAPION","4","03/04/2012","85",NA,"31/07/2018 ",2018-08-29,"29/08/2018","29/10/2018","1","S","2","15870","0","0","GALIZZI DANIEL ALEJANDRO$Documento Nacional Identidad 24.592.655$MEDIADOR$%FERNANDEZ JOSE LUIS$$DEFENSOR DE AUSENTE$%BUSTAMANTE SUSANA MARIEL$Documento Nacional Identidad 24.637.885$DEMANDADA$GUIDO MARIZA Nº 1051%BUSTAMANTE RAMIRO JUAN MANUEL$Documento Nacional Identidad 31.016.988$DEMANDADA$GUIDO MARIZA Nº 1051%ABOGADO EXTRA$$DEMANDADA$%BUSTAMANTE SONIA CARINA$Documento Nacional Identidad 25.325.878$DEMANDADA$GUIDO MARIZA Nº 1051%BUSTAMANTE PABLO ENRIQUE$$DEMANDADA$GUIDO MARISA Nº 549%LOS TAJAMARES S.A.A.C.I.EL. $30-51244905-7$DEMANDADA$SAN MARTIN 640%SUPERIOR GOBIERNO DE LA PROVINCIA DE ENTRE RIOS DESP OFICIAL DEL AG FISCAL$$DEMANDADA$CALLE F. DE LA PUENTE Nº 220 (CASA DE GOBIERNO)%COMAS ARTURO MISAEL$L.E. 5.947.754$ACTORA$%",6094,"jdocco0200nog",2018-08-01,2018-09-01
"13684","ARBUATTI NORA IRENE C/ JUAREZ IVAN DANIEL","INTERDICTO DE RECOBRAR","2","27/11/2017","90","1","31/07/2018 ",2018-08-27,NA,NA,"1","S","2","15898","1","0","JUAREZ IVAN DANIEL$11.784.245$DEMANDADA$MENDOZA Nº 650%ARBUATTI NORA IRENE$13.576.534$ACTORA$%",6144,"jdocco0000vic",2018-08-01,2018-09-01
"8048","OLIVERA, Griselda C/ AUTOCREDITO S.A. de CAPITALIZACIÃN","ORDINARIO","3","27/03/2017","60","1","22/06/2018 ",2018-08-29,"29/08/2018","13/11/2018","1","S","2","15398","S",NA,"AGUILAR Valeria Carolina$$MEDIADOR$San Luis NÂº 560%AUTOCRÃDITO S.A. DE CAPITALIZACIÃN $$DEMANDADA$calle 14 de Febrero NÂº 452%OLIVERA Griselda$13.309.901$ACTORA$calle Belgrano NÂº 1390%",7124,"jdocco0600con",2018-08-01,2018-09-01
"7973","MEDINA, Diego Angel C/ BBVA CONSOLIDAR SEGUROS S.A.","ORDINARIO (CIVIL)","1","16/12/2016","44","1","04/06/2018 ",2018-08-21,"21/08/2018","25/10/2018","1","S","2","15398","S",NA,"BBVA CONSOLIDAR SEGUROS S.A. $$DEMANDADA$calle Alem NÂº 728%MEDINA Diego Ãngel$Documento Nacional Identidad 28.109.646$ACTORA$Barrio 272 Viviendas, Manzana 3, casa NÂº 72, la Bianca%",7124,"jdocco0600con",2018-08-01,2018-09-01
"8614","CACERES JOSE ALFREDO C/ BANCHIK AUTOMOTORES S.A. Y OTRO","SUMARISIMO","4","02/10/2017","45","1","28/06/2018 ",2018-08-09,NA,NA,"1","S","2","1619","1","0","BANCHIK AUTOMOTORES$$DEMANDADA$%CACERES JOSE ALFREDO$$ACTORA$%",7120,"jdocco0200uru",2018-08-01,2018-09-01
"8331","GRAZIANO, MarÃ­a ConcepciÃ³n C/ GRAZIANO, Leonardo Antonio","ORDINARIO REVOCATORIA DE DONACION","1","19/12/2017","155","2","15/05/2018 ",2018-08-22,"22/08/2018","06/11/2018","1","S","2","15398","S",NA,"SIMONETTI Georgina$$MEDIADOR$RIVADAVIA NÂº 631%BENTIN Elias$Documento Nacional Identidad 34.805.190$TERCERO$Saavedra NÂº 115%GRAZIANO Leonardo Antonio$Documento Nacional Identidad 16.989.221$DEMANDADA$calle HipÃ³lito Yrigoyen NÂº 880%GRAZIANO MarÃ­a ConcepciÃ³n$Documento Nacional Identidad 1.213.434$ACTORA$calle Sarmiento NÂº 935%",7124,"jdocco0600con",2018-08-01,2018-09-01
"8330","GOMEZ, Sandra Roxana C/ WEIGANDT, Roberto Maximiliano","ORDINARIO (CIVIL)","5","18/12/2017","60","1","07/05/2018 ",2018-08-28,NA,NA,"1","T","2","15398","S",NA,"SIMONETTI Georgina$$MEDIADOR$Rivadavia NÂº 631%PRODUCTORES DE FRUTAS ARGENTINAS COOPERATIVA DE SEGUROS LIMITADA (PROFU SEGUROS)$$CITADA EN GARANTIA$calle 1Âº de Mayo NÂº 164%WEIGANDT Roberto Maximiliano$Documento Nacional Identidad 26.766.824$DEMANDADA$calle Mendoza NÂº 152, departamento 68%GOMEZ Sandra Roxana$Documento Nacional Identidad 17.966.255$ACTORA$Juan JosÃ©  NÂº 271 -  BÂº  A. Brown%",7124,"jdocco0600con",2018-08-01,2018-09-01
"8614","CACERES JOSE ALFREDO C/ BANCHIK AUTOMOTORES S.A. Y OTRO","SUMARISIMO","3","02/10/2017","40","1","09/08/2018 ",2018-08-23,"23/08/2018","16/10/2018","1","S","2","1619","1","0","BANCHIK AUTOMOTORES$$DEMANDADA$%CACERES JOSE ALFREDO$$ACTORA$%",7120,"jdocco0200uru",2018-08-01,2018-09-01
"5042","KLING JUAN ROBERTO Y OTRA","USUCAPION","4","29/12/2017","25","1","01/06/2018",2018-08-16,NA,NA,"1","S","2","15192","C","0","CHAR MARIO FEDERICO$$ABOGADO$%",7041,"jdocco0200vil",2018-08-01,2018-09-01
"7470","GIMENEZ MARIA DEL ROSARIO C/ GIMENEZ ELSA BEATRIZ","ORDINARIO ACCION DE NULIDAD","4","14/03/2016","75","2","12/03/2018 ",2018-07-04,NA,NA,"1","S","2","1931","C","0","COLEGIO DE ESCRIBANOS DE ENTRE RIOS $$CITADO$URQUIZA Nº 1180%GIMENEZ ELSA BEATRIZ$Documento Nacional Identidad 23.497.089$DEMANDADA$BENJAMIN HALKETT Nº 265%GIMENEZ MARIA DEL ROSARIO$Documento Nacional Identidad 36.583.326$ACTOR CIVIL$COLON Nº 346%",6822,"jdocco0200gay",2018-08-01,2018-09-01
"8189","FERREYRA RICARDO LORENZO C/ RODRIGUEZ HERMIDA ROLANDO Y OTRO","ORDINARIO DAÑOS Y PERJUICIOS","4","28/11/2017","80","2","03/05/2018 ",2018-07-25,NA,NA,"1","S","2","1931",NA,NA,"CALEDONIA ARGENTINA COMPAÑIA DE SEGUROS S.A. $Identificación tributaria 30-50003667-8$CITADA EN GARANTIA$LAVALLE Nº 348, PISO 2%RODRIGUEZ HERMIDA ROLANDO$Documento Nacional Identidad 92.383.439$DEMANDADA$CALLE 25 S/N, 1RA. SECC. CHACRAS%FERREYRA RICARDO LORENZO$Documento Nacional Identidad 17.117.249$ACTOR CIVIL$Bº PANCHO RAMIREZ CASA 11%",6822,"jdocco0200gay",2018-08-01,2018-09-01
"17264","BREGANT ROBERTO J. Y OTRA C/ CANCIO JONATHAN E. Y OTRO","ORDINARIO (CIVIL)","4","27/03/2017","40","1","21/06/2018 ",2018-08-15,NA,NA,"1","S","2","520","0","0","ZAPATA LIBERT PABLO ENRIQUE$$MEDIADOR$%INSTITUTO AUTARQUICO PROVINCIAL DEL SEGURO DE ENTRE RIOS $$CITADA EN GARANTIA$%CANCIO JONATHAN EXEQUIEL$38.172.507$DEMANDADA RECONVINIENTE$%GAITZ LUCIANA SOLEDAD$27.748.732$ACTORA RECONVENIDA$%BREGANT GAITZ TOMAS$42.355.974$ACTORA RECONVENIDA$%BREGANT ROBERTO JESUS$26.048.019$ACTORA RECONVENIDA$%",6561,"jdocco0100pna",2018-08-01,2018-09-01
"18407","SOLIOZ ALEJANDRA PATRICIA C/ CANTERO VICTOR NORBERTO Y OTRO","ORDINARIO ACCIDENTES DE TRANSITO","0","15/03/2018","30",NA,"22/06/2018 ",2018-07-06,NA,NA,"1",NA,"2","3392",NA,NA,"CANTERO VICTOR NORBERTO$Documento Nacional Identidad 26.150.077$DEMANDADA$ROCAMORA II, MANZANA I, CASA Nº 5%SOLIOZ ALEJANDRA PATRICIA$Documento Nacional Identidad 25.684.612$ACTORA$CORTADA 4 S/Nº, Bº MACARONE%ZAPATA LIBERT PABLO ENRIQUE$$MEDIADOR$GRAL. SAN MARTIN Nº1226%CABROL ESTERIO JOSE$Documento Nacional Identidad 5.923.791$DEMANDADA$JUJUY Nº 548%TRIUNFO COOPERATIVA DE SEGUROS LIMITADA $$CITADA EN GARANTIA$Av. San Martin Nº 1092%BERTOZZI GUSTAVO ARNALDO$$PERITO MEDICO$LUIS PASTEUR 481%MODAD RENEE ALINE ELISA$$PERITO PSICOLOGO$VICTORIA Nº 66%",6802,"jdocco0200pna",2018-08-01,2018-09-01
"9093","OJEDA, YAMILA  ANDREA C/ COOPERATIVA DE TRABAJO 12 DE OCTUBRE LIMITADA  Y OTRO","ORDINARIO DAÑOS Y PERJUICIOS","5","14/04/2016","25","1","12/06/2018 ",2018-08-09,"09/08/2018",NA,"1","S","2","1438",NA,NA,"KÚHNE MARCELO EITEL$Documento Nacional Identidad 21.479.870$PERITO MEDICO$Urquiza Nº 405%GARAYCOECHEA ENRIQUE$$MEDIADOR$LA RIOJA Nº 733-%COOPERATIVA DE TRABAJO 12 DE OCTUBRE LIMITADA $$DEMANDADA$AVDA INDEPENDENCIA Nº 316-CDIA-%MUTUAL RIVADAVIA DEL TRANSPORTE PÚBLICO DE PASAJEROS LTDA $$CITADA EN GARANTIA$AVDA 7 Nº 755-DE LA CIUDAD DE LA PLATA- PCIA DE BS. AS.%OJEDA YAMILA ANDREA$Documento Nacional Identidad 40.805.814$ACTOR CIVIL$BV. MAIPÚ Nº 1679%ZANANDREA ISMAEL ISAAC$$DEMANDADA$GRAL A. MEDINA Nº 833-CDIA-%FEDERAL SEGUROS - ASEGURADORA FEDERAL ARGENTINA S.A. $$DEMANDADA$BALCARCE Nº 683%DIAZ JUAN EDUARDO$$DEMANDADA$CORDOBA Y BV.YUQUERI%RUIZ ENRICO NELIDA$$DEMANDADA$PAMPA Nº 1546%LEON HUGO ALBERTO$$DEMANDADA$VICTORICA Nº 1332%",6322,"jdocco0400con",2018-08-01,2018-09-01
"33329","MARTINEZ GUILLERMO DANIEL C/ SALINAS LEONARDO GUSTAVO Y OTRO","ORDINARIO ACCIDENTES DE TRANSITO","3","31/05/2016","45",NA,"22/06/2018 ",2018-08-30,NA,NA,"1","S","2","821",NA,NA,"MUNICIPALIDAD DE PARANA $$DEMANDADA$MONTE CASEROS Y URQUIZA%MARTINEZ GUILLERMO DANIEL$34.586.134$ACTORA$BAJADA GRANDE, CALLE X, CASA Nº 1009%ABOGADOS EXTRAS $$DEMANDADA$%SALINAS GUSTAVO LEONARDO$20-36208602-8$DEMANDADA$PROFESOR M. DEMONTE VITALI%INSTITUTO AUTARQUICO PROVINCIAL DEL SEGURO DE ENTRE RIOS $$CITADA EN GARANTIA$SAN MARTIN 918%CARABAJAL EXEQUIEL ALBERTO$$TESTIGO$CORTADA  1092  Nº 2165%LEDERHOS MARCOS DAVID$$TESTIGO$CALLE \"A\" S/N  BAJADA  GRANDE%BRUNENGO MARTIN  ARIEL$$TESTIGO$BAJADA  GRANDE, CALLE 153, MANZANA 2, CASA 7(pintada de amarillo con ventana  frente colo a mitadPIN TADA  DE AMARILLO%LEDERHOS LUCAS LUCIANO$$TESTIGO$BAJADA GRANDE, CALLE A  S/N%HAEDO FABRICIO JOSE$$TESTIGO$ESTEBAN RAMOS Nº 787%GOLPE LUCIO$$TESTIGO$SAN MARTIN  Nº 1247%ZARATE EDUARDO$$TESTIGO$FLORIDA  1537%ROMERO LUIS  ANTONIO$$TESTIGO$MORENO Nº 123%",6721,"jdocco0300pna",2018-08-01,2018-09-01
"34177","ALARCON EDUARDO OSCAR Y OTRO C/ ASENSIO PABLO FRANCISCO","ORDINARIO ACCIDENTES DE TRANSITO","1","10/04/2018","30",NA,"12/06/2018 ",2018-08-16,NA,NA,"1","S","2","821",NA,NA,"ZAPATA LIBERT PABLO E.$$MEDIADOR$%ALARCON EDUARDO OSCAR$20.895.059$ACTORA$JOSE AREVALO Nº 2811%ALARCON CRISTIAN RAUL OSCAR$38.261.005$ACTORA$JOSE AREVALO Nº 2811%SAN CRISTOBAL SOCIEDAD MUTUAL SEGUROS GENERALES $$CITADA EN GARANTIA$RIVADAVIA 3052%ASENSIO PABLO FRANCISCO$17.277.714$DEMANDADA$AVDA. DE LAS AMERICAS Nº 4515%MODAD RENEE ALINE ELISA$$PERITO MEDICO$BUENOS AIRES Nº 60 - 3º \"B\"%PEREYRA LILIAN INES$$PERITO MEDICO$VICTORIA Nº 60 DEPTO 6%YANOVSKY JORGE EDUARDO$$PERITO INGENIERO$MONTE CASEROS Nº 454%",6721,"jdocco0300pna",2018-08-01,2018-09-01
"19762","SENSEVER DE VALLARINO DANIELA PATRICIA C/ EL RINCON S.A.","ORDINARIO (CIVIL)","7","17/11/2017","40","1","03/07/2018 ",2018-08-28,NA,NA,"1","S","2","354","1","0","SENSEVER María Teresa$14.718.700$ACTORA$calle PEREZ COLMAN Nº 381 DE PARANÁ%SENSEVER Claudia Verónica$17.722.940$ACTORA$Mitre nº 1346%SENSEVER DE VALLARINO Daniela Patricia$20.321.282$ACTORA$\"ESTANCIA LA CORINA\"%EL RINCON SA $$DEMANDADA$LUIS ETCHEVEHERE Nº 17%SENKMAN GERARDO$$MEDIADOR$%",6682,"jdocco0700pna",2018-08-01,2018-09-01
"12367","FRANCOU MARTA ELENA C/ GERFO JOSE LUIS y OTRA","DESALOJO","0","22/06/2015",NA,NA,"08/08/2018 ",2018-08-30,NA,NA,"1",NA,"3",NA,"1",NA,"GERFO JOSE LUIS$$DEMANDADA$%GENTILE CARINA$$DEMANDADA$%FRANCOU MARTA ELENA$5.787.419$ACTORA$Bolívar 497%",6279,"jdocco0200col",2018-08-01,2018-09-01
"13371","SOSA FERNANDO MARIO C/ ORTA CECILIA VANESA Y OTRO","ORDINARIO DAÑOS Y PERJUICIOS","3","06/09/2017","55","1","30/07/2018 ",2018-08-28,"28/08/2018","31/10/2018","1","S","2","1311","1","0","ORTA VANESA CECILIA$28.591.316$DEMANDADA$%BREM LUIS ANIBAL$Documento Nacional Identidad 17.072.260$DEMANDADA$BV. GAILLARD 340%SOSA FERNANDO MARIO$Documento Nacional Identidad 24.209.826$ACTORA$%PARANA SEGUROS $$CITADA EN GARANTIA$Sarmiento Nº 624%",6279,"jdocco0200col",2018-08-01,2018-09-01
"4795","Casals Debora Anali C/ Reggiardo Carlos Guillermo","ORDINARIO DAÑOS Y PERJUICIOS","4","26/05/2016","85",NA,"21/05/2018 ",2018-08-09,NA,NA,"1","S","2","15205","1","0","Reggiardo Carlos Guillermo$$DEMANDADA$Bartoloni Nº 512%Casals Debora Anali$$ACTORA$Corrientes 821%",6728,"jdocco0100lpa",2018-08-01,2018-09-01
"12184","OCAMPO ALESIO AGUSTIN Y OTRA C/ SAYAVEDRA DE VILLA ELISA","USUCAPION","2","12/06/2015","30","1","31/07/2018 ",2018-08-31,NA,NA,"1","S","2","15898","1","0","JUAREZ NATALIA$23.219.666$ACTORA$MATANZA E/LAPRIDA Y VELEZ SARSFIELD%SAYAVEDRA DE VILLA ELISA$$DEMANDADA$%PROVINCIA DE ENTRE RIOS $$DEMANDADA$%OCAMPO ALESIO AGUSTIN$35.175.580$ACTORA$PRESIDENTE PERON 131%OCAMPO ALESIO AGUSTIN$35.175.580$ACTORA$PRESIDENTE PERON 131%",6144,"jdocco0000vic",2018-08-01,2018-09-01
"8636","ROMERO LEANDRO MARTIN C/ RUDAS S.A.","SUMARISIMO","4","23/10/2017","65","1","06/08/2018 ",2018-08-30,NA,NA,"1","T","2","1619","1","0","ROMERO LEANDRO MARTIN$$ACTORA$%",7120,"jdocco0200uru",2018-08-01,2018-09-01
"13239/17","BERMANI, Alexander Omar C/ RED AGROMOVILES S.A.","SUMARISIMO","3","14/06/2017","20","1","03/07/2018 ",2018-08-21,"21/08/2018","23/10/2018","1","S","2","2117","1","0","GRUPO RED S.A. $IdentificaciÃ³n tributaria 33-71145695-9$DEMANDADA$Avda. Corrientes NÂº 1438 Piso 13 Dpto. A%BERMANI Alexander Omar$Documento Nacional Identidad 37.079.942$ACTORA$BÂº 20 viviendas Casa NÂº 9 - Colonia Freitas%",7119,"jdocco0100cha",2018-08-01,2018-09-01
"3034","SUPERIOR GOBIERNO DE LA PROVINCIA DE ENTRE RIOS C / CLAPIER AURELIO BASILIO Y OTROS","ORDINARIO","2","14/12/2012","10","1","02/07/2018",2018-08-23,NA,NA,"1","S","2","15192","c","0","DEFENSOR DE AUSENTES $$DEFENSOR DE AUSENTE$%SUP.GOB.PROV.DE ENTRE RIOS $$ACTOR CIVIL$CASA DE GOB.-MEXICO-LAPRIDA-CORDOBA-SANTA FE%",7041,"jdocco0200vil",2018-08-01,2018-09-01
"7249","RAMIREZ NESTOR OSVALDO C/ ESTADO PROVINCIAL Y/O SUPERIOR GOBIERNO DE LA PROVINCIA DE ENTRE RIOS","ORDINARIO DAÑOS Y PERJUICIOS","4","21/09/2015","42","1","17/05/2018 ",2018-08-29,"13/11/2018",NA,"1","S","2","1931","C","0","GENERALI ARGENTINA CIA. DE SEGUROS S.A. $$CITADA EN GARANTIA$RECONQUISTA 458, PISO 3%EDELMIRO P.PIETROBONI SA, JOSE E. PITON SA y EQUIMAC SACIFEI $Identificación tributaria$DEMANDADA$JUAN JOSE BRUNO 2527%ESTADO PROVINCIAL $$DEMANDADA$F.D.L. PUENTE Nº220%RAMIREZ NESTOR OSVALDO$Documento Nacional Identidad 18.104.477$ACTOR CIVIL$%",6822,"jdocco0200gay",2018-08-01,2018-09-01
"8023","SERUR, Carlos Rolando C/ SILVEIRA, Alejandro y Otra","ORDINARIO (CIVIL)","6","25/04/2016","60","1","14/05/2018 ",2018-08-14,"14/08/2018","22/10/2018","1","S","2","15398","s","0","\"RUBIN Patricia Mariel$$MEDIADOR$SAN MARTIN NÂ° 28, OFICINA 33%SERUR Miryam Mabel$Documento Nacional Identidad 11.840.864$DEMANDADA$URQUIZA NÂº 816, 6to. piso, departamento \"\"A\"\"%SILVEIRA Alejandro$$DEMANDADA$URQUIZA NÂº 816,  6to. piso- departamento \"\"A\"\"%SERUR Carlos Rolando$Documento Nacional Identidad 13.575.308$ACTOR CIVIL$CORRIENTES NÂº 2179%\"",7124,"jdocco0600con",2018-08-01,2018-09-01
"8818","TABAREZ CRISTIAN JAVIER C/ TELECOM ARGENTINA S.A.","SUMARISIMO","3","11/04/2018","30",NA,"27/07/2018 ",2018-08-08,"08/08/2018",NA,"1","S","2","1619","1","0","TELECOM ARGENTINA S.A. $$DEMANDADA$Buenos Aires N° 150%TABAREZ CRISTIAN JAVIER$$ACTORA$%",7120,"jdocco0200uru",2018-08-01,2018-09-01
"13245/17","CARAM FERNANDEZ, Sandra Karina C/ ZILLONI Gustavo Javier y OTRO","ORDINARIO DAÃOS Y PERJUICIOS","6","23/06/2017","45","1","24/05/2018 ",2018-08-28,"28/08/2018","27/11/2018","1","S","2","2117","1","0","ZILLONI Gustavo Javier$22.496.147$DEMANDADA$MartÃ­n Fierro 3144%PEREZ Edgar RaÃºl$Documento Nacional Identidad$DEMANDADA$Rocamora NÂº 2470%CARAM FERNANDEZ Sandra Carina$92.317.380$ACTORA$Urquiza 2215%",7119,"jdocco0100cha",2018-08-01,2018-09-01
"5498","MARTINEZ UBALDO ROBERTO C/ FURNO JUAN EDGARDO","ORDINARIO DAÑOS Y PERJUICIOS","2","20/03/2018","20",NA,"24/07/2018 ",2018-08-16,NA,NA,"1","T","2","15870","1","0","UHRIG PATRICIA CAROLINA $$MEDIADOR$%FURNO JUAN EDGARDO$Documento Nacional Identidad 14.669.680$DEMANDADA$CASEROS Nº 342%MARTINEZ UBALDO ROBERTO$Documento Nacional Identidad 16.612.222$ACTORA$PTE. PERON y J.J. PASO%",6094,"jdocco0200nog",2018-08-01,2018-09-01
"8280","GUTMAN, Enrique C/ GALEANO, RamÃ³n AmÃ©rico","ORDINARIO (CIVIL)","5","03/11/2017","30","1","18/05/2018 ",2018-08-16,"16/08/2018","31/10/2018","1","S","2","15398","s",NA,"GALEANO RamÃ³n AmÃ©rico$Documento Nacional Identidad 16.406.338$DEMANDADA$calle Sara Neira NÂº 22%RAGGIO Adolfo NÃ©stor$$MEDIADOR$R.S. PeÃ±a NÂº 283 P.A. Of. 1%GUTMAN Enrique$Documento Nacional Identidad 5.800.411$ACTORA$calle Bernardo de Irigoyen NÂº 132%",7124,"jdocco0600con",2018-08-01,2018-09-01
"13776-17","RODRIGUEZ LUIS ALBERTO C/  RUIZ BENIGNO GREGORIO","USUCAPION","2","15/06/2017","15","1","29/06/2018 ",2018-08-16,"16/08/2018","01/10/2018","1","S","2","15350","1","0","BRITOS LIANA GISELE$$DEFENSOR$%MUNICIPALIDAD DE LA CIUDAD DE COLON $$CITADO$12 de abril 500%RUIZ BENIGNO GREGORIO$Documento Nacional Identidad$DEMANDADA$%RODRIGUEZ LUIS ALBERTO$Documento Nacional Identidad 4.524.031$ACTORA$San Martin Nº928%",6170,"jdocco0100col",2018-08-01,2018-09-01
"17302","ZUFFIAURRE, Gladys Ester y Otros C/ BRACCO, Marcelo Diego Pascual y Otro","ORDINARIO ACCION DE NULIDAD","7","07/03/2016","27","1","01/08/2018 ",2018-08-23,"23/08/2018","15/11/2018","1","S","2","319","1","0","BRACCO Marcelo Diego Pascual$14.853.926$DEMANDADA$Dónovan Nº 987%BRACCO Marcelo Diego Pascual$14.853.926$DEMANDADA$Dónovan Nº 987%ZUFFIAURRE Gladys Ester$Documento Nacional Identidad 10.573.298$ACTORA$25 de Junio Nº 349%ZUFFIAURRE José Luis$Documento Nacional Identidad 12.251.035$ACTORA$Av. Echagüe Nº 752%ZUFFIAURRE Nidia Irene$Documento Nacional Identidad 5.722.673$ACTORA$Chaco Nº 1.638%ZUFFIAURRE Luis Ramón$11.503.473$DEMANDADA$Antelo Nº 825, Federal%",6442,"jdocco0000frl",2018-08-01,2018-09-01
"8126","VILLANUEVA DAIANA Y OTROS C/ COGORNO LUIS ALBERTO Y OTROS","ORDINARIO ACCION REIVINDICATORIA","7","01/08/2017","90","3","04/05/2018 ",2018-08-01,"23/10/2018",NA,"1","S","2","1931",NA,"0","COGORNO LUIS ALBERTO$Documento Nacional Identidad 12.896.609$DEMANDADA$MAIPU Nº 695%GODOY YOLANDA CRISTINA$Documento Nacional Identidad 13.350.839$DEMANDADA$CALLE 26 y 108, 2DA. SECC. CHACRAS%VILLANUEVA DAIANA$33.317.871$ACTORA$ALEM Nº 449%VILLANUEVA ALESIO MIGUEL$$ACTORA$LEANDRO N. ALEM Nº 449%CARBALLO MONICA LILIANA$16.206.686$ACTORA$ALEM Nº 449%",6822,"jdocco0200gay",2018-08-01,2018-09-01
