"proc","org_circ","circunscripcion","cantidad"
"BENEFICIO DE LITIGAR SIN GASTOS","Jdo Fam Niñ Ado y Penal de Menores-La Paz","La Paz",21
"DIVORCIO POR MUTUO CONSENTIMIENTO","Jdo Fam Pen Niñ Ado-Tala","Tala",21
"EJECUCION DE HONORARIOS","Jdo Fam-Chajarí","Chajarí",21
"INCIDENTES (FAMILIA)","Jdo Fam-Chajarí","Chajarí",21
"MEDIDA DE PROTECCION DE PERSONA","Jdo Fam Pen Niñ Ado 2 -secr 1--Concordia","Concordia",21
"MONITORIO","Jdo Fam Pen Niñ Ado Sec 2-Colón","Colón",21
"OFICIOS ENTRE JUECES","Jdo Familia 3-Paraná","Paraná",21
"ORDINARIO (FAMILIA)","Jdo Familia 1-Paraná","Paraná",21
"RESTRICCIONES A LA CAPACIDAD","Jdo Familia 2-Paraná","Paraná",21
"ALIMENTOS","Jdo Fam Pen Niñ Ado Sec 2-Uruguay","Uruguay",22
"DELEGACION DE LA RESPONSABILIDAD PARENTAL","Jdo Fam Pen Niñ Ado 1 -secr 1--Concordia","Concordia",22
"INFORMACION SUMARIA","Jdo Fam Pen Niñ Ado 2 -secr 1--Concordia","Concordia",22
"MEDIDA CAUTELAR (FAMILIA)","Jdo Fam Pen Niñ Ado 1 -secr 2--Concordia","Concordia",22
"MEDIDA DE PROTECCION","Juzgado de Familia y Menores-Federal","Federal",22
"RESTRICCIONES A LA CAPACIDAD","Jdo Fam Pen Niñ Ado Sec 1-Gualeguaychú","Gualeguaychú",22
"ALIMENTOS","Jdo Fam Pen Niñ Ado-Diamante","Diamante",23
"ALIMENTOS Y LITIS EXPENSAS","Jdo Fam y Menores-Villaguay","Villaguay",23
"DIVORCIO POR MUTUO CONSENTIMIENTO","Jdo Fam y Pen Menores-Nogoyá","Nogoyá",23
"INCIDENTES (FAMILIA)","Jdo Fam Pen Niñ Ado Sec 1-Uruguay","Uruguay",23
"RESTRICCIONES A LA CAPACIDAD","Jdo Fam y Menores-Villaguay","Villaguay",23
"ALIMENTOS","Jdo Fam Pen Niñ Ado 2 -secr 2 --Concordia","Concordia",24
"ALIMENTOS","Juzgado de Familia y Menores-Federal","Federal",24
"BENEFICIO DE LITIGAR SIN GASTOS","Jdo Fam Pen Niñ Ado-Victoria","Victoria",24
"HOMOLOGACION DE CONVENIO (CIVIL)","Jdo Fam y Men-Feliciano","Feliciano",24
"MEDIDA CAUTELAR (FAMILIA)","Jdo Fam Pen Niñ Ado Sec 1-Uruguay","Uruguay",24
"MONITORIO","Jdo Civ y Com Lab Fam-Federación","Federación",24
"MONITORIO EJECUTIVO","Jdo Civ y Com Lab Fam-Federación","Federación",24
"OFICIOS ENTRE JUECES (CIVIL)","Jdo Fam Pen Niñ Ado Sec 2-Gualeguaychú","Gualeguaychú",24
"ORDINARIO (FAMILIA)","Jdo Fam Pen Niñ Ado 2 -secr 2 --Concordia","Concordia",24
"RESTRICCIONES A LA CAPACIDAD","Jdo Fam Pen Niñ Ado Sec 2-Gualeguaychú","Gualeguaychú",24
"RESTRICCIONES A LA CAPACIDAD","Jdo Fam Pen Niñ Ado-Tala","Tala",24
"DIVORCIO","Jdo Fam y Men-Feliciano","Feliciano",25
"EJECUCION DE HONORARIOS","Jdo Fam Pen Niñ Ado-Diamante","Diamante",25
"EJECUCION DE HONORARIOS","Jdo Fam Pen Niñ Ado-Tala","Tala",25
"MEDIDA CAUTELAR (FAMILIA)","Jdo Fam y Pen Menores-Nogoyá","Nogoyá",25
"ALIMENTOS","Jdo Fam-Chajarí","Chajarí",26
"COBRO DE PESOS","Jdo Civ y Com Lab Fam-San Salvador","San Salvador",26
"DELEGACION DE LA RESPONSABILIDAD PARENTAL","Jdo Familia 3-Paraná","Paraná",26
"EJECUCION DE HONORARIOS","Jdo Fam Pen Niñ Ado Sec 2-Colón","Colón",26
"OFICIOS ENTRE JUECES","Jdo Familia 1-Paraná","Paraná",26
"OFICIOS ENTRE JUECES (CIVIL)","Jdo Fam Pen Niñ Ado Sec 1-Uruguay","Uruguay",26
"ORDINARIO (FAMILIA)","Jdo Fam Pen Niñ Ado 1 -secr 2--Concordia","Concordia",26
"VIOLENCIA DE GENERO","Jdo Civ y Com Lab Fam-San Salvador","San Salvador",26
"VIOLENCIA DE GENERO","Juzgado de Familia y Menores-Federal","Federal",26
"ALIMENTOS","Jdo Fam y Pen Menores-Nogoyá","Nogoyá",27
"EJECUCION DE HONORARIOS","Jdo Fam Pen Niñ Ado Sec 2-Uruguay","Uruguay",27
"OFICIOS ENTRE JUECES (CIVIL)","Jdo Fam Pen Niñ Ado Sec 1-Gualeguaychú","Gualeguaychú",27
"HOMOLOGACION DE CONVENIO (CIVIL)","Jdo Fam Pen Niñ Ado 1 -secr 2--Concordia","Concordia",28
"HOMOLOGACION DE CONVENIO (CIVIL)","Jdo Fam y Pen Menores-Nogoyá","Nogoyá",28
"INTERNACION JUDICIAL","Jdo Familia 2-Paraná","Paraná",28
"MEDIDA CAUTELAR (FAMILIA)","Jdo Fam Pen Niñ Ado-Diamante","Diamante",28
"MEDIDA DE PROTECCION","Jdo Fam Pen Niñ Ado-Victoria","Victoria",28
"ORDINARIO (FAMILIA)","Jdo Fam Pen Niñ Ado Sec 2-Gualeguaychú","Gualeguaychú",28
"ORDINARIO (FAMILIA)","Juzgado de Familia y Menores-Federal","Federal",28
"SU SITUACION","Jdo Fam Pen Niñ Ado Sec 2-Colón","Colón",28
"INCIDENTES (FAMILIA)","Jdo Familia 2-Paraná","Paraná",29
"MEDIDA CAUTELAR (FAMILIA)","Jdo Fam-Chajarí","Chajarí",29
"RESTRICCIONES A LA CAPACIDAD","Jdo Familia 1-Paraná","Paraná",29
"SU SITUACION","Jdo Fam Niñ Ado y Penal de Menores-La Paz","La Paz",29
"SU SITUACION","Jdo Fam Pen Niñ Ado Sec 1-Colón","Colón",29
"SU SITUACION","Jdo Fam y Men-Feliciano","Feliciano",29
"VIOLENCIA FAMILIAR","Jdo Fam Pen Niñ Ado Sec 2-Colón","Colón",29
"ACCION DE AMPARO","Jdo Fam y Pen Menores-Nogoyá","Nogoyá",30
"ALIMENTOS","Jdo Fam-Gualeguay","Gualeguay",30
"EJECUCION DE HONORARIOS","Jdo Fam Pen Niñ Ado Sec 1-Uruguay","Uruguay",30
"OFICIOS ENTRE JUECES (CIVIL)","Jdo Fam Pen Niñ Ado Sec 1-Colón","Colón",30
"RESTRICCIONES A LA CAPACIDAD","Jdo Fam Pen Niñ Ado 2 -secr 1--Concordia","Concordia",30
"EJECUCION DE HONORARIOS","Jdo Familia 1-Paraná","Paraná",31
"EJECUCION DE HONORARIOS","Jdo Familia 3-Paraná","Paraná",31
"RESTRICCIONES A LA CAPACIDAD","Juzgado de Familia y Menores-Federal","Federal",31
"DIVORCIO","Jdo Fam Pen Niñ Ado Sec 1-Colón","Colón",32
"INCIDENTES (FAMILIA)","Jdo Fam-Gualeguay","Gualeguay",32
"MONITORIO","Jdo Civ y Com Lab Fam-San Salvador","San Salvador",32
"OFICIOS ENTRE JUECES (CIVIL)","Jdo Fam Pen Niñ Ado Sec 2-Colón","Colón",32
"VIOLENCIA DE GENERO","Jdo Fam Pen Niñ Ado Sec 2-Colón","Colón",32
"VIOLENCIA FAMILIAR","Jdo Fam Pen Niñ Ado-Tala","Tala",32
"INCIDENTES (FAMILIA)","Jdo Fam Pen Niñ Ado 1 -secr 1--Concordia","Concordia",33
"OFICIOS ENTRE JUECES","Jdo Fam Pen Niñ Ado Sec 1-Uruguay","Uruguay",33
"ALIMENTOS","Jdo Fam Pen Niñ Ado-Tala","Tala",34
"ORDINARIO (FAMILIA)","Jdo Fam Pen Niñ Ado-Tala","Tala",34
"VIOLENCIA FAMILIAR","Jdo Fam Pen Niñ Ado Sec 1-Colón","Colón",34
"HOMOLOGACION DE CONVENIO","Jdo Civ y Com Lab Fam-Federación","Federación",35
"HOMOLOGACION DE CONVENIO (CIVIL)","Jdo Fam Pen Niñ Ado Sec 1-Colón","Colón",35
"INTERNACION JUDICIAL","Jdo Fam Pen Niñ Ado-Diamante","Diamante",35
"ORDINARIO (FAMILIA)","Jdo Fam Pen Niñ Ado-Victoria","Victoria",35
"DIVORCIO","Jdo Fam Pen Niñ Ado Sec 2-Colón","Colón",36
"DIVORCIO POR MUTUO CONSENTIMIENTO","Jdo Fam-Gualeguay","Gualeguay",36
"RESTRICCIONES A LA CAPACIDAD","Jdo Fam Pen Niñ Ado 1 -secr 1--Concordia","Concordia",37
"ORDINARIO (FAMILIA)","Jdo Fam Pen Niñ Ado 1 -secr 1--Concordia","Concordia",38
"VIOLENCIA DE GENERO","Jdo Civ y Com Lab Fam-Federación","Federación",38
"MEDIDA DE PROTECCION EXCEPCIONAL","Jdo Familia 4-Paraná","Paraná",39
"OFICIOS ENTRE JUECES (CIVIL)","Jdo Fam y Menores-Villaguay","Villaguay",39
"ORDINARIO (FAMILIA)","Jdo Fam Pen Niñ Ado 2 -secr 1--Concordia","Concordia",39
"RESTRICCIONES A LA CAPACIDAD","Jdo Familia 4-Paraná","Paraná",39
"VIOLENCIA DE GENERO","Jdo Fam Pen Niñ Ado Sec 1-Colón","Colón",39
"AUTORIZACION JUDICIAL","Jdo Fam Pen Niñ Ado 2 -secr 1--Concordia","Concordia",40
"DELEGACION DE LA RESPONSABILIDAD PARENTAL","Jdo Fam Pen Niñ Ado 2 -secr 1--Concordia","Concordia",40
"DIVORCIO","Jdo Fam Pen Niñ Ado 2 -secr 2 --Concordia","Concordia",40
"MEDIDA DE PROTECCION EXCEPCIONAL","Jdo Familia 3-Paraná","Paraná",40
"REGIMEN DE COMUNICACION","Jdo Fam Pen Niñ Ado 2 -secr 1--Concordia","Concordia",40
"DIVORCIO","Jdo Civ y Com Lab Fam-Federación","Federación",41
"HOMOLOGACION DE CONVENIO (CIVIL)","Jdo Fam Pen Niñ Ado 2 -secr 2 --Concordia","Concordia",41
"HOMOLOGACION DE CONVENIO (CIVIL)","Jdo Fam Pen Niñ Ado Sec 2-Colón","Colón",41
"INTERNACION JUDICIAL","Jdo Familia 4-Paraná","Paraná",42
"OFICIOS ENTRE JUECES (CIVIL)","Jdo Familia 2-Paraná","Paraná",42
"DIVORCIO","Jdo Fam y Pen Menores-Nogoyá","Nogoyá",43
"MEDIDA DE PROTECCION DE PERSONA","Jdo Fam Pen Niñ Ado 1 -secr 1--Concordia","Concordia",43
"OFICIOS ENTRE JUECES (CIVIL)","Jdo Fam Pen Niñ Ado-Tala","Tala",43
"REGIMEN DE COMUNICACION","Jdo Fam Pen Niñ Ado 1 -secr 1--Concordia","Concordia",43
"DIVORCIO","Jdo Fam Pen Niñ Ado 1 -secr 2--Concordia","Concordia",45
"DIVORCIO","Juzgado de Familia y Menores-Federal","Federal",45
"HOMOLOGACION DE CONVENIO (CIVIL)","Jdo Fam Pen Niñ Ado-Diamante","Diamante",45
"INCIDENTES (FAMILIA)","Jdo Fam Pen Niñ Ado 2 -secr 1--Concordia","Concordia",46
"MEDIDA CAUTELAR (FAMILIA)","Jdo Fam Pen Niñ Ado 2 -secr 1--Concordia","Concordia",46
"INTERNACION JUDICIAL","Jdo Fam Pen Niñ Ado 2 -secr 2 --Concordia","Concordia",48
"VIOLENCIA FAMILIAR","Juzgado de Familia y Menores-Federal","Federal",48
"HOMOLOGACION DE CONVENIO (CIVIL)","Jdo Fam-Chajarí","Chajarí",49
"MEDIDA DE PROTECCION EXCEPCIONAL","Jdo Familia 1-Paraná","Paraná",49
"ALIMENTOS","Jdo Familia 2-Paraná","Paraná",50
"HOMOLOGACION DE CONVENIO (CIVIL)","Jdo Fam y Menores-Villaguay","Villaguay",50
"INTERNACION JUDICIAL","Jdo Familia 3-Paraná","Paraná",51
"EJECUCION DE HONORARIOS","Jdo Fam Pen Niñ Ado 1 -secr 1--Concordia","Concordia",52
"ALIMENTOS","Jdo Familia 4-Paraná","Paraná",53
"EJECUCION DE HONORARIOS","Jdo Fam Pen Niñ Ado 2 -secr 1--Concordia","Concordia",53
"INTERNACION JUDICIAL","Jdo Familia 1-Paraná","Paraná",54
"OFICIOS ENTRE JUECES (CIVIL)","Jdo Fam Pen Niñ Ado-Diamante","Diamante",54
"DIVORCIO","Jdo Fam Niñ Ado y Penal de Menores-La Paz","La Paz",55
"HOMOLOGACION DE CONVENIO (CIVIL)","Jdo Fam Niñ Ado y Penal de Menores-La Paz","La Paz",55
"MEDIDA CAUTELAR (FAMILIA)","Jdo Familia 3-Paraná","Paraná",55
"ALIMENTOS","Jdo Fam Pen Niñ Ado Sec 1-Gualeguaychú","Gualeguaychú",57
"DIVORCIO","Jdo Fam Pen Niñ Ado-Tala","Tala",57
"EJECUCION DE HONORARIOS","Jdo Fam-Gualeguay","Gualeguay",59
"MEDIDA CAUTELAR (FAMILIA)","Jdo Fam Pen Niñ Ado 1 -secr 1--Concordia","Concordia",59
"MEDIDA CAUTELAR (FAMILIA)","Jdo Familia 2-Paraná","Paraná",59
"SU SITUACION","Jdo Fam Pen Niñ Ado-Victoria","Victoria",60
"VIOLENCIA DE GENERO","Jdo Familia 2-Paraná","Paraná",60
"VIOLENCIA FAMILIAR","Jdo Civ y Com Lab Fam-San Salvador","San Salvador",61
"ALIMENTOS","Jdo Familia 3-Paraná","Paraná",62
"ALIMENTOS","Jdo Familia 1-Paraná","Paraná",63
"DIVORCIO","Jdo Fam Pen Niñ Ado-Victoria","Victoria",63
"EJECUCION DE HONORARIOS","Jdo Familia 2-Paraná","Paraná",63
"BENEFICIO DE LITIGAR SIN GASTOS","Jdo Fam Pen Niñ Ado-Tala","Tala",66
"OFICIOS ENTRE JUECES (CIVIL)","Jdo Fam Pen Niñ Ado 1 -secr 1--Concordia","Concordia",66
"SUCESORIO AB INTESTATO","Jdo Civ y Com Lab Fam-Federación","Federación",66
"HOMOLOGACION DE CONVENIO (CIVIL)","Jdo Fam Pen Niñ Ado-Tala","Tala",67
"SUCESORIOS (CIVIL)","Jdo Civ y Com Lab Fam-San Salvador","San Salvador",67
"INCIDENTES (FAMILIA)","Jdo Familia 4-Paraná","Paraná",68
"MEDIDA CAUTELAR (FAMILIA)","Jdo Familia 1-Paraná","Paraná",68
"VIOLENCIA DE GENERO","Jdo Fam y Men-Feliciano","Feliciano",69
"DIVORCIO","Jdo Fam-Gualeguay","Gualeguay",70
"EJECUCION DE HONORARIOS","Jdo Fam Pen Niñ Ado Sec 1-Gualeguaychú","Gualeguaychú",70
"EJECUCION DE HONORARIOS","Jdo Fam Pen Niñ Ado Sec 2-Gualeguaychú","Gualeguaychú",70
"OFICIOS ENTRE JUECES (CIVIL)","Jdo Fam Pen Niñ Ado Sec 2-Uruguay","Uruguay",71
"SUCESORIOS (CIVIL)","Jdo Fam Pen Niñ Ado Sec 2-Colón","Colón",72
"ALIMENTOS","Jdo Fam Pen Niñ Ado Sec 2-Gualeguaychú","Gualeguaychú",78
"INCIDENTES (FAMILIA)","Jdo Fam Pen Niñ Ado Sec 1-Gualeguaychú","Gualeguaychú",78
"OFICIOS ENTRE JUECES (CIVIL)","Jdo Fam Pen Niñ Ado 2 -secr 1--Concordia","Concordia",79
"VIOLENCIA FAMILIAR","Jdo Fam Pen Niñ Ado Sec 2-Gualeguaychú","Gualeguaychú",81
"VIOLENCIA FAMILIAR","Jdo Fam y Men-Feliciano","Feliciano",81
"HOMOLOGACION DE CONVENIO (CIVIL)","Jdo Fam Pen Niñ Ado Sec 2-Uruguay","Uruguay",82
"VIOLENCIA DE GENERO","Jdo Fam y Pen Menores-Nogoyá","Nogoyá",82
"DIVORCIO","Jdo Fam-Chajarí","Chajarí",84
"VIOLENCIA FAMILIAR","Jdo Fam Pen Niñ Ado Sec 1-Gualeguaychú","Gualeguaychú",86
"HOMOLOGACION DE CONVENIO (CIVIL)","Jdo Fam-Gualeguay","Gualeguay",87
"HOMOLOGACION DE CONVENIO (CIVIL)","Jdo Fam Pen Niñ Ado-Victoria","Victoria",88
"VIOLENCIA FAMILIAR","Jdo Familia 2-Paraná","Paraná",89
"VIOLENCIA DE GENERO","Jdo Fam Niñ Ado y Penal de Menores-La Paz","La Paz",90
"VIOLENCIA DE GENERO","Jdo Fam Pen Niñ Ado Sec 2-Gualeguaychú","Gualeguaychú",90
"HOMOLOGACION DE CONVENIO (CIVIL)","Jdo Familia 1-Paraná","Paraná",92
"INTERNACION JUDICIAL","Jdo Fam Pen Niñ Ado 1 -secr 2--Concordia","Concordia",95
"VIOLENCIA DE GENERO","Jdo Fam Pen Niñ Ado Sec 1-Gualeguaychú","Gualeguaychú",95
"DIVORCIO","Jdo Fam Pen Niñ Ado Sec 1-Uruguay","Uruguay",98
"DIVORCIO","Jdo Fam y Menores-Villaguay","Villaguay",98
"DIVORCIO","Jdo Fam Pen Niñ Ado-Diamante","Diamante",99
"HOMOLOGACION DE CONVENIO (CIVIL)","Jdo Fam Pen Niñ Ado Sec 1-Uruguay","Uruguay",99
"OFICIOS ENTRE JUECES (CIVIL)","Jdo Fam-Chajarí","Chajarí",102
"INCIDENTES (FAMILIA)","Jdo Fam Pen Niñ Ado Sec 2-Gualeguaychú","Gualeguaychú",104
"ALIMENTOS","Jdo Fam Pen Niñ Ado Sec 1-Uruguay","Uruguay",106
"DIVORCIO","Jdo Fam Pen Niñ Ado Sec 2-Uruguay","Uruguay",106
"VIOLENCIA FAMILIAR","Jdo Fam Pen Niñ Ado-Diamante","Diamante",106
"VIOLENCIA FAMILIAR","Jdo Fam Niñ Ado y Penal de Menores-La Paz","La Paz",107
"EJECUCION DE HONORARIOS","Jdo Familia 4-Paraná","Paraná",108
"DIVORCIO","Jdo Familia 2-Paraná","Paraná",109
"VIOLENCIA DE GENERO","Jdo Familia 3-Paraná","Paraná",115
"VIOLENCIA DE GENERO","Jdo Fam Pen Niñ Ado-Diamante","Diamante",117
"HOMOLOGACION DE CONVENIO (CIVIL)","Jdo Familia 2-Paraná","Paraná",118
"DIVORCIO","Jdo Familia 3-Paraná","Paraná",119
"HOMOLOGACION DE CONVENIO (CIVIL)","Jdo Familia 3-Paraná","Paraná",120
"DIVORCIO","Jdo Familia 1-Paraná","Paraná",122
"MEDIDA CAUTELAR (FAMILIA)","Jdo Familia 4-Paraná","Paraná",125
"DIVORCIO","Jdo Fam Pen Niñ Ado Sec 2-Gualeguaychú","Gualeguaychú",127
"HOMOLOGACION DE CONVENIO (CIVIL)","Jdo Fam Pen Niñ Ado 1 -secr 1--Concordia","Concordia",127
"VIOLENCIA FAMILIAR","Jdo Fam y Pen Menores-Nogoyá","Nogoyá",137
"DIVORCIO","Jdo Fam Pen Niñ Ado Sec 1-Gualeguaychú","Gualeguaychú",141
"VIOLENCIA DE GENERO","Jdo Familia 1-Paraná","Paraná",143
"VIOLENCIA DE GENERO","Jdo Fam Pen Niñ Ado Sec 1-Uruguay","Uruguay",145
"VIOLENCIA DE GENERO","Jdo Fam-Chajarí","Chajarí",146
"HOMOLOGACION DE CONVENIO (CIVIL)","Jdo Fam Pen Niñ Ado 2 -secr 1--Concordia","Concordia",155
"VIOLENCIA DE GENERO","Jdo Fam Pen Niñ Ado Sec 2-Uruguay","Uruguay",159
"VIOLENCIA FAMILIAR","Jdo Fam-Gualeguay","Gualeguay",165
"INTERNACION JUDICIAL","Jdo Fam Pen Niñ Ado 2 -secr 1--Concordia","Concordia",168
"VIOLENCIA DE GENERO","Jdo Fam Pen Niñ Ado-Tala","Tala",176
"VIOLENCIA DE GENERO","Jdo Fam Pen Niñ Ado-Victoria","Victoria",180
"VIOLENCIA DE GENERO","Jdo Familia 4-Paraná","Paraná",182
"INTERNACION JUDICIAL","Jdo Fam Pen Niñ Ado 1 -secr 1--Concordia","Concordia",190
"VIOLENCIA FAMILIAR","Jdo Civ y Com Lab Fam-Federación","Federación",192
"HOMOLOGACION DE CONVENIO (CIVIL)","Jdo Fam Pen Niñ Ado Sec 2-Gualeguaychú","Gualeguaychú",197
"DIVORCIO","Jdo Familia 4-Paraná","Paraná",201
"HOMOLOGACION DE CONVENIO (CIVIL)","Jdo Fam Pen Niñ Ado Sec 1-Gualeguaychú","Gualeguaychú",204
"HOMOLOGACION DE CONVENIO (CIVIL)","Jdo Familia 4-Paraná","Paraná",207
"VIOLENCIA DE GENERO","Jdo Fam y Menores-Villaguay","Villaguay",216
"DIVORCIO","Jdo Fam Pen Niñ Ado 2 -secr 1--Concordia","Concordia",231
"DIVORCIO","Jdo Fam Pen Niñ Ado 1 -secr 1--Concordia","Concordia",239
"ALIMENTOS","Jdo Fam Pen Niñ Ado 1 -secr 1--Concordia","Concordia",242
"VIOLENCIA FAMILIAR","Jdo Fam Pen Niñ Ado Sec 2-Uruguay","Uruguay",246
"VIOLENCIA FAMILIAR","Jdo Fam Pen Niñ Ado-Victoria","Victoria",258
"VIOLENCIA FAMILIAR","Jdo Familia 3-Paraná","Paraná",261
"ALIMENTOS","Jdo Fam Pen Niñ Ado 2 -secr 1--Concordia","Concordia",269
"VIOLENCIA FAMILIAR","Jdo Fam y Menores-Villaguay","Villaguay",277
"VIOLENCIA FAMILIAR","Jdo Fam Pen Niñ Ado Sec 1-Uruguay","Uruguay",278
"VIOLENCIA DE GENERO","Jdo Fam-Gualeguay","Gualeguay",327
"VIOLENCIA DE GENERO","Jdo Fam Pen Niñ Ado 2 -secr 1--Concordia","Concordia",389
"VIOLENCIA FAMILIAR","Jdo Familia 4-Paraná","Paraná",398
"VIOLENCIA FAMILIAR","Jdo Fam-Chajarí","Chajarí",417
"VIOLENCIA DE GENERO","Jdo Fam Pen Niñ Ado 1 -secr 1--Concordia","Concordia",477
"VIOLENCIA FAMILIAR","Jdo Familia 1-Paraná","Paraná",501
"VIOLENCIA FAMILIAR","Jdo Fam Pen Niñ Ado 2 -secr 1--Concordia","Concordia",520
"VIOLENCIA FAMILIAR","Jdo Fam Pen Niñ Ado 1 -secr 1--Concordia","Concordia",612
