"materia","codigo_procesos","tipo_de_procesos","Tipo_tramites_turnovoluntario","Penal_instanciayTipo_delito"
"familia",482,"FAMILIA",0,NA
"familia",483,"APELACION JUZGADO DE PAZ - VIOLENCIA",0,NA
"familia",484,"DELEGACION DE LA RESPONSABILIDAD PARENTAL",0,NA
"familia",485,"VIOLENCIA DE GENERO",0,NA
"familia",486,"RESPONSABILIDAD PARENTAL",0,NA
"familia",487,"CUIDADO PERSONAL DEL HIJO O DE LOS HIJOS",0,NA
"familia",488,"REGIMEN DE COMUNICACION",0,NA
"familia",489,"DIVORCIO",0,NA
"familia",490,"RESTRICCIONES A LA CAPACIDAD",0,NA
"familia",491,"DECLARACION JUDICIAL DE SITUACION DE ADOPTABILIDAD",0,NA
"familia",492,"ADOPCION DE INTEGRACION",0,NA
"familia",493,"MEDIDA PROVISIONAL",0,NA
"familia",494,"EXCLUSION DEL HOGAR",0,NA
"familia",495,"SALUD MENTAL",0,NA
"familia",496,"ATRIBUCION DE LA VIVIENDA FAMILIAR",0,NA
"familia",497,"HOMOLOGACION DE CONVENIO DE GUARDA",0,NA
"familia",498,"OFICIOS ENTRE JUECES (PROTECCIONAL)",0,NA
"familia",499,"HOMOLOGACION DE CONVENIO (PROTECCIONAL)",0,NA
"familia",500,"INSCRIPCION DE DEFUNCION (PROTECCIONAL)",0,NA
"familia",501,"INSCRIPCION DE PARTIDA EXTRANJERA (PROTECCIONAL)",0,NA
"familia",502,"INSCRIPCION DE SENTENCIA DE TRIBUNALES EXTRANJEROS (PROTECCIONAL)",0,NA
"familia",503,"COMPENSACION ECONOMICA",0,NA
"familia",504,"LOCALIZACION Y RESTITUCION",0,NA
"familia",505,"DESIGNACION DE CURADOR",0,NA
"familia",506,"ACCION DE SIMULACION",0,NA
"familia",507,"AUSENCIA POR DESAPARICION FORZADA",0,NA
"familia",508,"ACCION FRAUDE, NULIDAD, DAÑOS Y PERJUICIOS",0,NA
"familia",509,"ACCION DE DESIGNACION DE TUTOR AD LITEM\"\"",0,NA
"familia",510,"ACCION AUTONOMA ART. 264 TER. CODIGO CIVIL",0,NA
"familia",511,"ACCION DE HABEAS DATA",0,NA
"familia",512,"SEPARACION PERSONAL POR MUTUO CONSENTIMIENTO",0,NA
"familia",513,"RENDICION DE CUENTAS",0,NA
"familia",514,"IMPUGNACION DE RECONOCIMIENTO",0,NA
"familia",515,"GUARDA JUDICIAL",0,NA
"familia",516,"EJECUCION DE HONORARIOS",0,NA
"familia",517,"EJECUCION DE SENTENCIA",0,NA
"familia",518,"EJECUCION DE MULTA PROCESAL",0,NA
"familia",519,"EJECUCION DE CONVENIO",0,NA
"familia",520,"EJECUCION DE ALIMENTOS",0,NA
"familia",521,"DECLARACION DE AUSENCIA",0,NA
"familia",522,"ALIMENTOS Y LITIS EXPENSAS",0,NA
"familia",523,"ALIMENTOS",0,NA
"familia",524,"ACCION MERAMENTE DECLARATIVA",0,NA
"familia",525,"MEDIDA CAUTELAR (FAMILIA)",0,NA
"familia",526,"MEDIDA CAUTELAR DE REGIMEN DE COMUNICACION",0,NA
"familia",527,"MEDIDA CAUTELAR SUSPENSION REGIMEN DE COMUNICACION",0,NA
"familia",528,"MEDIDA CAUTELAR DE CUIDADO PERSONAL DE HIJOS",0,NA
"familia",529,"MEDIDA CAUTELAR SECUESTRO",0,NA
"familia",530,"MEDIDA CAUTELAR RESTITUCION DE HIJO",0,NA
"familia",531,"MEDIDA CAUTELAR PROTECCION DE PERSONA",0,NA
"familia",532,"MEDIDA CAUTELAR PROHIBICION DE INNOVAR",0,NA
"familia",533,"MEDIDA CAUTELAR PROHIBICION DE CONTRATAR",0,NA
"familia",534,"MEDIDA CAUTELAR INVENTARIO",0,NA
"familia",535,"MEDIDA CAUTELAR INTERNACION",0,NA
"familia",536,"MEDIDA CAUTELAR INNOVATIVA",0,NA
"familia",537,"MEDIDA CAUTELAR INHIBICION GENERAL DE BIENES",0,NA
"familia",538,"MEDIDA CAUTELAR IMPEDIMENTO DE CONTACTO",0,NA
"familia",539,"MEDIDA CAUTELAR GUARDA JUDICIAL",0,NA
"familia",540,"MEDIDA CAUTELAR GENERICA",0,NA
"familia",541,"MEDIDA CAUTELAR EXCLUSION DE HOGAR",0,NA
"familia",542,"MEDIDA CAUTELAR EMBARGO PREVENTIVO",0,NA
"familia",543,"MEDIDA CAUTELAR AUTOSATISFACTIVA",0,NA
"familia",544,"MEDIDA CAUTELAR ATRIBUCION DEL HOGAR",0,NA
"familia",545,"MEDIDA CAUTELAR ASEGURATIVA DE BIENES",0,NA
"familia",546,"MEDIDA CAUTELAR ANOTACION DE LITIS",0,NA
"familia",547,"MEDIDA CAUTELAR ALIMENTOS PROVISORIOS",0,NA
"familia",548,"TUTELA ESPECIAL",0,NA
"familia",549,"SUPLENCIA DE PARTIDA",0,NA
"familia",550,"REGULACION DE HONORARIOS",0,NA
"familia",551,"PROCESO VOLUNTARIO - NORMAS COMPLEMENT. ART. 814 C.P.C.y C",0,NA
"familia",552,"MEDIDA DE PROTECCION DE PERSONA",0,NA
"familia",553,"MEDIDA DE PROTECCION",0,NA
"familia",554,"INSCRIPCION DE NACIMIENTO",0,NA
"familia",555,"INFORMACION SUMARIA",0,NA
"familia",556,"IMPEDIMENTO DE CONTACTO",0,NA
"familia",557,"GUARDA CON FINES DE ADOPCION",0,NA
"familia",558,"EMANCIPACION",0,NA
"familia",559,"DIVORCIO POR MUTUO CONSENTIMIENTO",0,NA
"familia",560,"DILIGENCIAS PRELIMINARES",0,NA
"familia",561,"DEPOSITO A SU FAVOR",0,NA
"familia",562,"DECLARACION DE INHABILITACION",0,NA
"familia",563,"DECLARACION DE INCAPACIDAD",0,NA
"familia",564,"DECLARACION DE CAUSAHABIENTES",0,NA
"familia",565,"CURATELA",0,NA
"familia",566,"CAMBIO DE NOMBRE",0,NA
"familia",567,"BENEFICIO DE LITIGAR SIN GASTOS",0,NA
"familia",568,"AUTORIZACION JUDICIAL",0,NA
"familia",569,"APELACION RUAER - GUARDA C/FINES ADOPTIVOS",0,NA
"familia",570,"ADOPCION SIMPLE",0,NA
"familia",571,"ADOPCION PLENA",0,NA
"familia",572,"ADOPCION",0,NA
"familia",573,"ACCION DE INCONSTITUCIONALIDAD",0,NA
"familia",574,"PRUEBA ANTICIPADA",0,NA
"familia",575,"PENAL",0,NA
"familia",576,"CONSIGNACION DE ALIMENTOS",0,NA
"familia",577,"PROVISORIO",0,NA
"familia",578,"SUMARIO",0,NA
"familia",579,"LEVANTAMIENTO DE EMBARGO SIN TERCERIA",0,NA
"familia",580,"ACCION DE EJECUCION",0,NA
"familia",581,"ACCION DE AMPARO POR MORA",0,NA
"familia",582,"SU SITUACION",0,NA
"familia",583,"PATROCINIO INSTITUCIONAL",0,NA
"familia",584,"INCIDENTES (FAMILIA)",0,NA
"familia",585,"INCIDENTE LEVANTAMIENTO DE EMBARGO - OJO NO USAR BORRAR X INFORMATICA",0,NA
"familia",586,"INCIDENTE DE EMBARGO",0,NA
"familia",587,"INCIDENTE DE IMPUGNACION AL INVENTARIO Y AVALUO DE BIENES",0,NA
"familia",588,"INCIDENTE DE SUSPENSION DE SUBASTA",0,NA
"familia",589,"INCIDENTE DE ADMINISTRACION",0,NA
"familia",590,"INCIDENTE DE LEVANTAMIENTO DE EMBARGO",0,NA
"familia",591,"INCIDENTE DE FIJACION DE CANON LOCATIVO",0,NA
"familia",592,"INCIDENTE DE DESOCUPACION",0,NA
"familia",593,"INCIDENTE DE SUBASTA",0,NA
"familia",594,"INCIDENTE RECUSACION",0,NA
"familia",595,"INCIDENTE RESTITUCION DE COSA",0,NA
"familia",596,"INCIDENTE RESTITUCION DE BIENES",0,NA
"familia",597,"INCIDENTE RENDICION DE CUENTAS",0,NA
"familia",598,"INCIDENTE REDARGUCION DE FALSEDAD",0,NA
"familia",599,"INCIDENTE NULIDAD",0,NA
"familia",600,"INCIDENTE MODIFICACION MEDIDA CAUTELAR",0,NA
"familia",601,"INCIDENTE LIQUIDACION DE BIENES",0,NA
"familia",602,"INCIDENTE LEVANTAMIENTO MEDIDA CAUTELAR",0,NA
"familia",603,"INCIDENTE LEGAJO APELACION EFECTO DEVOLUTIVO",0,NA
"familia",604,"INCIDENTE INIDONEIDAD DE TESTIGO",0,NA
"familia",605,"INCIDENTE",0,NA
"familia",606,"INCIDENTE DILIGENCIAS PRELIMINARES",0,NA
"familia",607,"INCIDENTE DETERMINACION BASE ECONOMICA",0,NA
"familia",608,"INCIDENTE DE EXCUSACION",0,NA
"familia",609,"INCIDENTE COMPETENCIA",0,NA
"familia",610,"INCIDENTE ACUMULACION",0,NA
"familia",611,"INTERDICTO DE RECOBRAR",0,NA
"familia",612,"INCIDENTE TUTELA ESPECIAL",0,NA
"familia",613,"INCIDENTE TENENCIA DE HIJOS",0,NA
"familia",614,"INCIDENTE SEPARACION DE BIENES",0,NA
"familia",615,"INCIDENTE REINTEGRO AL HOGAR CONYUGAL",0,NA
"familia",616,"INCIDENTE REGULACION PROVISORIA DE HONORARIOS",0,NA
"familia",617,"INCIDENTE REGIMEN DE VISITAS",0,NA
"familia",618,"INCIDENTE REDUCCION CUOTA ALIMENTARIA",0,NA
"familia",619,"INCIDENTE MODIFICACION DE TENENCIA",0,NA
"familia",620,"INCIDENTE MODIFICACION REGIMEN DE VISITAS PROVISORIO",0,NA
"familia",621,"INCIDENTE MODIFICACION REGIMEN DE VISITAS",0,NA
"familia",622,"INCIDENTE MODIFICACION DE ALIMENTOS",0,NA
"familia",623,"INCIDENTE DESAFECTACION BIEN DE FAMILIA",0,NA
"familia",624,"INCIDENTE EJECUCION DE ALIMENTOS PROVISORIOS",0,NA
"familia",625,"INCIDENTE EJECUCION DE ALIMENTOS",0,NA
"familia",626,"INCIDENTE CURATELA",0,NA
"familia",627,"INCIDENTE CUMPLIMIENTO REGIMEN DE VISITAS",0,NA
"familia",628,"INCIDENTE CESE CUOTA ALIMENTARIA",0,NA
"familia",629,"INCIDENTE AUTORIZACION JUDICIAL",0,NA
"familia",630,"INCIDENTE AUMENTO CUOTA ALIMENTARIA",0,NA
"familia",631,"INCIDENTE ATRIBUCION HOGAR CONYUGAL",0,NA
"familia",632,"INCIDENTE ALIMENTOS EXTRAORDINARIOS",0,NA
"familia",633,"INCIDENTE LIQUIDACION REGIMEN DE COMUNIDAD",0,NA
"familia",634,"ORDINARIO (FAMILIA)",0,NA
"familia",635,"ORDINARIO",0,NA
"familia",636,"ORDINARIO SUSPENSION PATRIA POTESTAD",0,NA
"familia",637,"ORDINARIO TENENCIA DE HIJOS",0,NA
"familia",638,"ORDINARIO SEPARACION PERSONAL",0,NA
"familia",639,"ORDINARIO SEPARACION DE BIENES",0,NA
"familia",640,"ORDINARIO REGIMEN DE VISITAS",0,NA
"familia",641,"ORDINARIO PERDIDA PATRIA POTESTAD",0,NA
"familia",642,"ORDINARIO NULIDAD DE MATRIMONIO",0,NA
"familia",643,"ORDINARIO NULIDAD DE ADOPCION",0,NA
"familia",644,"ORDINARIO LIQUIDACION SOCIEDAD CONYUGAL",0,NA
"familia",645,"ORDINARIO IMPUGNACION DE PATERNIDAD",0,NA
"familia",646,"ORDINARIO IMPUGNACION DE MATERNIDAD",0,NA
"familia",647,"ORDINARIO IMPUGNACION DE FILIACION",0,NA
"familia",648,"ORDINARIO FILIACION E INDEMNIZACION DE DAÑOS",0,NA
"familia",649,"ORDINARIO FILIACION",0,NA
"familia",650,"ORDINARIO DIVORCIO",0,NA
"familia",651,"ORDINARIO DAÑOS Y PERJUICIOS",0,NA
"familia",652,"ORDINARIO ACCION MERAMENTE DECLARATIVA",0,NA
"familia",653,"ORDINARIO ACCION DE CONSIGNACION",0,NA
"familia",654,"ORDINARIO TERCERIA DE MEJOR DERECHO",0,NA
"familia",655,"ORDINARIO TERCERIA DE DOMINIO",0,NA
"familia",656,"ORDINARIO ACCION DE NULIDAD",0,NA
"familia",657,"RECONSTRUCCION DE EXPEDIENTE",0,NA
"familia",658,"ACCION AUTONOMA DE IDENTIDAD",0,NA
"familia",659,"VIOLENCIA FAMILIAR",0,NA
"familia",660,"PROCESO DE FAMILIA (por excusación)",0,NA
"familia",661,"DECLARACION DE ESTADO DE ABANDONO Y GUARDA PARA FUTURA ADOPCION",0,NA
"familia",662,"SUMARISIMO",0,NA
"familia",663,"ACCION DE AMPARO",0,NA
"familia",664,"INTERNACION JUDICIAL",0,NA
"familia",665,"RECTIFICACION DE PARTIDA",0,NA
"familia",666,"OFICIOS ENTRE JUECES (CIVIL)",0,NA
"familia",667,"HOMOLOGACION DE CONVENIO (CIVIL)",0,NA
"familia",668,"MEDIDA DE PROTECCION EXCEPCIONAL",0,NA
"familia",669,"CUMPLIMIENTO DE SENTENCIA",0,NA
"familia",670,"ACCION DE PROHIBICION",0,NA
"familia",671,"ACCION DE HABEAS CORPUS",0,NA
"familia",672,"TUTELA",0,NA
