"iep","ano","mes","aud_realizadas_mes","aud_norealizadas_mes","tasa_realizacion","conciliacion_total","sinconciliacion","tasa_conciliacion"
"jdocco0000fed",2017,11,8,0,1,0,3,0
"jdocco0000fed",2017,12,0,0,NA,1,1,0.5
"jdocco0000fed",2018,2,2,0,1,1,0,1
"jdocco0000fed",2018,3,6,1,0.86,1,1,0.5
"jdocco0000fed",2018,4,2,1,0.67,0,0,NA
"jdocco0000fed",2018,5,6,0,1,0,0,NA
"jdocco0000ssa",2017,10,22,1,0.96,0,19,0
"jdocco0000ssa",2017,11,22,0,1,0,22,0
"jdocco0000ssa",2017,12,10,11,0.48,1,20,0.05
"jdocco0000ssa",2018,2,12,0,1,0,13,0
"jdocco0000ssa",2018,3,18,1,0.95,1,18,0.05
"jdocco0000ssa",2018,4,8,2,0.8,0,9,0
"jdocco0000ssa",2018,5,22,2,0.92,2,24,0.08
"jdocco0000vpa",2017,12,3,1,0.75,0,1,0
"jdocco0000vpa",2018,2,1,0,1,0,0,NA
"jdocco0000vpa",2018,3,7,0,1,0,0,NA
"jdocco0000vpa",2018,4,8,0,1,0,4,0
"jdofam0000cha",2017,10,24,5,0.83,3,7,0.3
"jdofam0000cha",2017,11,29,1,0.97,4,1,0.8
"jdofam0000cha",2017,12,16,6,0.73,5,11,0.31
"jdofam0000cha",2018,1,4,0,1,0,0,NA
"jdofam0000cha",2018,2,10,3,0.77,2,2,0.5
"jdofam0000cha",2018,3,25,3,0.89,1,1,0.5
"jdofam0000cha",2018,4,34,6,0.85,5,4,0.56
"jdofam0000dia",2017,10,26,3,0.9,4,5,0.44
"jdofam0000dia",2017,11,30,4,0.88,0,0,NA
"jdofam0000dia",2017,12,33,5,0.87,9,3,0.75
"jdofam0000dia",2018,2,6,7,0.46,2,1,0.67
"jdofam0000dia",2018,3,21,3,0.88,7,2,0.78
"jdofam0000dia",2018,4,16,5,0.76,6,2,0.75
"jdofam0000dia",2018,5,13,1,0.93,1,3,0.25
"jdofam0000fel",2017,10,30,1,0.97,0,34,0
"jdofam0000fel",2017,11,12,1,0.92,1,6,0.14
"jdofam0000fel",2017,12,13,0,1,0,2,0
"jdofam0000fel",2018,2,9,4,0.69,0,6,0
"jdofam0000fel",2018,3,28,1,0.97,0,28,0
"jdofam0000fel",2018,4,21,3,0.88,0,18,0
"jdofam0000fel",2018,5,9,0,1,0,9,0
"jdofam0000frl",2017,11,0,0,NA,0,0,NA
"jdofam0000frl",2017,12,51,1,0.98,0,52,0
"jdofam0000frl",2018,2,49,0,1,0,49,0
"jdofam0000frl",2018,3,31,0,1,1,27,0.04
"jdofam0000frl",2018,4,17,1,0.94,0,38,0
"jdofam0000frl",2018,5,29,0,1,1,35,0.03
"jdofam0000gay",2017,10,64,2,0.97,11,8,0.58
"jdofam0000gay",2017,11,46,1,0.98,4,7,0.36
"jdofam0000gay",2017,12,40,0,1,8,0,1
"jdofam0000gay",2018,2,35,0,1,0,0,NA
"jdofam0000gay",2018,3,50,0,1,19,0,1
"jdofam0000gay",2018,4,58,31,0.65,4,10,0.29
"jdofam0000gay",2018,5,63,11,0.85,7,0,1
"jdofam0000lpa",2017,10,76,5,0.94,7,14,0.33
"jdofam0000lpa",2017,11,74,5,0.94,3,15,0.17
"jdofam0000lpa",2017,12,70,9,0.89,5,16,0.24
"jdofam0000lpa",2018,2,60,4,0.94,3,12,0.2
"jdofam0000lpa",2018,3,62,2,0.97,0,11,0
"jdofam0000lpa",2018,4,78,6,0.93,5,27,0.16
"jdofam0000lpa",2018,5,66,10,0.87,6,26,0.19
"jdofam0000nog",2017,10,15,14,0.52,3,2,0.6
"jdofam0000nog",2017,11,19,9,0.68,5,2,0.71
"jdofam0000nog",2017,12,19,9,0.68,0,0,NA
"jdofam0000nog",2018,2,19,10,0.66,2,3,0.4
"jdofam0000nog",2018,3,22,11,0.67,0,0,NA
"jdofam0000nog",2018,4,33,10,0.77,2,0,1
"jdofam0000nog",2018,5,13,12,0.52,1,1,0.5
"jdofam0000tal",2017,10,50,5,0.91,4,3,0.57
"jdofam0000tal",2017,11,37,6,0.86,5,5,0.5
"jdofam0000tal",2017,12,38,3,0.93,2,1,0.67
"jdofam0000tal",2018,2,20,2,0.91,0,1,0
"jdofam0000tal",2018,3,47,8,0.85,1,4,0.2
"jdofam0000tal",2018,4,46,7,0.87,1,3,0.25
"jdofam0000tal",2018,5,20,9,0.69,0,0,NA
"jdofam0000vic",2017,10,0,0,NA,0,0,NA
"jdofam0000vic",2017,11,0,0,NA,0,0,NA
"jdofam0000vic",2018,2,1,0,1,0,0,NA
"jdofam0000vic",2018,3,0,0,NA,0,0,NA
"jdofam0000vic",2018,4,0,0,NA,0,0,NA
"jdofam0000vic",2018,5,0,0,NA,0,0,NA
"jdofam0000vil",2017,10,68,7,0.91,19,22,0.46
"jdofam0000vil",2017,11,58,7,0.89,26,6,0.81
"jdofam0000vil",2017,12,43,3,0.93,22,2,0.92
"jdofam0000vil",2018,1,7,1,0.88,0,4,0
"jdofam0000vil",2018,2,24,11,0.69,15,3,0.83
"jdofam0000vil",2018,3,23,1,0.96,9,3,0.75
"jdofam0000vil",2018,4,20,5,0.8,7,5,0.58
"jdofam0000vil",2018,5,0,0,NA,0,0,NA
"jdofam0001col",2017,11,24,11,0.69,7,1,0.88
"jdofam0001col",2017,12,33,19,0.63,2,7,0.22
"jdofam0001col",2018,1,37,19,0.66,2,0,1
"jdofam0001col",2018,2,27,14,0.66,5,6,0.45
"jdofam0001col",2018,3,30,16,0.65,6,6,0.5
"jdofam0001col",2018,4,34,19,0.64,8,4,0.67
"jdofam0001col",2018,5,34,16,0.68,5,12,0.29
"jdofam0001gch",2017,10,11,6,0.65,1,6,0.14
"jdofam0001gch",2017,11,28,1,0.97,6,6,0.5
"jdofam0001gch",2017,12,19,2,0.9,10,2,0.83
"jdofam0001gch",2018,2,19,7,0.73,0,5,0
"jdofam0001gch",2018,3,35,4,0.9,1,5,0.17
"jdofam0001gch",2018,4,28,6,0.82,0,4,0
"jdofam0001gch",2018,5,33,11,0.75,12,4,0.75
"jdofam0001uru",2017,10,35,20,0.64,15,37,0.29
"jdofam0001uru",2017,11,49,30,0.62,17,53,0.24
"jdofam0001uru",2017,12,54,22,0.71,17,53,0.24
"jdofam0001uru",2018,2,36,19,0.65,14,37,0.27
"jdofam0001uru",2018,3,35,23,0.6,7,51,0.12
"jdofam0001uru",2018,4,36,16,0.69,7,51,0.12
"jdofam0001uru",2018,5,66,7,0.9,17,63,0.21
"jdofam0002col",2017,11,9,3,0.75,2,3,0.4
"jdofam0002col",2017,12,21,7,0.75,0,0,NA
"jdofam0002col",2018,2,27,2,0.93,0,0,NA
"jdofam0002col",2018,3,36,8,0.82,12,4,0.75
"jdofam0002col",2018,4,29,14,0.67,9,1,0.9
"jdofam0002col",2018,5,8,0,1,0,0,NA
"jdofam0002gch",2017,10,19,5,0.79,1,5,0.17
"jdofam0002gch",2017,11,14,4,0.78,2,7,0.22
"jdofam0002gch",2017,12,10,1,0.91,2,1,0.67
"jdofam0002gch",2018,2,12,8,0.6,2,6,0.25
"jdofam0002gch",2018,3,23,9,0.72,5,1,0.83
"jdofam0002gch",2018,4,0,0,NA,0,0,NA
"jdofam0002gch",2018,5,25,8,0.76,5,4,0.56
"jdofam0002uru",2017,10,35,20,0.64,15,37,0.29
"jdofam0002uru",2017,11,49,30,0.62,17,53,0.24
"jdofam0002uru",2017,12,54,22,0.71,17,53,0.24
"jdofam0002uru",2018,2,36,19,0.65,14,37,0.27
"jdofam0002uru",2018,3,35,23,0.6,7,51,0.12
"jdofam0002uru",2018,4,36,16,0.69,7,51,0.12
"jdofam0002uru",2018,5,66,7,0.9,17,63,0.21
"jdofam0100pna",2017,10,68,36,0.65,7,14,0.33
"jdofam0100pna",2017,11,57,26,0.69,9,12,0.43
"jdofam0100pna",2017,12,45,12,0.79,4,12,0.25
"jdofam0100pna",2018,2,52,28,0.65,3,11,0.21
"jdofam0100pna",2018,3,51,22,0.7,2,12,0.14
"jdofam0100pna",2018,4,67,19,0.78,5,18,0.22
"jdofam0100pna",2018,5,54,23,0.7,9,9,0.5
"jdofam0101con",2017,12,8,0,1,1,1,0.5
"jdofam0101con",2018,2,57,7,0.89,10,42,0.19
"jdofam0101con",2018,3,33,2,0.94,8,29,0.22
"jdofam0101con",2018,4,22,1,0.96,0,13,0
"jdofam0101con",2018,5,43,2,0.96,4,21,0.16
"jdofam0102con",2017,10,21,1,0.95,3,1,0.75
"jdofam0102con",2017,11,16,0,1,1,0,1
"jdofam0102con",2017,12,19,0,1,6,2,0.75
"jdofam0102con",2018,2,11,0,1,1,0,1
"jdofam0102con",2018,3,11,6,0.65,0,0,NA
"jdofam0102con",2018,4,3,5,0.38,0,1,0
"jdofam0102con",2018,5,14,1,0.93,1,1,0.5
"jdofam0200pna",2017,10,32,0,1,11,21,0.34
"jdofam0200pna",2017,11,34,0,1,6,29,0.17
"jdofam0200pna",2017,12,23,0,1,6,17,0.26
"jdofam0200pna",2018,2,33,0,1,9,24,0.27
"jdofam0200pna",2018,3,24,1,0.96,6,19,0.24
"jdofam0200pna",2018,4,29,0,1,8,21,0.28
"jdofam0200pna",2018,5,31,1,0.97,4,28,0.12
"jdofam0201con",2017,10,13,7,0.65,1,5,0.17
"jdofam0201con",2017,11,55,13,0.81,12,6,0.67
"jdofam0201con",2017,12,49,17,0.74,13,6,0.68
"jdofam0201con",2018,1,10,3,0.77,4,1,0.8
"jdofam0201con",2018,2,46,20,0.7,14,6,0.7
"jdofam0201con",2018,3,42,8,0.84,9,4,0.69
"jdofam0201con",2018,4,34,18,0.65,8,7,0.53
"jdofam0201con",2018,5,55,16,0.77,15,7,0.68
"jdofam0202con",2017,10,19,4,0.83,3,0,1
"jdofam0202con",2017,11,15,4,0.79,2,0,1
"jdofam0202con",2017,12,15,1,0.94,6,1,0.86
"jdofam0202con",2018,2,6,2,0.75,1,1,0.5
"jdofam0202con",2018,3,11,2,0.85,1,0,1
"jdofam0202con",2018,4,2,2,0.5,0,0,NA
"jdofam0202con",2018,5,7,4,0.64,0,1,0
"jdofam0300pna",2017,10,59,0,1,0,3,0
"jdofam0300pna",2017,11,55,18,0.75,1,2,0.33
"jdofam0300pna",2017,12,78,14,0.85,6,1,0.86
"jdofam0300pna",2018,2,64,33,0.66,6,4,0.6
"jdofam0300pna",2018,3,74,38,0.66,5,4,0.56
"jdofam0300pna",2018,4,79,27,0.75,11,3,0.79
"jdofam0300pna",2018,5,54,33,0.62,4,3,0.57
"jdofam0400pna",2017,10,2,2,0.5,2,0,1
"jdofam0400pna",2017,11,12,2,0.86,0,0,NA
"jdofam0400pna",2017,12,7,3,0.7,3,0,1
"jdofam0400pna",2018,2,12,1,0.92,2,2,0.5
"jdofam0400pna",2018,3,37,18,0.67,8,4,0.67
"jdofam0400pna",2018,4,33,8,0.8,5,1,0.83
"jdofam0400pna",2018,5,38,11,0.78,1,1,0.5
