descripcion_acto_esado,clasificacion,codigo
Sentencia definitiva ,Codigo_acto_procesal,PJ100
Sentencia interlocutoria,Codigo_acto_procesal,PJ110
Sentencia por allanamiento,Codigo_acto_procesal,PJ120
Sentencia por caducidad,Codigo_acto_procesal,PJ130
Sentencia por desistimiento de la acción y/o derecho,Codigo_acto_procesal,PJ140
Sentencia por conciliación o transacción ,Codigo_acto_procesal,PJ150
Sentencia de transe y remate,Codigo_acto_procesal,PJ160
Allanamiento ,Codigo_acto_procesal,PJ170
Archivo ,Codigo_acto_procesal,PJ180
Caducidad de instancia ,Codigo_acto_procesal,PJ200
Desistimiento de la acción y/o del derecho,Codigo_acto_procesal,PJ210
Conciliación o Transacción ,Codigo_acto_procesal,PJ220
Paralización,Codigo_acto_procesal,PJ230
Suspensión del juicio por muerte o incapacidad,Codigo_acto_procesal,PJ240
Acta de audiencia con acuerdo parcial,Codigo_acto_procesal,PJ250
Acta audiencia conciliación,Codigo_acto_procesal,PJ260
Acuerdo de honorarios,Codigo_acto_procesal,PJ270
Demanda,Codigo_acto_procesal,PJ280
Apertura a prueba,Codigo_acto_procesal,PJ290
Acta audiencia,Codigo_acto_procesal,PJ300
Autos para alegar,Codigo_acto_procesal,PJ310
Autos para sentencia ,Codigo_acto_procesal,PJ320
Contestación de demanda,Codigo_acto_procesal,PJ330
Declaración de puro derecho,Codigo_acto_procesal,PJ340
Declaración de rebeldía,Codigo_acto_procesal,PJ350
Declaración de incompetencia,Codigo_acto_procesal,PJ360
Declaratoria de herederos,Codigo_acto_procesal,PJ370
Intervención de terceros ,Codigo_acto_procesal,PJ380
Medidas cautelares general,Codigo_acto_procesal,PJ390
Medida cautelar embargo,Codigo_acto_procesal,PJ400
Medida cautelar inhibición general de bienes,Codigo_acto_procesal,PJ410
Mero trámite,Codigo_acto_procesal,PJ420
Reconvención,Codigo_acto_procesal,PJ430
Recurso de apelación,Codigo_acto_procesal,PJ440
Recurso de reposición ,Codigo_acto_procesal,PJ450
Recurso de nulidad,Codigo_acto_procesal,PJ460
Recurso de aclaratoria,Codigo_acto_procesal,PJ470
Regulación de honorarios,Codigo_acto_procesal,PJ480
Finalizado o resuelto,Código_estado_procesal,EP100
En trámite ,Código_estado_procesal,EP110
Mediación previa obligatoria,Código_estado_procesal,EP120
Archivado,Código_estado_procesal,EP130
Paralizado,Código_estado_procesal,EP140
