"circunscripcion";"organismo";"CONCURSOS/QUIEBRAS";"EJECUCIONES";"MONITORIOS";"SECUESTRO PRENDARIO";"ORDINARIOS";"INCIDENTES";"CAUTELARES";"SUCESORIOS";"PROC.COSTIT.";"PREPARATORIOS";"BENEF.LITIG.SG.";"OTROS";"Total"
"Concordia";"Jdo Civ y Com 5ambas sec CQ";5;822;1143;11;3;6;NA;NA;14;63;1;NA;2068
"Paraná";"Jdo Civ y Com 10 Sec 1";NA;424;1578;250;NA;4;13;NA;7;53;3;7;2339
"Paraná";"Jdo Civ y Com 10 Sec 2";NA;424;1416;233;NA;4;4;NA;7;44;NA;7;2139
"Paraná";"Jdo Civ y Com 9 Sec 1";49;41;NA;NA;1;30;1;NA;7;NA;NA;1;130
"Paraná";"Jdo Civ y Com 9 Sec 2";54;16;NA;NA;NA;39;NA;NA;8;NA;NA;3;120
"Uruguay";"Jdo Civ y Com 3-sec.CQu";2;61;129;NA;2;34;NA;6;1;NA;NA;NA;235
"Uruguay";"Jdo Civ y Com 3-sec.Eje";NA;136;378;11;4;5;NA;8;1;8;2;NA;553
"Total";"-";116;2775;5791;516;13;127;18;14;59;231;7;18;9685
