Organismo,Causas_Inic_oct_dic2017
jdopaz0000bov,542
jdopaz0000cre,327
jdopaz0000sjo,167
jdopaz0000vel,79
jdopaz0000sbe,61
jdopaz0000via,25
jdopaz0000mac,22
jdopaz0000urd,22
jdopaz0000mgr,20
jdopaz0000gal,19
jdopaz0000ram,18
jdopaz0000seg,18
jdopaz0000alc,16
jdopaz0000her,16
jdopaz0000cei,15
jdopaz0000hez,11
jdopaz0000ove,10
jdopaz0000sja,9
jdopaz0000lar,8
jdopaz0000vdo,8
jdopaz0000bas,7
jdopaz0000has,7
jdopaz0000ibi,7
jdopaz0000slu,6
jdopaz0000vur,6
jdopaz0000cer,5
jdopaz0000lgo,5
jdopaz0000cas,3
jdopaz0000gca,3
jdopaz0000vma,3
jdopaz0000vsa,3
jdopaz0000vca,2
jdopaz0000man,1
jdopaz0000pbr,1
jdopaz0000egr,0
jdopaz0000vpa,0
