Organismo,Iniciados_febrero_octubre
Jdo Paz Basavilbaso,94
Jdo de Paz Bovril,112
Jdo Paz Caseros,31
Jdo Paz Cerrito,18
Jdo Paz Crespo,207
Jdo Paz Estancia Gde,0
Jdo Paz Galarza,180
Jdo Paz Gral Campos,14
Jdo Paz Hasenkamp,34
Jdo Paz Hernandarias,31
Jdo Paz Hernandez,16
Jdo Paz Ibicuy,36
Jdo Paz Larroque,0
Jdo Paz Lucas Gonzalez,0
Jdo Paz Macia,78
Jdo Paz Mansilla,0
Jdo Paz Maria Grande,191
Jdo Paz Pueblo Brugo,0
Jdo Paz Ramirez,75
Jdo Paz San Benito,317
Jdo Paz Segui,53
Jdo de Paz Sta Elena,279
Jdo Paz San Jaime Front,0
Jdo Paz San Jose,209
Jdo Paz Sauce de Luna,23
Jdo Paz Urdinarrain,31
Jdo Paz Villa Clara,56
Jdo Paz Villa Dominguez,0
Jdo Paz Villa Elisa,165
Jdo Paz Viale,68
Jdo Paz Villa Mantero,0
Jdo Paz V.Paranacito,196
Jdo Paz Villa San Marcial,32
Jdo Paz Villa Urquiza,6
