"circunscripcion","organismo descripcion","dimension evaluada","Muy Bien","Bien","Regular","Mal","NS NC"
"Chajarí","Jdo Civ y Com 1 -ccomp.Laboral","depurac_prueba",41,6,0,0,0
"Chajarí","Jdo Civ y Com 1 -ccomp.Laboral","intent_concil",41,6,0,0,0
"Chajarí","Jdo Civ y Com 1 -ccomp.Laboral","trato",44,3,0,0,0
"Chajarí","Jdo Civ y Com 2 -ccomp.Laboral","depurac_prueba",33,12,3,0,0
"Chajarí","Jdo Civ y Com 2 -ccomp.Laboral","intent_concil",31,16,1,0,0
"Chajarí","Jdo Civ y Com 2 -ccomp.Laboral","trato",47,1,0,0,0
"Colón","Jdo Civ y Com 1","depurac_prueba",58,6,0,0,0
"Colón","Jdo Civ y Com 1","intent_concil",52,5,0,0,7
"Colón","Jdo Civ y Com 1","trato",62,2,0,0,0
"Colón","Jdo Civ y Com 2","depurac_prueba",50,1,0,0,0
"Colón","Jdo Civ y Com 2","intent_concil",42,6,1,0,2
"Colón","Jdo Civ y Com 2","trato",51,0,0,0,0
"Concordia","Jdo Civ y Com 1","depurac_prueba",71,9,0,0,0
"Concordia","Jdo Civ y Com 1","intent_concil",70,8,1,1,0
"Concordia","Jdo Civ y Com 1","trato",76,4,0,0,0
"Concordia","Jdo Civ y Com 2","depurac_prueba",90,6,0,0,1
"Concordia","Jdo Civ y Com 2","intent_concil",88,7,1,0,1
"Concordia","Jdo Civ y Com 2","trato",93,4,0,0,0
"Concordia","Jdo Civ y Com 3","depurac_prueba",58,3,0,0,0
"Concordia","Jdo Civ y Com 3","intent_concil",55,4,0,0,2
"Concordia","Jdo Civ y Com 3","trato",61,0,0,0,0
"Concordia","Jdo Civ y Com 4","depurac_prueba",64,6,1,0,0
"Concordia","Jdo Civ y Com 4","intent_concil",61,7,0,0,3
"Concordia","Jdo Civ y Com 4","trato",68,3,0,0,0
"Concordia","Jdo Civ y Com 6","depurac_prueba",83,1,0,0,0
"Concordia","Jdo Civ y Com 6","intent_concil",81,3,0,0,0
"Concordia","Jdo Civ y Com 6","trato",84,0,0,0,0
"Diamante","Jdo Civ y Com Lab","depurac_prueba",101,7,2,0,9
"Diamante","Jdo Civ y Com Lab","intent_concil",102,15,1,0,1
"Diamante","Jdo Civ y Com Lab","trato",114,4,1,0,0
"Federación","Jdo Civ y Com Lab Fam","depurac_prueba",33,7,0,0,0
"Federación","Jdo Civ y Com Lab Fam","intent_concil",39,1,0,0,0
"Federación","Jdo Civ y Com Lab Fam","trato",39,0,0,0,1
"Federal","Jdo Civ y Com Lab","depurac_prueba",58,10,0,0,1
"Federal","Jdo Civ y Com Lab","intent_concil",55,10,4,0,0
"Federal","Jdo Civ y Com Lab","trato",63,6,0,0,0
"Gualeguay","Jdo Civ y Com 1","depurac_prueba",41,1,0,0,0
"Gualeguay","Jdo Civ y Com 1","intent_concil",41,1,0,0,0
"Gualeguay","Jdo Civ y Com 1","trato",42,0,0,0,0
"Gualeguay","Jdo Civ y Com 2","depurac_prueba",41,4,1,0,0
"Gualeguay","Jdo Civ y Com 2","intent_concil",41,5,0,0,0
"Gualeguay","Jdo Civ y Com 2","trato",44,2,0,0,0
"Gualeguaychú","Jdo Civ y Com 1","depurac_prueba",16,0,0,0,0
"Gualeguaychú","Jdo Civ y Com 1","intent_concil",15,1,0,0,0
"Gualeguaychú","Jdo Civ y Com 1","trato",16,0,0,0,0
"Gualeguaychú","Jdo Civ y Com 2","depurac_prueba",48,5,1,0,1
"Gualeguaychú","Jdo Civ y Com 2","intent_concil",48,6,0,0,1
"Gualeguaychú","Jdo Civ y Com 2","trato",53,2,0,0,0
"Gualeguaychú","Jdo Civ y Com 3","depurac_prueba",18,2,0,0,1
"Gualeguaychú","Jdo Civ y Com 3","intent_concil",18,3,0,0,0
"Gualeguaychú","Jdo Civ y Com 3","trato",20,1,0,0,0
"Islas del Ibicuy","Jdo Civ Com y Lab","depurac_prueba",14,0,0,0,0
"Islas del Ibicuy","Jdo Civ Com y Lab","intent_concil",14,0,0,0,0
"Islas del Ibicuy","Jdo Civ Com y Lab","trato",12,2,0,0,0
"La Paz","Jdo Civ y Com 1 -ccomp.Laboral","depurac_prueba",8,1,1,0,0
"La Paz","Jdo Civ y Com 1 -ccomp.Laboral","intent_concil",9,0,0,1,0
"La Paz","Jdo Civ y Com 1 -ccomp.Laboral","trato",9,0,1,0,0
"La Paz","Jdo Civ y Com 2 -ccomp.Laboral","depurac_prueba",22,7,0,0,2
"La Paz","Jdo Civ y Com 2 -ccomp.Laboral","intent_concil",24,7,0,0,0
"La Paz","Jdo Civ y Com 2 -ccomp.Laboral","trato",27,4,0,0,0
"Nogoyá","Jdo Civ y Com 1 -ccomp.Laboral","depurac_prueba",23,10,0,0,0
"Nogoyá","Jdo Civ y Com 1 -ccomp.Laboral","intent_concil",24,9,0,0,0
"Nogoyá","Jdo Civ y Com 1 -ccomp.Laboral","trato",27,6,0,0,0
"Nogoyá","Jdo Civ y Com 2 -ccomp.Laboral","depurac_prueba",3,1,0,0,0
"Nogoyá","Jdo Civ y Com 2 -ccomp.Laboral","intent_concil",3,1,0,0,0
"Nogoyá","Jdo Civ y Com 2 -ccomp.Laboral","trato",3,1,0,0,0
"Paraná","Jdo Civ y Com 1","depurac_prueba",47,9,0,0,2
"Paraná","Jdo Civ y Com 1","intent_concil",52,5,0,1,0
"Paraná","Jdo Civ y Com 1","trato",56,2,0,0,0
"Paraná","Jdo Civ y Com 2","depurac_prueba",7,0,0,0,0
"Paraná","Jdo Civ y Com 2","intent_concil",6,1,0,0,0
"Paraná","Jdo Civ y Com 2","trato",7,0,0,0,0
"Paraná","Jdo Civ y Com 3","depurac_prueba",0,2,0,0,2
"Paraná","Jdo Civ y Com 3","intent_concil",2,1,0,0,1
"Paraná","Jdo Civ y Com 3","trato",3,0,0,0,1
"Paraná","Jdo Civ y Com 4","depurac_prueba",37,1,0,0,0
"Paraná","Jdo Civ y Com 4","intent_concil",33,2,0,0,3
"Paraná","Jdo Civ y Com 4","trato",38,0,0,0,0
"Paraná","Jdo Civ y Com 5","depurac_prueba",26,6,1,0,0
"Paraná","Jdo Civ y Com 5","intent_concil",27,1,4,0,1
"Paraná","Jdo Civ y Com 5","trato",30,3,0,0,0
"Paraná","Jdo Civ y Com 6","depurac_prueba",74,10,0,0,0
"Paraná","Jdo Civ y Com 6","intent_concil",74,7,2,1,0
"Paraná","Jdo Civ y Com 6","trato",83,1,0,0,0
"Paraná","Jdo Civ y Com 7","depurac_prueba",71,4,3,0,1
"Paraná","Jdo Civ y Com 7","intent_concil",68,10,0,0,1
"Paraná","Jdo Civ y Com 7","trato",77,2,0,0,0
"Paraná","Jdo Civ y Com 8","depurac_prueba",49,9,1,0,0
"Paraná","Jdo Civ y Com 8","intent_concil",55,4,0,0,0
"Paraná","Jdo Civ y Com 8","trato",58,1,0,0,0
"San Salvador","Jdo Civ y Com Lab Fam","depurac_prueba",16,4,0,0,0
"San Salvador","Jdo Civ y Com Lab Fam","intent_concil",16,4,0,0,0
"San Salvador","Jdo Civ y Com Lab Fam","trato",17,3,0,0,0
"Tala","Jdo Civ y Com -ccomp.Laboral","depurac_prueba",23,7,1,0,0
"Tala","Jdo Civ y Com -ccomp.Laboral","intent_concil",19,3,3,2,4
"Tala","Jdo Civ y Com -ccomp.Laboral","trato",29,2,0,0,0
"Uruguay","Jdo Civ y Com 1","depurac_prueba",77,6,0,0,3
"Uruguay","Jdo Civ y Com 1","intent_concil",75,6,2,0,3
"Uruguay","Jdo Civ y Com 1","trato",84,2,0,0,0
"Uruguay","Jdo Civ y Com 2","depurac_prueba",59,1,0,0,0
"Uruguay","Jdo Civ y Com 2","intent_concil",58,1,0,0,1
"Uruguay","Jdo Civ y Com 2","trato",59,1,0,0,0
"Victoria","Jdo Civ y Com -ccomp.Laboral","depurac_prueba",34,1,0,0,7
"Victoria","Jdo Civ y Com -ccomp.Laboral","intent_concil",38,4,0,0,0
"Victoria","Jdo Civ y Com -ccomp.Laboral","trato",40,2,0,0,0
"Villaguay","Jdo Civ y Com 1 -ccomp.Laboral","depurac_prueba",63,15,2,0,0
"Villaguay","Jdo Civ y Com 1 -ccomp.Laboral","intent_concil",66,11,2,0,1
"Villaguay","Jdo Civ y Com 1 -ccomp.Laboral","trato",69,9,2,0,0
"Villaguay","Jdo Civ y Com 2 -ccomp.Laboral","depurac_prueba",72,3,2,0,0
"Villaguay","Jdo Civ y Com 2 -ccomp.Laboral","intent_concil",70,5,2,0,0
"Villaguay","Jdo Civ y Com 2 -ccomp.Laboral","trato",74,3,0,0,0
"Total","-","-",5021,445,47,6,64
