"circunscripcion","organismo descripcion","dimension evaluada","Muy Bien","Bien","Regular","Mal","NS NC"
"Chajarí","Jdo Civ y Com 1 -ccomp.Laboral","instalaciones",1,0,0,0,0
"Chajarí","Jdo Civ y Com 1 -ccomp.Laboral","intent_concil",0,0,0,0,1
"Chajarí","Jdo Civ y Com 1 -ccomp.Laboral","plazo_resol",1,0,0,0,0
"Chajarí","Jdo Civ y Com 1 -ccomp.Laboral","trato",1,0,0,0,0
"Colón","Jdo Civ y Com 1 -ccomp.Laboral","instalaciones",2,0,0,0,0
"Colón","Jdo Civ y Com 1 -ccomp.Laboral","intent_concil",2,0,0,0,0
"Colón","Jdo Civ y Com 1 -ccomp.Laboral","plazo_resol",1,0,0,0,1
"Colón","Jdo Civ y Com 1 -ccomp.Laboral","trato",2,0,0,0,0
"Colón","Jdo Civ y Com 2 -ccomp.Laboral","instalaciones",0,1,0,0,0
"Colón","Jdo Civ y Com 2 -ccomp.Laboral","intent_concil",1,0,0,0,0
"Colón","Jdo Civ y Com 2 -ccomp.Laboral","plazo_resol",1,0,0,0,0
"Colón","Jdo Civ y Com 2 -ccomp.Laboral","trato",1,0,0,0,0
"Concordia","Jdo Civ y Com 1","instalaciones",5,0,0,0,0
"Concordia","Jdo Civ y Com 1","intent_concil",5,0,0,0,0
"Concordia","Jdo Civ y Com 1","plazo_resol",5,0,0,0,0
"Concordia","Jdo Civ y Com 1","trato",5,0,0,0,0
"Concordia","Jdo Civ y Com 2","instalaciones",12,1,0,0,0
"Concordia","Jdo Civ y Com 2","intent_concil",12,1,0,0,0
"Concordia","Jdo Civ y Com 2","plazo_resol",11,2,0,0,0
"Concordia","Jdo Civ y Com 2","trato",12,1,0,0,0
"Concordia","Jdo Civ y Com 4","instalaciones",1,0,0,0,0
"Concordia","Jdo Civ y Com 4","intent_concil",1,0,0,0,0
"Concordia","Jdo Civ y Com 4","plazo_resol",1,0,0,0,0
"Concordia","Jdo Civ y Com 4","trato",1,0,0,0,0
"Concordia","Jdo Civ y Com 6","instalaciones",7,0,0,0,0
"Concordia","Jdo Civ y Com 6","intent_concil",7,0,0,0,0
"Concordia","Jdo Civ y Com 6","plazo_resol",7,0,0,0,0
"Concordia","Jdo Civ y Com 6","trato",7,0,0,0,0
"Diamante","Jdo Civ y Com Lab","instalaciones",0,1,0,0,1
"Diamante","Jdo Civ y Com Lab","intent_concil",2,0,0,0,0
"Diamante","Jdo Civ y Com Lab","plazo_resol",1,1,0,0,0
"Diamante","Jdo Civ y Com Lab","trato",2,0,0,0,0
"Gualeguay","Jdo Civ y Com 1","instalaciones",2,1,0,1,0
"Gualeguay","Jdo Civ y Com 1","intent_concil",3,1,0,0,0
"Gualeguay","Jdo Civ y Com 1","plazo_resol",2,2,0,0,0
"Gualeguay","Jdo Civ y Com 1","trato",4,0,0,0,0
"Gualeguay","Jdo Civ y Com 2","instalaciones",1,0,0,0,0
"Gualeguay","Jdo Civ y Com 2","intent_concil",1,0,0,0,0
"Gualeguay","Jdo Civ y Com 2","plazo_resol",1,0,0,0,0
"Gualeguay","Jdo Civ y Com 2","trato",1,0,0,0,0
"Gualeguaychú","Jdo Civ y Com 2","instalaciones",0,0,2,0,0
"Gualeguaychú","Jdo Civ y Com 2","intent_concil",2,0,0,0,0
"Gualeguaychú","Jdo Civ y Com 2","plazo_resol",2,0,0,0,0
"Gualeguaychú","Jdo Civ y Com 2","trato",2,0,0,0,0
"Gualeguaychú","Jdo Civ y Com 3","instalaciones",0,1,1,0,0
"Gualeguaychú","Jdo Civ y Com 3","intent_concil",1,1,0,0,0
"Gualeguaychú","Jdo Civ y Com 3","plazo_resol",1,1,0,0,0
"Gualeguaychú","Jdo Civ y Com 3","trato",2,0,0,0,0
"Islas del Ibicuy","Jdo Civ Com y Lab","instalaciones",2,2,0,0,0
"Islas del Ibicuy","Jdo Civ Com y Lab","intent_concil",0,4,0,0,0
"Islas del Ibicuy","Jdo Civ Com y Lab","plazo_resol",4,0,0,0,0
"Islas del Ibicuy","Jdo Civ Com y Lab","trato",2,0,2,0,0
"La Paz","Jdo Civ y Com 1 -ccomp.Laboral","instalaciones",5,4,1,0,0
"La Paz","Jdo Civ y Com 1 -ccomp.Laboral","intent_concil",9,1,0,0,0
"La Paz","Jdo Civ y Com 1 -ccomp.Laboral","plazo_resol",9,1,0,0,0
"La Paz","Jdo Civ y Com 1 -ccomp.Laboral","trato",10,0,0,0,0
"La Paz","Jdo Civ y Com 2 -ccomp.Laboral","instalaciones",1,0,1,0,0
"La Paz","Jdo Civ y Com 2 -ccomp.Laboral","intent_concil",2,0,0,0,0
"La Paz","Jdo Civ y Com 2 -ccomp.Laboral","plazo_resol",2,0,0,0,0
"La Paz","Jdo Civ y Com 2 -ccomp.Laboral","trato",2,0,0,0,0
"Nogoyá","Jdo Civ y Com 1 -ccomp.Laboral","instalaciones",0,5,2,0,0
"Nogoyá","Jdo Civ y Com 1 -ccomp.Laboral","intent_concil",3,4,0,0,0
"Nogoyá","Jdo Civ y Com 1 -ccomp.Laboral","plazo_resol",2,4,1,0,0
"Nogoyá","Jdo Civ y Com 1 -ccomp.Laboral","trato",5,2,0,0,0
"Paraná","Jdo Civ y Com 7","instalaciones",8,2,0,0,0
"Paraná","Jdo Civ y Com 7","intent_concil",7,2,0,0,1
"Paraná","Jdo Civ y Com 7","plazo_resol",8,1,0,0,1
"Paraná","Jdo Civ y Com 7","trato",8,2,0,0,0
"Paraná","Jdo Civ y Com 8","instalaciones",2,0,0,0,0
"Paraná","Jdo Civ y Com 8","intent_concil",2,0,0,0,0
"Paraná","Jdo Civ y Com 8","plazo_resol",1,1,0,0,0
"Paraná","Jdo Civ y Com 8","trato",2,0,0,0,0
"Paraná","Jdo Civ y Com 9 Sec 2","instalaciones",1,0,0,0,0
"Paraná","Jdo Civ y Com 9 Sec 2","intent_concil",1,0,0,0,0
"Paraná","Jdo Civ y Com 9 Sec 2","plazo_resol",1,0,0,0,0
"Paraná","Jdo Civ y Com 9 Sec 2","trato",1,0,0,0,0
"Tala","Jdo Civ y Com -ccomp.Laboral","instalaciones",1,0,0,0,0
"Tala","Jdo Civ y Com -ccomp.Laboral","intent_concil",1,0,0,0,0
"Tala","Jdo Civ y Com -ccomp.Laboral","plazo_resol",1,0,0,0,0
"Tala","Jdo Civ y Com -ccomp.Laboral","trato",1,0,0,0,0
"Uruguay","Jdo Civ y Com 1","instalaciones",10,1,0,0,0
"Uruguay","Jdo Civ y Com 1","intent_concil",10,1,0,0,0
"Uruguay","Jdo Civ y Com 1","plazo_resol",9,1,0,0,1
"Uruguay","Jdo Civ y Com 1","trato",10,1,0,0,0
"Uruguay","Jdo Civ y Com 2","instalaciones",1,0,0,0,0
"Uruguay","Jdo Civ y Com 2","intent_concil",1,0,0,0,0
"Uruguay","Jdo Civ y Com 2","plazo_resol",1,0,0,0,0
"Uruguay","Jdo Civ y Com 2","trato",1,0,0,0,0
"Villaguay","Jdo Civ y Com 2 -ccomp.Laboral","instalaciones",8,5,1,0,0
"Villaguay","Jdo Civ y Com 2 -ccomp.Laboral","intent_concil",9,3,0,0,2
"Villaguay","Jdo Civ y Com 2 -ccomp.Laboral","plazo_resol",8,3,0,0,3
"Villaguay","Jdo Civ y Com 2 -ccomp.Laboral","trato",12,2,0,0,0
"Total","-","-",326,67,11,1,11
