"nro","caratula","tproc","realizada","trato","depurac_prueba","intent_concil","instalaciones","id_submission","iep","data_interval_start","data_interval_end"
"5498","MARTINEZ UBALDO ROBERTO C/ FURNO JUAN EDGARDO","ORDINARIO DAÑOS Y PERJUICIOS","16/08/2018","3","3","3","3",6194,"jdocco0200nog",2018-08-01,2018-09-01
"7613","CASTAGNANI, Germán Horacio C/ SUPERIOR GOBIERNO DE LA PROVINCIA DE ENTRE RIOS","USUCAPION","21/08/2018","4","4","4","4",6195,"jdocco0200con",2018-08-01,2018-09-01
"7613","CASTAGNANI, Germán Horacio C/ SUPERIOR GOBIERNO DE LA PROVINCIA DE ENTRE RIOS","USUCAPION","21/08/2018","4","4","4","4",6195,"jdocco0200con",2018-08-01,2018-09-01
"8165","GIOVANARDI DE GRAZIANO, Marta Graciela C/ WARNER, Vanina y Otro","ORDINARIO","09/08/2018","4","4","4","4",6195,"jdocco0200con",2018-08-01,2018-09-01
"8099","GIOVANARDI de GRAZIANO, Marta Graciela C/ WARNER, Vanina y LOPEZ, Alcides Marcelo","DESALOJO","09/08/2018","4","4","4","4",6195,"jdocco0200con",2018-08-01,2018-09-01
"8165","GIOVANARDI DE GRAZIANO, Marta Graciela C/ WARNER, Vanina y Otro","ORDINARIO","09/08/2018","4","4","4","4",6195,"jdocco0200con",2018-08-01,2018-09-01
"8165","GIOVANARDI DE GRAZIANO, Marta Graciela C/ WARNER, Vanina y Otro","ORDINARIO","09/08/2018","4","4","4","4",6195,"jdocco0200con",2018-08-01,2018-09-01
"8099","GIOVANARDI de GRAZIANO, Marta Graciela C/ WARNER, Vanina y LOPEZ, Alcides Marcelo","DESALOJO","09/08/2018","4","4","4","4",6195,"jdocco0200con",2018-08-01,2018-09-01
"8099","GIOVANARDI de GRAZIANO, Marta Graciela C/ WARNER, Vanina y LOPEZ, Alcides Marcelo","DESALOJO","09/08/2018","4","4","4","4",6195,"jdocco0200con",2018-08-01,2018-09-01
"7882","WILLIMAN, Martín y Otra C/ OBARRIO, Hernán Eugenio y Otros","ORDINARIO","14/08/2018","4","4","4","4",6195,"jdocco0200con",2018-08-01,2018-09-01
"7882","WILLIMAN, Martín y Otra C/ OBARRIO, Hernán Eugenio y Otros","ORDINARIO","14/08/2018","4","4","4","4",6195,"jdocco0200con",2018-08-01,2018-09-01
"7882","WILLIMAN, Martín y Otra C/ OBARRIO, Hernán Eugenio y Otros","ORDINARIO","14/08/2018","4","4","4","4",6195,"jdocco0200con",2018-08-01,2018-09-01
"8330","GOMEZ, Sandra Roxana C/ WEIGANDT, Roberto Maximiliano","ORDINARIO (CIVIL)","28/08/2018","4","4","4","2",6211,"jdocco0600con",2018-08-01,2018-09-01
"8330","GOMEZ, Sandra Roxana C/ WEIGANDT, Roberto Maximiliano","ORDINARIO (CIVIL)","28/08/2018","4","4","4","3",6211,"jdocco0600con",2018-08-01,2018-09-01
"8330","GOMEZ, Sandra Roxana C/ WEIGANDT, Roberto Maximiliano","ORDINARIO (CIVIL)","28/08/2018","4","4","4","4",6211,"jdocco0600con",2018-08-01,2018-09-01
"8330","GOMEZ, Sandra Roxana C/ WEIGANDT, Roberto Maximiliano","ORDINARIO (CIVIL)","28/08/2018","4","4","4","2",6211,"jdocco0600con",2018-08-01,2018-09-01
"8331","GRAZIANO, María Concepción C/ GRAZIANO, Leonardo Antonio","ORDINARIO REVOCATORIA DE DONACION","22/08/2018","4","4","4","3",6211,"jdocco0600con",2018-08-01,2018-09-01
"8331","GRAZIANO, María Concepción C/ GRAZIANO, Leonardo Antonio","ORDINARIO REVOCATORIA DE DONACION","22/08/2018","4","4","4","4",6211,"jdocco0600con",2018-08-01,2018-09-01
"8331","GRAZIANO, María Concepción C/ GRAZIANO, Leonardo Antonio","ORDINARIO REVOCATORIA DE DONACION","22/08/2018","4","4","4","3",6211,"jdocco0600con",2018-08-01,2018-09-01
"8280","GUTMAN, Enrique C/ GALEANO, Ramón Américo","ORDINARIO (CIVIL)","16/08/2018","4","4","4","2",6211,"jdocco0600con",2018-08-01,2018-09-01
"8280","GUTMAN, Enrique C/ GALEANO, Ramón Américo","ORDINARIO (CIVIL)","16/08/2018","4","4","4","4",6211,"jdocco0600con",2018-08-01,2018-09-01
"8280","GUTMAN, Enrique C/ GALEANO, Ramón Américo","ORDINARIO (CIVIL)","16/08/2018","4","4","4","4",6211,"jdocco0600con",2018-08-01,2018-09-01
"7973","MEDINA, Diego Angel C/ BBVA CONSOLIDAR SEGUROS S.A.","ORDINARIO (CIVIL)","21/08/2018","4","4","4","4",6211,"jdocco0600con",2018-08-01,2018-09-01
"8048","OLIVERA, Griselda C/ AUTOCREDITO S.A. de CAPITALIZACIÓN","ORDINARIO","29/08/2018","4","4","4","4",6211,"jdocco0600con",2018-08-01,2018-09-01
"8048","OLIVERA, Griselda C/ AUTOCREDITO S.A. de CAPITALIZACIÓN","ORDINARIO","29/08/2018","4","4","4","2",6211,"jdocco0600con",2018-08-01,2018-09-01
"8338","RÍOS, Ramiro y Otros C/ GILABERT, Elsa Susana y Otros","DIVISION DE CONDOMINIO","07/08/2018","4","4","4","4",6211,"jdocco0600con",2018-08-01,2018-09-01
"8338","RÍOS, Ramiro y Otros C/ GILABERT, Elsa Susana y Otros","DIVISION DE CONDOMINIO","07/08/2018","4","4","4","2",6211,"jdocco0600con",2018-08-01,2018-09-01
"8338","RÍOS, Ramiro y Otros C/ GILABERT, Elsa Susana y Otros","DIVISION DE CONDOMINIO","07/08/2018","4","4","4","4",6211,"jdocco0600con",2018-08-01,2018-09-01
"8023","SERUR, Carlos Rolando C/ SILVEIRA, Alejandro y Otra","ORDINARIO (CIVIL)","14/08/2018","4","4","4","4",6211,"jdocco0600con",2018-08-01,2018-09-01
"8023","SERUR, Carlos Rolando C/ SILVEIRA, Alejandro y Otra","ORDINARIO (CIVIL)","14/08/2018","4","4","4","3",6211,"jdocco0600con",2018-08-01,2018-09-01
"8023","SERUR, Carlos Rolando C/ SILVEIRA, Alejandro y Otra","ORDINARIO (CIVIL)","14/08/2018","4","4","4","4",6211,"jdocco0600con",2018-08-01,2018-09-01
"5651","SISTEMA DE CREDITO DE LA PROVINCIA DE ENTRE RIOS S.A.(SI.DE.CRE.ER. S.A.) C/ GUIBAUDO, Jorge Arnoldo","ORDINARIO COBRO DE PESOS","22/08/2018","4","4","4","2",6247,"jdocco0300con",2018-08-01,2018-09-01
"5651","SISTEMA DE CREDITO DE LA PROVINCIA DE ENTRE RIOS S.A.(SI.DE.CRE.ER. S.A.) C/ GUIBAUDO, Jorge Arnoldo","ORDINARIO COBRO DE PESOS","22/08/2018","4","3","3","3",6247,"jdocco0300con",2018-08-01,2018-09-01
"12209","CASTILLO, Maria Isabel y otro C/ ORGE, Juan Pablo y otro","ORDINARIO DAÑOS Y PERJUICIOS","14/08/2018","3","3","3","3",6256,"jdocco0100con",2018-08-01,2018-09-01
"12209","CASTILLO, Maria Isabel y otro C/ ORGE, Juan Pablo y otro","ORDINARIO DAÑOS Y PERJUICIOS","14/08/2018","3","3","3","2",6256,"jdocco0100con",2018-08-01,2018-09-01
"12209","CASTILLO, Maria Isabel y otro C/ ORGE, Juan Pablo y otro","ORDINARIO DAÑOS Y PERJUICIOS","14/08/2018","4","3","3","4",6256,"jdocco0100con",2018-08-01,2018-09-01
"12209","CASTILLO, Maria Isabel y otro C/ ORGE, Juan Pablo y otro","ORDINARIO DAÑOS Y PERJUICIOS","14/08/2018","4","4","4","3",6256,"jdocco0100con",2018-08-01,2018-09-01
"10981","FLORES, Olga Celina C/ LENCINA, Rosa Amalia y otros","ORDINARIO ACCION REIVINDICATORIA","16/08/2018","4","4","4","4",6256,"jdocco0100con",2018-08-01,2018-09-01
"10981","FLORES, Olga Celina C/ LENCINA, Rosa Amalia y otros","ORDINARIO ACCION REIVINDICATORIA","16/08/2018","4","4","4","4",6256,"jdocco0100con",2018-08-01,2018-09-01
"12305","WENDLER, Juan Manuel C/ OBRA SOCIAL DE PETROLEROS","SUMARISIMO","23/08/2018","4","4","4","4",6256,"jdocco0100con",2018-08-01,2018-09-01
"13141","PINGET FABIAN EDUARDO C/ DIZ LUIS EDUARDO","ORDINARIO","22/08/2018","4","4","4","2",6264,"jdocco0200col",2018-08-01,2018-09-01
"13141","PINGET FABIAN EDUARDO C/ DIZ LUIS EDUARDO","ORDINARIO","22/08/2018","4","4","4","2",6264,"jdocco0200col",2018-08-01,2018-09-01
"13371","SOSA FERNANDO MARIO C/ ORTA CECILIA VANESA Y OTRO","ORDINARIO DAÑOS Y PERJUICIOS","28/08/2018","4","4","4","4",6264,"jdocco0200col",2018-08-01,2018-09-01
"13371","SOSA FERNANDO MARIO C/ ORTA CECILIA VANESA Y OTRO","ORDINARIO DAÑOS Y PERJUICIOS","28/08/2018","4","4","3","2",6264,"jdocco0200col",2018-08-01,2018-09-01
"19399","PAULINI OMAR JOSE C/ LONG AUTOMOTORES S.A.","SUMARISIMO COBRO DE PESOS","21/08/2018","4","4","4","2",6272,"jdocco0800pna",2018-08-01,2018-09-01
"19399","PAULINI OMAR JOSE C/ LONG AUTOMOTORES S.A.","SUMARISIMO COBRO DE PESOS","21/08/2018","4","4","4","2",6272,"jdocco0800pna",2018-08-01,2018-09-01
"18115","URBANI SOCIEDAD ANONIMA C/ BRITOS, JUAN JOSE","ORDINARIO CUMPLIMIENTO DE CONTRATO","14/08/2018","4","3","3","2",6272,"jdocco0800pna",2018-08-01,2018-09-01
"18115","URBANI SOCIEDAD ANONIMA C/ BRITOS, JUAN JOSE","ORDINARIO CUMPLIMIENTO DE CONTRATO","14/08/2018","4","4","4","4",6272,"jdocco0800pna",2018-08-01,2018-09-01
"13776-17","RODRIGUEZ LUIS ALBERTO C/  RUIZ BENIGNO GREGORIO","USUCAPION","16/08/2018","4","4","4","1",6284,"jdocco0100col",2018-08-01,2018-09-01
"13776-17","RODRIGUEZ LUIS ALBERTO C/  RUIZ BENIGNO GREGORIO","USUCAPION","16/08/2018","4","4","4","1",6284,"jdocco0100col",2018-08-01,2018-09-01
"4459","Ferreyra Miguel Angel C/ Propietarios Desconocidos y/o quien resulte propietario registral del inmueble referenciado en el promocional","USUCAPION","16/08/2018","4","3","4","4",6401,"jdocco0200lpa",2018-08-01,2018-09-01
"5746","Gomez Eric Manuel C/ Ruiz Diaz Jose Alberto y otro","ORDINARIO DAÑOS Y PERJUICIOS","30/08/2018","4","4","4","4",6401,"jdocco0200lpa",2018-08-01,2018-09-01
"5746","Gomez Eric Manuel C/ Ruiz Diaz Jose Alberto y otro","ORDINARIO DAÑOS Y PERJUICIOS","30/08/2018","4","4","3","4",6401,"jdocco0200lpa",2018-08-01,2018-09-01
"5746","Gomez Eric Manuel C/ Ruiz Diaz Jose Alberto y otro","ORDINARIO DAÑOS Y PERJUICIOS","30/08/2018","4","4","4","4",6401,"jdocco0200lpa",2018-08-01,2018-09-01
"5774","Ojeda Juan Maximiliano C/ Nuñez Juan Darío","ORDINARIO","15/08/2018","4",NA,"4","4",6401,"jdocco0200lpa",2018-08-01,2018-09-01
"5774","Ojeda Juan Maximiliano C/ Nuñez Juan Darío","ORDINARIO","15/08/2018","4",NA,"4","4",6401,"jdocco0200lpa",2018-08-01,2018-09-01
"5415","Vergara Miguel C/ Mantero Leonardo Edmundo y Otra","ORDINARIO COBRO DE PESOS","07/08/2018","4","4","4","4",6401,"jdocco0200lpa",2018-08-01,2018-09-01
"5415","Vergara Miguel C/ Mantero Leonardo Edmundo y Otra","ORDINARIO COBRO DE PESOS","07/08/2018","4","3","4","3",6401,"jdocco0200lpa",2018-08-01,2018-09-01
"9323","ASUETA, FRANCISCO JOSÉ C/ ECHEVERRÍA, MARÍA DEL CARMEN Y OTRAS","ORDINARIO ESCRITURACION","23/08/2018","4","4","4","0",6623,"jdocco0400con",2018-08-01,2018-09-01
"9323","ASUETA, FRANCISCO JOSÉ C/ ECHEVERRÍA, MARÍA DEL CARMEN Y OTRAS","ORDINARIO ESCRITURACION","23/08/2018","4","4","4","2",6623,"jdocco0400con",2018-08-01,2018-09-01
"9323","ASUETA, FRANCISCO JOSÉ C/ ECHEVERRÍA, MARÍA DEL CARMEN Y OTRAS","ORDINARIO ESCRITURACION","23/08/2018","3","3","3","0",6623,"jdocco0400con",2018-08-01,2018-09-01
"9323","ASUETA, FRANCISCO JOSÉ C/ ECHEVERRÍA, MARÍA DEL CARMEN Y OTRAS","ORDINARIO ESCRITURACION","23/08/2018","4","2","4","0",6623,"jdocco0400con",2018-08-01,2018-09-01
"9359","MATTIASSI, IRMA GRACIELA C/ ROJAS DE CHIAPPE, CARMEN CANDIDA Y/O CONTRA SUS SUCESORES Y/O HEREDEROS","ORDINARIO","28/08/2018","4","4","4","4",6623,"jdocco0400con",2018-08-01,2018-09-01
"9359","MATTIASSI, IRMA GRACIELA C/ ROJAS DE CHIAPPE, CARMEN CANDIDA Y/O CONTRA SUS SUCESORES Y/O HEREDEROS","ORDINARIO","28/08/2018","4","4","4","4",6623,"jdocco0400con",2018-08-01,2018-09-01
"AÑ0 2018","ESTADÍSTICAS ENCUESTAS CIVIL 2018","ADMINISTRATIVO","15/08/2018","4","4","4","4",6658,"jdocco0000frl",2018-08-01,2018-09-01
"AÑ0 2018","ESTADÍSTICAS ENCUESTAS CIVIL 2018","ADMINISTRATIVO","15/08/2018","4","4","4","4",6658,"jdocco0000frl",2018-08-01,2018-09-01
"AÑ0 2018","ESTADÍSTICAS ENCUESTAS CIVIL 2018","ADMINISTRATIVO","15/08/2018","4","4","4","4",6658,"jdocco0000frl",2018-08-01,2018-09-01
"AÑ0 2018","ESTADÍSTICAS ENCUESTAS CIVIL 2018","ADMINISTRATIVO","23/08/2018","4","4","4","4",6658,"jdocco0000frl",2018-08-01,2018-09-01
"AÑ0 2018","ESTADÍSTICAS ENCUESTAS CIVIL 2018","ADMINISTRATIVO","23/08/2018","4","4","4","4",6658,"jdocco0000frl",2018-08-01,2018-09-01
"AÑ0 2018","ESTADÍSTICAS ENCUESTAS CIVIL 2018","ADMINISTRATIVO","23/08/2018","4","4","3","1",6658,"jdocco0000frl",2018-08-01,2018-09-01
"AÑ0 2018","ESTADÍSTICAS ENCUESTAS CIVIL 2018","ADMINISTRATIVO","23/08/2018","3","4","2","3",6658,"jdocco0000frl",2018-08-01,2018-09-01
"AÑ0 2018","ESTADÍSTICAS ENCUESTAS CIVIL 2018","ADMINISTRATIVO","23/08/2018","4","3","3","3",6658,"jdocco0000frl",2018-08-01,2018-09-01
"AÑ0 2018","ESTADÍSTICAS ENCUESTAS CIVIL 2018","ADMINISTRATIVO","23/08/2018","4","4","3","2",6658,"jdocco0000frl",2018-08-01,2018-09-01
"19463","LENHARDT ELVA C/ MUNICIPALIDAD DE PARANA  Y OTRA","ORDINARIO DAÑOS Y PERJUICIOS","14/08/2018","4","4","4","4",6686,"jdocco0700pna",2018-08-01,2018-09-01
"19463","LENHARDT ELVA C/ MUNICIPALIDAD DE PARANA  Y OTRA","ORDINARIO DAÑOS Y PERJUICIOS","14/08/2018","4","4","4","3",6686,"jdocco0700pna",2018-08-01,2018-09-01
"19463","LENHARDT ELVA C/ MUNICIPALIDAD DE PARANA  Y OTRA","ORDINARIO DAÑOS Y PERJUICIOS","14/08/2018","4","4","5","4",6686,"jdocco0700pna",2018-08-01,2018-09-01
"19463","LENHARDT ELVA C/ MUNICIPALIDAD DE PARANA  Y OTRA","ORDINARIO DAÑOS Y PERJUICIOS","14/08/2018","4","4","4","4",6686,"jdocco0700pna",2018-08-01,2018-09-01
"16997","MORCILLO JOSE MARIA FRANCISCO C/ ETCHEVEHERE JUAN DIEGO Y OTROS","ORDINARIO DAÑOS Y PERJUICIOS","30/08/2018","4","2","4","4",6686,"jdocco0700pna",2018-08-01,2018-09-01
"16997","MORCILLO JOSE MARIA FRANCISCO C/ ETCHEVEHERE JUAN DIEGO Y OTROS","ORDINARIO DAÑOS Y PERJUICIOS","30/08/2018","4","4","4","4",6686,"jdocco0700pna",2018-08-01,2018-09-01
"16997","MORCILLO JOSE MARIA FRANCISCO C/ ETCHEVEHERE JUAN DIEGO Y OTROS","ORDINARIO DAÑOS Y PERJUICIOS","30/08/2018","4","4","4","4",6686,"jdocco0700pna",2018-08-01,2018-09-01
"16997","MORCILLO JOSE MARIA FRANCISCO C/ ETCHEVEHERE JUAN DIEGO Y OTROS","ORDINARIO DAÑOS Y PERJUICIOS","30/08/2018","4","4","4","4",6686,"jdocco0700pna",2018-08-01,2018-09-01
"16997","MORCILLO JOSE MARIA FRANCISCO C/ ETCHEVEHERE JUAN DIEGO Y OTROS","ORDINARIO DAÑOS Y PERJUICIOS","30/08/2018","4","2","4","4",6686,"jdocco0700pna",2018-08-01,2018-09-01
"19846","RODRIGUEZ GUSTAVO FABIAN C/ MUNDO AGROMOVIL S.A.","SUMARISIMO","24/08/2018","4","4","3","4",6686,"jdocco0700pna",2018-08-01,2018-09-01
"19846","RODRIGUEZ GUSTAVO FABIAN C/ MUNDO AGROMOVIL S.A.","SUMARISIMO","24/08/2018","4","4","4","4",6686,"jdocco0700pna",2018-08-01,2018-09-01
"19768","SENSEVER CLAUDIA VERONICA Y OTROS C/ EL RINCON S.A.","ORDINARIO","28/08/2018","4","4","4","3",6686,"jdocco0700pna",2018-08-01,2018-09-01
"19768","SENSEVER CLAUDIA VERONICA Y OTROS C/ EL RINCON S.A.","ORDINARIO","28/08/2018","4","4","4","4",6686,"jdocco0700pna",2018-08-01,2018-09-01
"19762","SENSEVER DE VALLARINO DANIELA PATRICIA C/ EL RINCON S.A.","ORDINARIO (CIVIL)","28/08/2018","4","4","4","3",6686,"jdocco0700pna",2018-08-01,2018-09-01
"19762","SENSEVER DE VALLARINO DANIELA PATRICIA C/ EL RINCON S.A.","ORDINARIO (CIVIL)","28/08/2018","4","4","4","3",6686,"jdocco0700pna",2018-08-01,2018-09-01
"19944","URAN BRUNO MAURICIO C/ LONDRA TITO ALCIDES Y OTRA","ORDINARIO ACCIDENTES DE TRANSITO","16/08/2018","4","4","4","4",6686,"jdocco0700pna",2018-08-01,2018-09-01
"19944","URAN BRUNO MAURICIO C/ LONDRA TITO ALCIDES Y OTRA","ORDINARIO ACCIDENTES DE TRANSITO","16/08/2018","4","4","4","4",6686,"jdocco0700pna",2018-08-01,2018-09-01
"8731","CASCO VÍCTOR MANUEL","USUCAPION","01/08/2018","4","4","4","3",6778,"jdocco0100nog",2018-08-01,2018-09-01
"8731","CASCO VÍCTOR MANUEL","USUCAPION","01/08/2018","4","4","4","4",6778,"jdocco0100nog",2018-08-01,2018-09-01
"8284","LUNA LETICIA DEL CARMEN Y OTRO C/ ESCUDERO WALTER JOSE MANUEL Y OTRO","ORDINARIO DAÑOS Y PERJUICIOS","08/08/2018","4","4","4","4",6778,"jdocco0100nog",2018-08-01,2018-09-01
"8284","LUNA LETICIA DEL CARMEN Y OTRO C/ ESCUDERO WALTER JOSE MANUEL Y OTRO","ORDINARIO DAÑOS Y PERJUICIOS","08/08/2018","4","4","4","2",6778,"jdocco0100nog",2018-08-01,2018-09-01
"8284","LUNA LETICIA DEL CARMEN Y OTRO C/ ESCUDERO WALTER JOSE MANUEL Y OTRO","ORDINARIO DAÑOS Y PERJUICIOS","08/08/2018","4","4","4","4",6778,"jdocco0100nog",2018-08-01,2018-09-01
"8983","TULA EDMUNDO RAMÓN DANIEL C/ ALBERTO JUAN DOMINGO Y OTROS","ORDINARIO DAÑOS Y PERJUICIOS","14/08/2018","3","3","3","2",6778,"jdocco0100nog",2018-08-01,2018-09-01
"8983","TULA EDMUNDO RAMÓN DANIEL C/ ALBERTO JUAN DOMINGO Y OTROS","ORDINARIO DAÑOS Y PERJUICIOS","14/08/2018","4","4","3","2",6778,"jdocco0100nog",2018-08-01,2018-09-01
"8983","TULA EDMUNDO RAMÓN DANIEL C/ ALBERTO JUAN DOMINGO Y OTROS","ORDINARIO DAÑOS Y PERJUICIOS","14/08/2018","3","3","3","2",6778,"jdocco0100nog",2018-08-01,2018-09-01
"8984","WEBER BRIAN JOSÉ C/ LEGUIZAMÓN ARNAU ROMINA ELIZABETH Y OTROS","ORDINARIO DAÑOS Y PERJUICIOS","22/08/2018","4","4","4","4",6778,"jdocco0100nog",2018-08-01,2018-09-01
"8984","WEBER BRIAN JOSÉ C/ LEGUIZAMÓN ARNAU ROMINA ELIZABETH Y OTROS","ORDINARIO DAÑOS Y PERJUICIOS","22/08/2018","4","3","3","3",6778,"jdocco0100nog",2018-08-01,2018-09-01
NA,"ENCUESTAS AGOSTO 2018-SECR 2","PROCESOS ADMINISTRATIVOS","25/07/2018","4","4","4","3",6879,"jdocco0902pna",2018-08-01,2018-09-01
NA,"ENCUESTAS AGOSTO 2018-SECR 2","PROCESOS ADMINISTRATIVOS","25/07/2018","4","4","4","4",6879,"jdocco0902pna",2018-08-01,2018-09-01
NA,NA,NA,"25/07/2018","4","4","4","4",6879,"jdocco0902pna",2018-08-01,2018-09-01
NA,NA,NA,"25/07/2018","4","4","4","4",6879,"jdocco0902pna",2018-08-01,2018-09-01
"12601","ARNOL de UNREIN CATALINA ESTER Y OTRA","USUCAPION","16/08/2018","3","3","3","3",7051,"jdocco0000dia",2018-08-01,2018-09-01
"12601","ARNOL de UNREIN CATALINA ESTER Y OTRA","USUCAPION","16/08/2018","4","4","0","2",7051,"jdocco0000dia",2018-08-01,2018-09-01
"12601","ARNOL de UNREIN CATALINA ESTER Y OTRA","USUCAPION","16/08/2018","4","4","4","3",7051,"jdocco0000dia",2018-08-01,2018-09-01
"12055","BANCO PATAGONIA S.A. C/ BALBI MIRTA CATALINA","ORDINARIO","15/08/2018","4","4","4","3",7051,"jdocco0000dia",2018-08-01,2018-09-01
"12055","BANCO PATAGONIA S.A. C/ BALBI MIRTA CATALINA","ORDINARIO","15/08/2018","4","4","4","2",7051,"jdocco0000dia",2018-08-01,2018-09-01
"12134","BEJARANO IRMA FELIPA C/ SAFENRAITER MELANIA","ORDINARIO","08/08/2018","4","4","4","2",7051,"jdocco0000dia",2018-08-01,2018-09-01
"12134","BEJARANO IRMA FELIPA C/ SAFENRAITER MELANIA","ORDINARIO","08/08/2018","4","4","4","3",7051,"jdocco0000dia",2018-08-01,2018-09-01
"12134","BEJARANO IRMA FELIPA C/ SAFENRAITER MELANIA","ORDINARIO","08/08/2018","4","4","4","4",7051,"jdocco0000dia",2018-08-01,2018-09-01
"12096","COOPERATIVA AGRICOLA GANADERA Y DE SERVICIOS PUBLICOS ARANGUREN LIMITADA C/ HERNANDEZ JOSE LORENZO","ORDINARIO","22/08/2018","4","4","4","3",7051,"jdocco0000dia",2018-08-01,2018-09-01
"10893","DAVID ALICIA CRISTINA Y ZAPATA HECTOR RAMON C/ DAVID SANTIAGO","USUCAPION","08/08/2018","4","4","4","2",7051,"jdocco0000dia",2018-08-01,2018-09-01
"10893","DAVID ALICIA CRISTINA Y ZAPATA HECTOR RAMON C/ DAVID SANTIAGO","USUCAPION","08/08/2018","4","4","4","1",7051,"jdocco0000dia",2018-08-01,2018-09-01
"10893","DAVID ALICIA CRISTINA Y ZAPATA HECTOR RAMON C/ DAVID SANTIAGO","USUCAPION","08/08/2018","4","3","4","3",7051,"jdocco0000dia",2018-08-01,2018-09-01
"12534","GOMEZ DANIEL ORLANDO C / PAZ CLAUDIO ALEJANDRO Y OTRO","ORDINARIO","22/08/2018","4","4","4","1",7051,"jdocco0000dia",2018-08-01,2018-09-01
"12534","GOMEZ DANIEL ORLANDO C / PAZ CLAUDIO ALEJANDRO Y OTRO","ORDINARIO","22/08/2018","4",NA,"4","3",7051,"jdocco0000dia",2018-08-01,2018-09-01
"12534","GOMEZ DANIEL ORLANDO C / PAZ CLAUDIO ALEJANDRO Y OTRO","ORDINARIO","22/08/2018","4","4","4","2",7051,"jdocco0000dia",2018-08-01,2018-09-01
"13053","LOZA MATIAS JAVIER Y OTRO C/ ROJAS CLAUDIA ANDREA","DESALOJO","29/08/2018","4","4","4","4",7051,"jdocco0000dia",2018-08-01,2018-09-01
"13053","LOZA MATIAS JAVIER Y OTRO C/ ROJAS CLAUDIA ANDREA","DESALOJO","29/08/2018","4","4","4","2",7051,"jdocco0000dia",2018-08-01,2018-09-01
"13053","LOZA MATIAS JAVIER Y OTRO C/ ROJAS CLAUDIA ANDREA","DESALOJO","29/08/2018","4","4","4","3",7051,"jdocco0000dia",2018-08-01,2018-09-01
"8724","BURGOS PEDRO LEONEL C/ TARABORELLI AUTOMOBILE S.A. Y OTRO","SUMARISIMO","02/08/2018","4","4","4","4",7089,"jdocco0200uru",2018-08-01,2018-09-01
"8724","BURGOS PEDRO LEONEL C/ TARABORELLI AUTOMOBILE S.A. Y OTRO","SUMARISIMO","02/08/2018","4","4","4","4",7089,"jdocco0200uru",2018-08-01,2018-09-01
"8724","BURGOS PEDRO LEONEL C/ TARABORELLI AUTOMOBILE S.A. Y OTRO","SUMARISIMO","07/08/2018","4","4","4","4",7089,"jdocco0200uru",2018-08-01,2018-09-01
"8724","BURGOS PEDRO LEONEL C/ TARABORELLI AUTOMOBILE S.A. Y OTRO","SUMARISIMO","07/08/2018","4","4","4","4",7089,"jdocco0200uru",2018-08-01,2018-09-01
"8724","BURGOS PEDRO LEONEL C/ TARABORELLI AUTOMOBILE S.A. Y OTRO","SUMARISIMO","07/08/2018","4","4","4","4",7089,"jdocco0200uru",2018-08-01,2018-09-01
"8818","TABAREZ CRISTIAN JAVIER C/ TELECOM ARGENTINA S.A.","SUMARISIMO","08/08/2018","4","4","4","4",7089,"jdocco0200uru",2018-08-01,2018-09-01
"8818","TABAREZ CRISTIAN JAVIER C/ TELECOM ARGENTINA S.A.","SUMARISIMO","08/08/2018","4","4","4","0",7089,"jdocco0200uru",2018-08-01,2018-09-01
"8614","CACERES JOSE ALFREDO C/ BANCHIK AUTOMOTORES S.A. Y OTRO","SUMARISIMO","09/08/2018","4","4","4","1",7089,"jdocco0200uru",2018-08-01,2018-09-01
"8614","CACERES JOSE ALFREDO C/ BANCHIK AUTOMOTORES S.A. Y OTRO","SUMARISIMO","09/08/2018","4","4","4","4",7089,"jdocco0200uru",2018-08-01,2018-09-01
"8614","CACERES JOSE ALFREDO C/ BANCHIK AUTOMOTORES S.A. Y OTRO","SUMARISIMO","09/08/2018","4","4","4","4",7089,"jdocco0200uru",2018-08-01,2018-09-01
"8323","SUPPO MARTA ALEJANDRA Y OTRAS C/ COMPAÑÍA DE SEGUROS GALICIA SEGUROS S.A.","ORDINARIO","14/08/2018","4","4","4","1",7089,"jdocco0200uru",2018-08-01,2018-09-01
"8323","SUPPO MARTA ALEJANDRA Y OTRAS C/ COMPAÑÍA DE SEGUROS GALICIA SEGUROS S.A.","ORDINARIO","14/08/2018","4","4","4","1",7089,"jdocco0200uru",2018-08-01,2018-09-01
"8811","CALIVARI HECTOR RAUL C/ RAMIREZ HUGO ANTONIO","INTERDICTO DE RECOBRAR","23/08/2018","4","4","4","1",7089,"jdocco0200uru",2018-08-01,2018-09-01
"8811","CALIVARI HECTOR RAUL C/ RAMIREZ HUGO ANTONIO","INTERDICTO DE RECOBRAR","23/08/2018","4","4","4","1",7089,"jdocco0200uru",2018-08-01,2018-09-01
"8614","CACERES JOSE ALFREDO C/ BANCHIK AUTOMOTORES S.A. Y OTRO","SUMARISIMO","23/08/2018","4","4","4","1",7089,"jdocco0200uru",2018-08-01,2018-09-01
"8614","CACERES JOSE ALFREDO C/ BANCHIK AUTOMOTORES S.A. Y OTRO","SUMARISIMO","23/08/2018","4","4","4","1",7089,"jdocco0200uru",2018-08-01,2018-09-01
"8636","ROMERO LEANDRO MARTIN C/ RUDAS S.A.","SUMARISIMO","30/08/2018","4","4","4","1",7089,"jdocco0200uru",2018-08-01,2018-09-01
"8636","ROMERO LEANDRO MARTIN C/ RUDAS S.A.","SUMARISIMO","30/08/2018","4","4","4","1",7089,"jdocco0200uru",2018-08-01,2018-09-01
"8636","ROMERO LEANDRO MARTIN C/ RUDAS S.A.","SUMARISIMO","30/08/2018","4","4","4","1",7089,"jdocco0200uru",2018-08-01,2018-09-01
"8015","RIOS OLGA C/ BENITEZ LUIS ATILIO Y OTRO","ORDINARIO DAÑOS Y PERJUICIOS","14/08/2018","4","4","3","4",7319,"jdocco0100vil",2018-08-01,2018-09-01
NA,"ENCUESTAS AUDIENCIA PRELIMINAR Y VISTA DE CAUSA","EXPEDIENTE INTERNO","12/09/2018","4","4","4","4",7376,"jdocco0300con",2018-09-01,2018-10-01
NA,"ENCUESTAS AUDIENCIA PRELIMINAR Y VISTA DE CAUSA","EXPEDIENTE INTERNO","12/09/2018","4","4","4","4",7376,"jdocco0300con",2018-09-01,2018-10-01
NA,"ENCUESTAS AUDIENCIA PRELIMINAR Y VISTA DE CAUSA","EXPEDIENTE INTERNO","19/09/2018","4","3","3","2",7376,"jdocco0300con",2018-09-01,2018-10-01
NA,"ENCUESTAS AUDIENCIA PRELIMINAR Y VISTA DE CAUSA","EXPEDIENTE INTERNO","19/09/2018","4","4","4","3",7376,"jdocco0300con",2018-09-01,2018-10-01
NA,"ENCUESTAS AUDIENCIA PRELIMINAR Y VISTA DE CAUSA","EXPEDIENTE INTERNO","26/09/2018","4","4","4","4",7376,"jdocco0300con",2018-09-01,2018-10-01
NA,"ENCUESTAS AUDIENCIA PRELIMINAR Y VISTA DE CAUSA","EXPEDIENTE INTERNO","26/09/2018","4","4","4","4",7376,"jdocco0300con",2018-09-01,2018-10-01
"11717","BENITEZ, Belarmino C/ BANCO DE GALICIA Y BUENOS AIRES S.A. y Otro","ORDINARIO DAÑOS Y PERJUICIOS","04/09/2018","4","4","4","3",7397,"jdocco0100con",2018-09-01,2018-10-01
"11717","BENITEZ, Belarmino C/ BANCO DE GALICIA Y BUENOS AIRES S.A. y Otro","ORDINARIO DAÑOS Y PERJUICIOS","04/09/2018","3","3","3","2",7397,"jdocco0100con",2018-09-01,2018-10-01
"11717","BENITEZ, Belarmino C/ BANCO DE GALICIA Y BUENOS AIRES S.A. y Otro","ORDINARIO DAÑOS Y PERJUICIOS","04/09/2018","4","4","4","3",7397,"jdocco0100con",2018-09-01,2018-10-01
"11717","BENITEZ, Belarmino C/ BANCO DE GALICIA Y BUENOS AIRES S.A. y Otro","ORDINARIO DAÑOS Y PERJUICIOS","04/09/2018","4","4","4","4",7397,"jdocco0100con",2018-09-01,2018-10-01
"12276","PONCE, José Darío C/ OCAMPO, Walter Hernan","ORDINARIO DAÑOS Y PERJUICIOS","11/09/2018","4","4","4","3",7397,"jdocco0100con",2018-09-01,2018-10-01
"12276","PONCE, José Darío C/ OCAMPO, Walter Hernan","ORDINARIO DAÑOS Y PERJUICIOS","11/09/2018","4","4","4","4",7397,"jdocco0100con",2018-09-01,2018-10-01
"11974","REBORT, Dana Estefanía C/ MARIANI, Guillermo Oscar y Otros","ORDINARIO DAÑOS Y PERJUICIOS","06/09/2018","4","4","4","4",7397,"jdocco0100con",2018-09-01,2018-10-01
"11974","REBORT, Dana Estefanía C/ MARIANI, Guillermo Oscar y Otros","ORDINARIO DAÑOS Y PERJUICIOS","06/09/2018","4","4","4","3",7397,"jdocco0100con",2018-09-01,2018-10-01
"11793","RIBERO, María de los Angeles C/ LOCASO, Juan Pedro y Otros","USUCAPION","20/09/2018","4","4","4","4",7397,"jdocco0100con",2018-09-01,2018-10-01
"11793","RIBERO, María de los Angeles C/ LOCASO, Juan Pedro y Otros","USUCAPION","20/09/2018","4","4","4","3",7397,"jdocco0100con",2018-09-01,2018-10-01
"11793","RIBERO, María de los Angeles C/ LOCASO, Juan Pedro y Otros","USUCAPION","20/09/2018","4","4","4","4",7397,"jdocco0100con",2018-09-01,2018-10-01
NA,"ENCUESTAS SEPTIEMBRE","PROCESOS ADMINISTRATIVOS","05/09/2018","4","4","4","4",7409,"jdocco0000vic",2018-09-01,2018-10-01
NA,"ENCUESTAS SEPTIEMBRE","PROCESOS ADMINISTRATIVOS","05/09/2018","4","4","4","3",7409,"jdocco0000vic",2018-09-01,2018-10-01
NA,"ENCUESTAS SEPTIEMBRE","PROCESOS ADMINISTRATIVOS","05/09/2018","4","4","4","3",7409,"jdocco0000vic",2018-09-01,2018-10-01
NA,"ENCUESTAS SEPTIEMBRE","PROCESOS ADMINISTRATIVOS","07/09/2018","4","0","4","4",7409,"jdocco0000vic",2018-09-01,2018-10-01
NA,"ENCUESTAS SEPTIEMBRE","PROCESOS ADMINISTRATIVOS","07/09/2018","4","4","4","4",7409,"jdocco0000vic",2018-09-01,2018-10-01
NA,"ENCUESTAS SEPTIEMBRE","PROCESOS ADMINISTRATIVOS","07/09/2018","4","4","4","2",7409,"jdocco0000vic",2018-09-01,2018-10-01
NA,"ENCUESTAS SEPTIEMBRE","PROCESOS ADMINISTRATIVOS","07/09/2018","4","4","4","4",7409,"jdocco0000vic",2018-09-01,2018-10-01
NA,"ENCUESTAS SEPTIEMBRE","PROCESOS ADMINISTRATIVOS","07/09/2018","4","4","4","2",7409,"jdocco0000vic",2018-09-01,2018-10-01
NA,"ENCUESTAS SEPTIEMBRE","PROCESOS ADMINISTRATIVOS","07/09/2018","3","0","3","1",7409,"jdocco0000vic",2018-09-01,2018-10-01
NA,"ENCUESTAS SEPTIEMBRE","PROCESOS ADMINISTRATIVOS","07/09/2018","4","0","4","3",7409,"jdocco0000vic",2018-09-01,2018-10-01
NA,"ENCUESTAS SEPTIEMBRE","PROCESOS ADMINISTRATIVOS","11/09/2018","4","4","4","4",7409,"jdocco0000vic",2018-09-01,2018-10-01
NA,"ENCUESTAS SEPTIEMBRE","PROCESOS ADMINISTRATIVOS","11/09/2018","4","4","4","4",7409,"jdocco0000vic",2018-09-01,2018-10-01
NA,"ENCUESTAS SEPTIEMBRE","PROCESOS ADMINISTRATIVOS","11/09/2018","4","4","3","3",7409,"jdocco0000vic",2018-09-01,2018-10-01
NA,"ENCUESTAS","CIVIL Y COMERCIAL","06/09/2018","4","4","4","4",7420,"jdocco0600con",2018-09-01,2018-10-01
NA,"ENCUESTAS","CIVIL Y COMERCIAL","06/09/2018","4","4","4","2",7420,"jdocco0600con",2018-09-01,2018-10-01
NA,"ENCUESTAS","CIVIL Y COMERCIAL","06/09/2018","4","4","3","3",7420,"jdocco0600con",2018-09-01,2018-10-01
NA,"ENCUESTAS","CIVIL Y COMERCIAL","11/09/2018","4","4","3","4",7420,"jdocco0600con",2018-09-01,2018-10-01
NA,"ENCUESTAS","CIVIL Y COMERCIAL","11/09/2018","4","4","4","3",7420,"jdocco0600con",2018-09-01,2018-10-01
NA,"ENCUESTAS","CIVIL Y COMERCIAL","18/09/2018","4","4","4","4",7420,"jdocco0600con",2018-09-01,2018-10-01
NA,"ENCUESTAS","CIVIL Y COMERCIAL","18/09/2018","4","4","4","4",7420,"jdocco0600con",2018-09-01,2018-10-01
NA,"ENCUESTAS","CIVIL Y COMERCIAL","18/09/2018","4","4","4","3",7420,"jdocco0600con",2018-09-01,2018-10-01
"250/17","MOLINA JORGE LEANDRO C/ GOMEZ NOELIA SILVINA CAROLINA Y OTROS","ORDINARIO DAÑOS Y PERJUICIOS","04/09/2018","4","4","4","4",7439,"jdocco0100gch",2018-09-01,2018-10-01
"250/17","MOLINA JORGE LEANDRO C/ GOMEZ NOELIA SILVINA CAROLINA Y OTROS","ORDINARIO DAÑOS Y PERJUICIOS","04/09/2018","4","4","4","2",7439,"jdocco0100gch",2018-09-01,2018-10-01
"250/17","MOLINA JORGE LEANDRO C/ GOMEZ NOELIA SILVINA CAROLINA Y OTROS","ORDINARIO DAÑOS Y PERJUICIOS","04/09/2018","4","4","4","1",7439,"jdocco0100gch",2018-09-01,2018-10-01
"250/17","MOLINA JORGE LEANDRO C/ GOMEZ NOELIA SILVINA CAROLINA Y OTROS","ORDINARIO DAÑOS Y PERJUICIOS","04/09/2018","4","4","3","2",7439,"jdocco0100gch",2018-09-01,2018-10-01
NA,"ORALIDAD","EXPEDIENTE INTERNO","13/09/2018","4","4","3","3",7447,"jdocco0100pna",2018-09-01,2018-10-01
NA,"ORALIDAD","EXPEDIENTE INTERNO","13/09/2018","4","4","4","3",7447,"jdocco0100pna",2018-09-01,2018-10-01
NA,"ORALIDAD","EXPEDIENTE INTERNO","13/09/2018","4","4","4","4",7447,"jdocco0100pna",2018-09-01,2018-10-01
NA,"ORALIDAD","EXPEDIENTE INTERNO","13/09/2018","4","4","4","4",7447,"jdocco0100pna",2018-09-01,2018-10-01
NA,"ORALIDAD","EXPEDIENTE INTERNO","19/09/2018","4","4","4","4",7447,"jdocco0100pna",2018-09-01,2018-10-01
"6732","AGUILAR CARLOS ANTONIO C/ MUÑOZ HUGO ISMAEL Y OTRA","ORDINARIO DAÑOS Y PERJUICIOS","05/09/2018","4","4","4","2",7469,"jdocco0300gch",2018-09-01,2018-10-01
"6732","AGUILAR CARLOS ANTONIO C/ MUÑOZ HUGO ISMAEL Y OTRA","ORDINARIO DAÑOS Y PERJUICIOS","05/09/2018","4","4","4","2",7469,"jdocco0300gch",2018-09-01,2018-10-01
NA,"ENCUESTAS","EXPEDIENTE INTERNO","12/09/2018","4","4","4","2",7469,"jdocco0300gch",2018-09-01,2018-10-01
NA,"ENCUESTAS","EXPEDIENTE INTERNO","18/09/2018","4","4","4","4",7469,"jdocco0300gch",2018-09-01,2018-10-01
NA,"ENCUESTAS","EXPEDIENTE INTERNO","18/09/2018","4","3","4","2",7469,"jdocco0300gch",2018-09-01,2018-10-01
NA,"ENCUESTAS","EXPEDIENTE INTERNO","27/09/2018","4","4","4","3",7469,"jdocco0300gch",2018-09-01,2018-10-01
NA,"ENCUESTAS AUDIENCIAS PRELIMINARES Y VISTA DE CAUSA","EXPEDIENTE INTERNO","30/09/2018","4","4","4","4",7512,"jdocco0200con",2018-09-01,2018-10-01
NA,"ENCUESTAS AUDIENCIAS PRELIMINARES Y VISTA DE CAUSA","EXPEDIENTE INTERNO","30/09/2018","3","3","3","3",7512,"jdocco0200con",2018-09-01,2018-10-01
NA,"ENCUESTAS AUDIENCIAS PRELIMINARES Y VISTA DE CAUSA","EXPEDIENTE INTERNO","30/09/2018","4","4","4","4",7512,"jdocco0200con",2018-09-01,2018-10-01
NA,"ENCUESTAS AUDIENCIAS PRELIMINARES Y VISTA DE CAUSA","EXPEDIENTE INTERNO","30/09/2018","4","4","4","4",7512,"jdocco0200con",2018-09-01,2018-10-01
NA,"ENCUESTAS AUDIENCIAS PRELIMINARES Y VISTA DE CAUSA","EXPEDIENTE INTERNO","30/09/2018","4","4","4","4",7512,"jdocco0200con",2018-09-01,2018-10-01
NA,"ENCUESTAS AUDIENCIAS PRELIMINARES Y VISTA DE CAUSA","EXPEDIENTE INTERNO","30/09/2018","4","3","4","3",7512,"jdocco0200con",2018-09-01,2018-10-01
NA,"ENCUESTAS AUDIENCIAS PRELIMINARES Y VISTA DE CAUSA","EXPEDIENTE INTERNO","30/09/2018","4","4","4","3",7512,"jdocco0200con",2018-09-01,2018-10-01
NA,"ENCUESTAS AUDIENCIAS PRELIMINARES Y VISTA DE CAUSA","EXPEDIENTE INTERNO","30/09/2018","4","4","4","3",7512,"jdocco0200con",2018-09-01,2018-10-01
NA,"ENCUESTAS AUDIENCIAS PRELIMINARES Y VISTA DE CAUSA","EXPEDIENTE INTERNO","30/09/2018","4","4","4","3",7512,"jdocco0200con",2018-09-01,2018-10-01
NA,"ENCUESTAS AUDIENCIAS PRELIMINARES Y VISTA DE CAUSA","EXPEDIENTE INTERNO","30/09/2018","4","4","3","3",7512,"jdocco0200con",2018-09-01,2018-10-01
NA,"ENCUESTAS AUDIENCIAS PRELIMINARES Y VISTA DE CAUSA","EXPEDIENTE INTERNO","30/09/2018","4","4","3","2",7512,"jdocco0200con",2018-09-01,2018-10-01
NA,"ENCUESTAS AUDIENCIAS PRELIMINARES Y VISTA DE CAUSA","EXPEDIENTE INTERNO","30/09/2018","4","4","2","3",7512,"jdocco0200con",2018-09-01,2018-10-01
NA,"ENCUESTAS DE AUDIENCIAS","ADMINISTRATIVO","28/09/2018","4","4","4","3",7546,"jdocco0200col",2018-09-01,2018-10-01
NA,"ENCUESTAS DE AUDIENCIAS","ADMINISTRATIVO","28/09/2018","4","4","4","4",7546,"jdocco0200col",2018-09-01,2018-10-01
NA,"ENCUESTAS DE AUDIENCIAS","ADMINISTRATIVO","28/09/2018","4","4","4","4",7546,"jdocco0200col",2018-09-01,2018-10-01
"10589","GERSTNER SUSANA PAULINA Y OTROS C/ GERSTNER SUSANA CAROLINA","DESALOJO","27/09/2018","4","4","4","1",7549,"jdocco0000dia",2018-09-01,2018-10-01
"10589","GERSTNER SUSANA PAULINA Y OTROS C/ GERSTNER SUSANA CAROLINA","DESALOJO","27/09/2018","4","3","3","2",7549,"jdocco0000dia",2018-09-01,2018-10-01
"12534","GOMEZ DANIEL ORLANDO C / PAZ CLAUDIO ALEJANDRO Y OTRO","ORDINARIO","21/09/2018","4","4","4","2",7549,"jdocco0000dia",2018-09-01,2018-10-01
"12534","GOMEZ DANIEL ORLANDO C / PAZ CLAUDIO ALEJANDRO Y OTRO","ORDINARIO","21/09/2018","4","4","4","2",7549,"jdocco0000dia",2018-09-01,2018-10-01
"12534","GOMEZ DANIEL ORLANDO C / PAZ CLAUDIO ALEJANDRO Y OTRO","ORDINARIO","21/09/2018","4","4","4","4",7549,"jdocco0000dia",2018-09-01,2018-10-01
"11527","MEDEL LUCAS ALEJANDRO C/ DOMINGUEZ LUIS NATALIO","ORDINARIO","26/09/2018","4","4","4","1",7549,"jdocco0000dia",2018-09-01,2018-10-01
"11527","MEDEL LUCAS ALEJANDRO C/ DOMINGUEZ LUIS NATALIO","ORDINARIO","26/09/2018","4","4","3","2",7549,"jdocco0000dia",2018-09-01,2018-10-01
"11527","MEDEL LUCAS ALEJANDRO C/ DOMINGUEZ LUIS NATALIO","ORDINARIO","26/09/2018","4","4","4","1",7549,"jdocco0000dia",2018-09-01,2018-10-01
"11527","MEDEL LUCAS ALEJANDRO C/ DOMINGUEZ LUIS NATALIO","ORDINARIO","26/09/2018","4","4","4","1",7549,"jdocco0000dia",2018-09-01,2018-10-01
"10951","PFARHERR RUBEN JOSE C/ FARRHER YOLANDA LIDIA","ORDINARIO","27/09/2018","4","4","4","4",7549,"jdocco0000dia",2018-09-01,2018-10-01
"10951","PFARHERR RUBEN JOSE C/ FARRHER YOLANDA LIDIA","ORDINARIO","27/09/2018","4","4","4","3",7549,"jdocco0000dia",2018-09-01,2018-10-01
"10951","PFARHERR RUBEN JOSE C/ FARRHER YOLANDA LIDIA","ORDINARIO","27/09/2018","4","4","4","2",7549,"jdocco0000dia",2018-09-01,2018-10-01
"2788","FALCON, Jose Euleterio C/ Herederos Y/O sucesores de FALCON, Eleuterio","USUCAPION","19/09/2018","4","4","4","4",7558,"jdocco0000ssa",2018-09-01,2018-10-01
"2788","FALCON, Jose Euleterio C/ Herederos Y/O sucesores de FALCON, Eleuterio","USUCAPION","19/09/2018","4","4","4","4",7558,"jdocco0000ssa",2018-09-01,2018-10-01
NA,"REGISTRO DE ENCUESTAS DE ORALIDAD","ESTADISTICAS","04/09/2018","4","4","4","0",7569,"jdocco0200pna",2018-09-01,2018-10-01
NA,"REGISTRO DE ENCUESTAS DE ORALIDAD","ESTADISTICAS","04/09/2018","4","4","4","4",7569,"jdocco0200pna",2018-09-01,2018-10-01
NA,"REGISTRO DE ENCUESTAS DE ORALIDAD","ESTADISTICAS","18/09/2018","4","4","3","4",7569,"jdocco0200pna",2018-09-01,2018-10-01
"18523","RODRIGUEZ ELENA NOEMI C/ BARRIOS SERGIOS EDUARDO y OTRA","ORDINARIO ACCIDENTES DE TRANSITO","04/09/2018","4","4","4","4",7569,"jdocco0200pna",2018-09-01,2018-10-01
"18523","RODRIGUEZ ELENA NOEMI C/ BARRIOS SERGIOS EDUARDO y OTRA","ORDINARIO ACCIDENTES DE TRANSITO","04/09/2018","4","4","4","0",7569,"jdocco0200pna",2018-09-01,2018-10-01
"34177","ALARCON EDUARDO OSCAR Y OTRO C/ ASENSIO PABLO FRANCISCO","ORDINARIO ACCIDENTES DE TRANSITO",NA,NA,NA,NA,NA,7580,"jdocco0300pna",2018-09-01,2018-10-01
"33707","VALDEZ LORENA NATALIA Y OTROS C/ SUPERIOR GOBIERNO DE LA PROVINCIA Y OTROS","ORDINARIO DAÑOS Y PERJUICIOS","11/09/2018","4","3","3","4",7580,"jdocco0300pna",2018-09-01,2018-10-01
"33707","VALDEZ LORENA NATALIA Y OTROS C/ SUPERIOR GOBIERNO DE LA PROVINCIA Y OTROS","ORDINARIO DAÑOS Y PERJUICIOS","11/09/2018","4","0","4","4",7580,"jdocco0300pna",2018-09-01,2018-10-01
"33707","VALDEZ LORENA NATALIA Y OTROS C/ SUPERIOR GOBIERNO DE LA PROVINCIA Y OTROS","ORDINARIO DAÑOS Y PERJUICIOS","11/09/2018","4","3","4","3",7580,"jdocco0300pna",2018-09-01,2018-10-01
"8763","ASLER MAURICIO OSCAR C/ LOPEZ MANUEL HORACIO Y OTRO","ORDINARIO DAÑOS Y PERJUICIOS","28/09/2018","3","4","4","3",7671,"jdocco0100nog",2018-09-01,2018-10-01
"8763","ASLER MAURICIO OSCAR C/ LOPEZ MANUEL HORACIO Y OTRO","ORDINARIO DAÑOS Y PERJUICIOS","28/09/2018","4","4","4","4",7671,"jdocco0100nog",2018-09-01,2018-10-01
"8816","ROMERO, FELIPE MANUEL C/ BENTANCOR, JUAN CARLOS","ORDINARIO DAÑOS Y PERJUICIOS","25/09/2018","4","3","3","3",7671,"jdocco0100nog",2018-09-01,2018-10-01
"8816","ROMERO, FELIPE MANUEL C/ BENTANCOR, JUAN CARLOS","ORDINARIO DAÑOS Y PERJUICIOS","25/09/2018","4","4","4","4",7671,"jdocco0100nog",2018-09-01,2018-10-01
"7505","ALCOBO NANCY DAIANA BELEN C/ BALBI HUGO ALBERTO Y OTROS","ORDINARIO DAÑOS Y PERJUICIOS","04/09/2018","4","4","4","1",7709,"jdocco0200uru",2018-09-01,2018-10-01
"7505","ALCOBO NANCY DAIANA BELEN C/ BALBI HUGO ALBERTO Y OTROS","ORDINARIO DAÑOS Y PERJUICIOS","04/09/2018","4","4","4","4",7709,"jdocco0200uru",2018-09-01,2018-10-01
"7505","ALCOBO NANCY DAIANA BELEN C/ BALBI HUGO ALBERTO Y OTROS","ORDINARIO DAÑOS Y PERJUICIOS","04/09/2018","4","4","4","4",7709,"jdocco0200uru",2018-09-01,2018-10-01
"8737","SALDIVIA MARISA TRINIDAD C/ VILLAGRA RAMON ALBERTO Y OTRA","ORDINARIO DAÑOS Y PERJUICIOS","11/09/2018","4","4","4","1",7709,"jdocco0200uru",2018-09-01,2018-10-01
"8737","SALDIVIA MARISA TRINIDAD C/ VILLAGRA RAMON ALBERTO Y OTRA","ORDINARIO DAÑOS Y PERJUICIOS","11/09/2018","4","4","4","0",7709,"jdocco0200uru",2018-09-01,2018-10-01
"8088","VERGARA GOMEZ ANTONELLA MARIA SOLEDAD C/ GIORDANENGO FACUNDO ISMAEL","ORDINARIO FILIACION","12/09/2018","4","4","0","1",7709,"jdocco0200uru",2018-09-01,2018-10-01
"8775","BOUJON ANA MARIA C/ SOSA MARTINEZ RAMON Y OTROS","DESALOJO Y COBRO ALQUILERES","18/09/2018","4","4","4","1",7709,"jdocco0200uru",2018-09-01,2018-10-01
"8775","BOUJON ANA MARIA C/ SOSA MARTINEZ RAMON Y OTROS","DESALOJO Y COBRO ALQUILERES","18/09/2018","4","4","4","1",7709,"jdocco0200uru",2018-09-01,2018-10-01
"7765","FOCHESATTO ESTEBAN C/ PERALTA NELSON RAFAEL Y OTROS","ORDINARIO DAÑOS Y PERJUICIOS","20/09/2018","3","3","3","3",7709,"jdocco0200uru",2018-09-01,2018-10-01
"7765","FOCHESATTO ESTEBAN C/ PERALTA NELSON RAFAEL Y OTROS","ORDINARIO DAÑOS Y PERJUICIOS","20/09/2018","4","4","4","4",7709,"jdocco0200uru",2018-09-01,2018-10-01
NA,"AUDIENCIAS ORALIDAD","ESTADISTICAS","19/09/2018","4","3","4","4",7781,"jdocco0100col",2018-09-01,2018-10-01
NA,"AUDIENCIAS ORALIDAD","ESTADISTICAS","19/09/2018","4","4","4","2",7781,"jdocco0100col",2018-09-01,2018-10-01
NA,"AUDIENCIAS ORALIDAD","ESTADISTICAS","24/09/2018","4","4","4","3",7781,"jdocco0100col",2018-09-01,2018-10-01
NA,"AUDIENCIAS ORALIDAD","ESTADISTICAS","24/09/2018","4","4","4","3",7781,"jdocco0100col",2018-09-01,2018-10-01
NA,"AUDIENCIAS ORALIDAD","ESTADISTICAS","05/09/2018","4","4","4","2",7781,"jdocco0100col",2018-09-01,2018-10-01
NA,"ENCUESTAS","CIVIL Y COMERCIAL","03/09/2018","4","4","3","1",7826,"jdocco0200gch",2018-09-01,2018-10-01
NA,"ENCUESTAS","CIVIL Y COMERCIAL","03/09/2018","4","4","4","2",7826,"jdocco0200gch",2018-09-01,2018-10-01
NA,"ENCUESTAS","CIVIL Y COMERCIAL","03/09/2018","4","4","4","2",7826,"jdocco0200gch",2018-09-01,2018-10-01
NA,"ENCUESTAS","CIVIL Y COMERCIAL","03/09/2018","4","4","4","3",7826,"jdocco0200gch",2018-09-01,2018-10-01
"29249","ALMEIDA HECTOR","PRESCRIPCION ADQUISITIVA DE COSA MUEBLE","04/09/2018","4","4","4","4",7844,"jdocco0500pna",2018-09-01,2018-10-01
"29249","ALMEIDA HECTOR","PRESCRIPCION ADQUISITIVA DE COSA MUEBLE","04/09/2018","4","4","4","4",7844,"jdocco0500pna",2018-09-01,2018-10-01
NA,"ENCUESTAS","ADMINISTRATIVO","25/09/2018","4","4","4","4",7947,"jdocco0000fed",2018-09-01,2018-10-01
NA,"ENCUESTAS","PROCESOS ADMINISTRATIVOS","04/09/2018","4","4","4","4",8017,"jdocco0400con",2018-09-01,2018-10-01
NA,"ENCUESTAS","PROCESOS ADMINISTRATIVOS","04/09/2018","4","4","4","4",8017,"jdocco0400con",2018-09-01,2018-10-01
NA,"ENCUESTAS","PROCESOS ADMINISTRATIVOS","06/09/2018","4","4","4","4",8017,"jdocco0400con",2018-09-01,2018-10-01
NA,"ENCUESTAS","PROCESOS ADMINISTRATIVOS","04/09/2018","3","4","0","2",8017,"jdocco0400con",2018-09-01,2018-10-01
NA,"ENCUESTAS","PROCESOS ADMINISTRATIVOS","27/09/2018","4","4","4","4",8017,"jdocco0400con",2018-09-01,2018-10-01
NA,"ESTADISTICA ENCUESTAS","PROCESOS ADMINISTRATIVOS","19/09/2018","4","4","4","3",8082,"jdocco0000tal",2018-09-01,2018-10-01
NA,"ESTADISTICA ENCUESTAS","PROCESOS ADMINISTRATIVOS","19/09/2018","4","4","3","4",8082,"jdocco0000tal",2018-09-01,2018-10-01
NA,"ESTADISTICA ENCUESTAS","PROCESOS ADMINISTRATIVOS","05/09/2018","4","4","4","0",8082,"jdocco0000tal",2018-09-01,2018-10-01
NA,"ORALIDAD","PROCESOS ADMINISTRATIVOS","01/09/2018","4","4","4","4",8087,"jdocco0600pna",2018-09-01,2018-10-01
NA,"ENCUESTAS DE SATISFACCION PROCESO POR AUDIENCIAS","CIVIL Y COMERCIAL","06/09/2018","4","4","4","2",8165,"jdocco0200cha",2018-09-01,2018-10-01
NA,"ENCUESTAS DE SATISFACCION PROCESO POR AUDIENCIAS","CIVIL Y COMERCIAL","21/09/2018","4","4","4","2",8165,"jdocco0200cha",2018-09-01,2018-10-01
"19844","FERRERO LEONARDO JAVIER C/ ADMINISTRADORA SAN JUAN S.A.","ORDINARIO DAÑOS Y PERJUICIOS","06/09/2018","4","0","3","3",8175,"jdocco0700pna",2018-09-01,2018-10-01
"19844","FERRERO LEONARDO JAVIER C/ ADMINISTRADORA SAN JUAN S.A.","ORDINARIO DAÑOS Y PERJUICIOS","06/09/2018","4","4","3","4",8175,"jdocco0700pna",2018-09-01,2018-10-01
"19844","FERRERO LEONARDO JAVIER C/ ADMINISTRADORA SAN JUAN S.A.","ORDINARIO DAÑOS Y PERJUICIOS","06/09/2018","4","4","4","4",8175,"jdocco0700pna",2018-09-01,2018-10-01
"19845","FRETES VIVIANA ALEJANDRA C/ CIAN RICARDO AGUSTIN Y OTRO","ORDINARIO ACCIDENTES DE TRANSITO","25/09/2018","4","4","4","4",8175,"jdocco0700pna",2018-09-01,2018-10-01
"19845","FRETES VIVIANA ALEJANDRA C/ CIAN RICARDO AGUSTIN Y OTRO","ORDINARIO ACCIDENTES DE TRANSITO","25/09/2018","4","4","3","3",8175,"jdocco0700pna",2018-09-01,2018-10-01
"18424","RIOS MIGUEL ANDRES C/ TROSSERO GUSTAVO LEANDRO Y OTROS","ORDINARIO CUMPLIMIENTO DE CONTRATO","20/09/2018","4","4","4","4",8175,"jdocco0700pna",2018-09-01,2018-10-01
"18424","RIOS MIGUEL ANDRES C/ TROSSERO GUSTAVO LEANDRO Y OTROS","ORDINARIO CUMPLIMIENTO DE CONTRATO","20/09/2018","4","4","4","3",8175,"jdocco0700pna",2018-09-01,2018-10-01
"19410","RODRIGUEZ ANGELICA RAMONA Y OTROS C/ VIÑAS PEDRO Y/O SUS HEREDEROS Y/O SUS SUCESORES","USUCAPION","03/09/2018","4","4","4","3",8175,"jdocco0700pna",2018-09-01,2018-10-01
"19410","RODRIGUEZ ANGELICA RAMONA Y OTROS C/ VIÑAS PEDRO Y/O SUS HEREDEROS Y/O SUS SUCESORES","USUCAPION","03/09/2018","4","4","4","4",8175,"jdocco0700pna",2018-09-01,2018-10-01
"19410","RODRIGUEZ ANGELICA RAMONA Y OTROS C/ VIÑAS PEDRO Y/O SUS HEREDEROS Y/O SUS SUCESORES","USUCAPION","03/09/2018","4","4","4","4",8175,"jdocco0700pna",2018-09-01,2018-10-01
"18417","VERGARA ROSA CARMEN C/ HEREDEROS DE ANDRES SCHECHTEL Y OTROS","USUCAPION","11/09/2018","4","4","4","4",8175,"jdocco0700pna",2018-09-01,2018-10-01
"18417","VERGARA ROSA CARMEN C/ HEREDEROS DE ANDRES SCHECHTEL Y OTROS","USUCAPION","11/09/2018","4","4","4","3",8175,"jdocco0700pna",2018-09-01,2018-10-01
NA,"VOLCADO DE ENCUESTAS SATISFACCIÓN ORALIDAD","PROCESOS ADMINISTRATIVOS","18/09/2018","4","4","4","4",8175,"jdocco0700pna",2018-09-01,2018-10-01
NA,"VOLCADO DE ENCUESTAS SATISFACCIÓN ORALIDAD","PROCESOS ADMINISTRATIVOS","18/09/2018","4","4","4","0",8175,"jdocco0700pna",2018-09-01,2018-10-01
"AÑ0 2018","ESTADÍSTICAS ENCUESTAS CIVIL 2018","ADMINISTRATIVO","05/09/2018","4","4","4","4",8251,"jdocco0000frl",2018-09-01,2018-10-01
"AÑ0 2018","ESTADÍSTICAS ENCUESTAS CIVIL 2018","ADMINISTRATIVO","27/09/2018","4","4","4","3",8251,"jdocco0000frl",2018-09-01,2018-10-01
"AÑ0 2018","ESTADÍSTICAS ENCUESTAS CIVIL 2018","ADMINISTRATIVO","27/09/2018","4","4","4","3",8251,"jdocco0000frl",2018-09-01,2018-10-01
"AÑ0 2018","ESTADÍSTICAS ENCUESTAS CIVIL 2018","ADMINISTRATIVO","20/09/2018","4","4","4","4",8251,"jdocco0000frl",2018-09-01,2018-10-01
"AÑ0 2018","ESTADÍSTICAS ENCUESTAS CIVIL 2018","ADMINISTRATIVO","20/09/2018","4","4","4","4",8251,"jdocco0000frl",2018-09-01,2018-10-01
"10440","BAUER CARLOS ALFREDO MARTIN C/ FIRGORIFICO DE AVES SOYCHU S.A.","ORDINARIO DAÑOS Y PERJUICIOS","01/09/2018","4","4","4","4",8353,"jdocco0100gay",2018-09-01,2018-10-01
"10391","PINO SILVINA CELESTE C/ SUPERIOR GOBIERNO DE LA PROVINCIA DE ENTRE RÍOS  y otros","ORDINARIO DAÑOS Y PERJUICIOS","01/09/2018","4","4","4","3",8353,"jdocco0100gay",2018-09-01,2018-10-01
"10159","TABARES LUIS ALBERTO C/ CHEVROLET S.A. DE AHORROS PARA FINES DETERMINADOS","ORDINARIO DAÑOS Y PERJUICIOS","01/09/2018","4","4","4","3",8353,"jdocco0100gay",2018-09-01,2018-10-01
NA,"ENCUESTAS","TRAMITE","30/09/2018","4","4","4","4",8424,"jdocco0100cha",2018-09-01,2018-10-01
NA,"ENCUESTAS","TRAMITE","30/09/2018","3","3","3","3",8424,"jdocco0100cha",2018-09-01,2018-10-01
NA,"ENCUESTAS","TRAMITE","30/09/2018","4","4","4","4",8424,"jdocco0100cha",2018-09-01,2018-10-01
NA,"ENCUESTAS","TRAMITE","30/09/2018","4","4","4","4",8424,"jdocco0100cha",2018-09-01,2018-10-01
NA,"ENCUESTAS","TRAMITE","30/09/2018","3","3","3","4",8424,"jdocco0100cha",2018-09-01,2018-10-01
"8091","VILLALBA HECTOR HUGO C/ VERON MARIO MARCELO Y OTRA","ORDINARIO DAÑOS Y PERJUICIOS","01/09/2018","3","3","4","3",8513,"jdocco0200gay",2018-09-01,2018-10-01
"8091","VILLALBA HECTOR HUGO C/ VERON MARIO MARCELO Y OTRA","ORDINARIO DAÑOS Y PERJUICIOS","01/09/2018","4","4","4","3",8513,"jdocco0200gay",2018-09-01,2018-10-01
NA,"* * * *ENCUESTAS SATISFACCION DE AUDIENCIAS SETIEMBRE","ADMINISTRATIVO","11/09/2018","4","4","4","4",8534,"jdocco0200lpa",2018-09-01,2018-10-01
NA,"* * * *ENCUESTAS SATISFACCION DE AUDIENCIAS SETIEMBRE","ADMINISTRATIVO","11/09/2018","3","3","3","3",8534,"jdocco0200lpa",2018-09-01,2018-10-01
"1357","Villalba Ruben Hector C/ Cejas de Castro Rosa y otros","USUCAPION","04/09/2018","4","4","4","4",8534,"jdocco0200lpa",2018-09-01,2018-10-01
"1357","Villalba Ruben Hector C/ Cejas de Castro Rosa y otros","USUCAPION","04/09/2018","4","4","4","4",8534,"jdocco0200lpa",2018-09-01,2018-10-01
"7872","VELA AYELEN ITATI Y OTRO C/ SUPERIOR GOBIERNO DE LA PROVINCIA DE ENTRE RIOS","ORDINARIO DAÑOS Y PERJUICIOS","03/09/2018","4","4","4","4",8604,"jdocco0100uru",2018-09-01,2018-10-01
"7872","VELA AYELEN ITATI Y OTRO C/ SUPERIOR GOBIERNO DE LA PROVINCIA DE ENTRE RIOS","ORDINARIO DAÑOS Y PERJUICIOS","03/09/2018","4","4","4","2",8604,"jdocco0100uru",2018-09-01,2018-10-01
NA,"ENCUESTAS SATISFACCION","ADMINISTRATIVO","06/09/2018","2","2","1","0",8645,"jdocco0100lpa",2018-09-01,2018-10-01
NA,"ENCUESTAS SATISFACCION","ADMINISTRATIVO","18/09/2018","4","4","4","4",8645,"jdocco0100lpa",2018-09-01,2018-10-01
