Gobierno_Local,circunscripción,poblacion
municipio,1º De Mayo                                        ,1167
municipio,Alcaraz                                           ,2578
municipio,Aldea San Antonio                                 ,1483
municipio,Aldea Valle María                                 ,2427
municipio,Aranguren                                         ,1878
municipio,Basavilbaso                                       ,9742
municipio,Bovril                                            ,8790
municipio,Caseros                                           ,2339
municipio,Ceibas                                            ,1773
municipio,Cerrito                                           ,5729
municipio,Chajarí                                           ,34848
municipio,Colon                                             ,24835
municipio,Colonia Avellaneda                                ,3084
municipio,Colonia Ayui                                      ,2770
municipio,Colonia Elia                                      ,1566
municipio,Concepción Del Uruguay                            ,73729
municipio,Concordia                                         ,152282
municipio,Conscripto Bernardi                               ,1481
municipio,Crespo                                            ,20203
municipio,Diamante                                          ,19930
municipio,Enrique Carbo                                     ,1193
municipio,Estancia Grande                                   ,2512
municipio,Federación                                        ,17547
municipio,Federal                                           ,18015
municipio,General Campos                                    ,3149
municipio,General Galarza                                   ,4896
municipio,General Ramírez                                   ,9222
municipio,Gilbert                                           ,1097
municipio,Gobernador Mansilla                               ,2296
municipio,Gualeguay                                         ,43009
municipio,Gualeguaychú                                      ,83116
municipio,Hasenkamp                                         ,4925
municipio,Hernandarias                                      ,5770
municipio,Hernández                                         ,1790
municipio,Herrera                                           ,1767
municipio,Ibicuy                                            ,4900
municipio,La Criolla                                        ,2382
municipio,La Paz                                            ,25808
municipio,Larroque                                          ,6451
municipio,Los Charruas                                      ,3774
municipio,Los Conquistadores                                ,1287
municipio,Lucas González                                    ,4588
municipio,Macia                                             ,6306
municipio,María Grande                                      ,7694
municipio,Nogoyá                                            ,23702
municipio,Oro Verde                                         ,4333
municipio,Paraná                                            ,247863
municipio,Piedras Blancas                                   ,1767
municipio,Pronunciamiento                                   ,1252
municipio,Pueblo General Belgrano                           ,2179
municipio,Puerto Yerua                                      ,1696
municipio,Rosario Del Tala                                  ,13723
municipio,San Benito                                        ,9324
municipio,San Gustavo                                       ,1618
municipio,San Jaime De La Frontera                          ,4337
municipio,San José                                          ,18178
municipio,San José De Feliciano                             ,12084
municipio,San Justo                                         ,1726
municipio,San Salvador                                      ,13228
municipio,Santa Ana                                         ,1795
municipio,Santa Anita                                       ,1380
municipio,Santa Elena                                       ,17883
municipio,Sauce De Luna                                     ,2998
municipio,Seguí                                             ,3885
municipio,Tabossi                                           ,1542
municipio,Ubajay                                            ,3507
municipio,Urdinarrain                                       ,8986
municipio,Viale                                             ,9641
municipio,Victoria                                          ,31842
municipio,Villa Clara                                       ,2790
municipio,Villa Del Rosario                                 ,3973
municipio,Villa Domínguez                                   ,1858
municipio,Villa Elisa                                       ,11117
municipio,Villa Libertador San Martín                       ,6545
municipio,Villa Mantero                                     ,1495
municipio,Villa Paranacito                                  ,4215
municipio,Villa Urquiza                                     ,1615
municipio,Villaguay                                         ,34637
junta_gobierno,Alcaraz Norte                                     ,185
junta_gobierno,Alcaraz Sur                                       ,411
junta_gobierno,Aldea Asuncion                                    ,490
junta_gobierno,Aldea Brasilera                                   ,1135
junta_gobierno,Aldea Eigenfeld                                   ,146
junta_gobierno,Aldea Grapschental                                ,174
junta_gobierno,Aldea Maria Luisa                                 ,1128
junta_gobierno,Aldea Protestante                                 ,805
junta_gobierno,Aldea Salto                                       ,282
junta_gobierno,Aldea San Antonio                                 ,288
junta_gobierno,Aldea San Juan                                    ,387
junta_gobierno,Aldea San Miguel                                  ,306
junta_gobierno,Aldea San Rafael                                  ,368
junta_gobierno,Aldea Santa Maria                                 ,553
junta_gobierno,Aldea Spatzenkutter                               ,541
junta_gobierno,Altamirano Sur                                    ,177
junta_gobierno,Antelo                                            ,279
junta_gobierno,Antonio Tomas                                     ,261
junta_gobierno,Arroyo Baru                                       ,632
junta_gobierno,Arroyo Burgos                                     ,58
junta_gobierno,Arroyo Cle                                        ,119
junta_gobierno,Arroyo Del Medio                                  ,192
junta_gobierno,Arroyo Gena                                       ,134
junta_gobierno,Arroyo Las Tunas                                  ,148
junta_gobierno,Arroyo Maturrango                                 ,4
junta_gobierno,Arroyo Palo Seco                                  ,209
junta_gobierno,Banderas                                          ,235
junta_gobierno,Betbeder                                          ,246
junta_gobierno,Chilcas                                           ,190
junta_gobierno,Clodomiro Ledesma                                 ,224
junta_gobierno,Colonia Adivino                                   ,224
junta_gobierno,Colonia Alemana                                   ,395
junta_gobierno,Colonia Avigdor                                   ,692
junta_gobierno,Colonia Baylina                                   ,174
junta_gobierno,Colonia Carrasco                                  ,212
junta_gobierno,Colonia Celina                                    ,223
junta_gobierno,Colonia Crespo                                    ,264
junta_gobierno,Colonia Ensayo                                    ,543
junta_gobierno,Colonia General Roca                              ,969
junta_gobierno,Colonia La Argentina                              ,458
junta_gobierno,Colonia Merou                                     ,245
junta_gobierno,Colonia Oficial Nº 3 Y 14                         ,396
junta_gobierno,Colonia Oficial Nº5                               ,145
junta_gobierno,Colonia San Anselmo Y Aledañas                    ,318
junta_gobierno,Colonia Santa Maria Y Las Margaritas              ,335
junta_gobierno,Colonia Viraro                                    ,50
junta_gobierno,Costa Grande                                      ,731
junta_gobierno,Costa Uruguay Norte                               ,210
junta_gobierno,Crucesitas Octava                                 ,806
junta_gobierno,Cuchilla Redonda                                  ,153
junta_gobierno,Curtiembre                                        ,681
junta_gobierno,Distrito Chañar                                   ,642
junta_gobierno,Distrito Chiqueros                                ,190
junta_gobierno,Distrito Diego Lopez                              ,283
junta_gobierno,Distrito Pajonal                                  ,148
junta_gobierno,Distrito Primero                                  ,241
junta_gobierno,Distrito Sexto Costa De Nogoya                    ,757
junta_gobierno,Distrito Tala                                     ,97
junta_gobierno,Distrito Talitas                                  ,147
junta_gobierno,Don Cristobal Primero                             ,427
junta_gobierno,Don Cristobal Segundo                             ,735
junta_gobierno,Durazno                                           ,294
junta_gobierno,El Carmen - Estacion Racedo                       ,648
junta_gobierno,El Cimarron                                       ,604
junta_gobierno,El Gramiyal                                       ,90
junta_gobierno,El Palenque                                       ,521
junta_gobierno,El Pingo                                          ,931
junta_gobierno,El Quebracho                                      ,285
junta_gobierno,El Redomon                                        ,590
junta_gobierno,El Solar                                          ,534
junta_gobierno,Espinillo Norte                                   ,296
junta_gobierno,Estacion Camps                                    ,538
junta_gobierno,Estacion Escriña                                  ,128
junta_gobierno,Estacion Lazo                                     ,262
junta_gobierno,Estacion Libaros                                  ,270
junta_gobierno,Estacion Raices                                   ,386
junta_gobierno,Estacion Yerua                                    ,583
junta_gobierno,Estaquitas                                        ,377
junta_gobierno,Faustino M.  Parera                               ,195
junta_gobierno,Febre                                             ,382
junta_gobierno,General Almada                                    ,236
junta_gobierno,General Alvear                                    ,554
junta_gobierno,Gobernador Echague                                ,262
junta_gobierno,Gualeguaycito                                     ,308
junta_gobierno,Guardamonte                                       ,163
junta_gobierno,Hambis                                            ,237
junta_gobierno,Hinojal                                           ,65
junta_gobierno,Hocker                                            ,98
junta_gobierno,Ingeniero Sajaroff                                ,428
junta_gobierno,Irazusta                                          ,309
junta_gobierno,Islas Las Lechiguanas                             ,261
junta_gobierno,Isletas                                           ,629
junta_gobierno,Jubileo                                           ,806
junta_gobierno,Justo Jose De Urquiza                             ,562
junta_gobierno,La Clarita                                        ,556
junta_gobierno,La Esmeralda                                      ,350
junta_gobierno,La Florida                                        ,406
junta_gobierno,La Fraternidad Y Santa Juana                      ,336
junta_gobierno,La Hierra                                         ,96
junta_gobierno,La Ollita                                         ,53
junta_gobierno,La Picada                                         ,689
junta_gobierno,La Providencia                                    ,311
junta_gobierno,La Verbena                                        ,464
junta_gobierno,Laguna Benitez                                    ,447
junta_gobierno,Laguna Del Pescado                                ,142
junta_gobierno,Las Cuevas                                        ,1094
junta_gobierno,Las Garzas                                        ,395
junta_gobierno,Las Guachas                                       ,121
junta_gobierno,Las Mercedes                                      ,92
junta_gobierno,Las Moscas                                        ,447
junta_gobierno,Las Tunas                                         ,532
junta_gobierno,Laurencena                                        ,229
junta_gobierno,Lucas Norte                                       ,1552
junta_gobierno,Lucas Sur Primero                                 ,620
junta_gobierno,Lucas Sur Segundo                                 ,1265
junta_gobierno,Maria Grande 2º                                   ,297
junta_gobierno,Medanos                                           ,574
junta_gobierno,Mojones Norte                                     ,886
junta_gobierno,Mojones Sur                                       ,687
junta_gobierno,Molino Doll                                       ,139
junta_gobierno,Mulas Grandes                                     ,153
junta_gobierno,Nueva Escocia                                     ,528
junta_gobierno,Nueva Vizcaya                                     ,681
junta_gobierno,Ombu                                              ,323
junta_gobierno,Paraje Guayaquil                                  ,384
junta_gobierno,Paraje Los Algarrobos                             ,390
junta_gobierno,Paso De La Arena                                  ,315
junta_gobierno,Paso De La Laguna                                 ,747
junta_gobierno,Paso De Las Piedras                               ,112
junta_gobierno,Paso Duarte                                       ,547
junta_gobierno,Pastor Britos                                     ,147
junta_gobierno,Pedernal                                          ,648
junta_gobierno,Picada Beron                                      ,204
junta_gobierno,Pueblo Brugo                                      ,946
junta_gobierno,Pueblo Cazes                                      ,345
junta_gobierno,Pueblo Liebig S                                   ,770
junta_gobierno,Puerto Algarrobo                                  ,330
junta_gobierno,Quebracho                                         ,308
junta_gobierno,Raices Oeste                                      ,1101
junta_gobierno,Rincon De Nogoya                                  ,947
junta_gobierno,Rincon Del Cinto                                  ,76
junta_gobierno,Rincon Del Doll                                   ,597
junta_gobierno,Rincon Del Gato                                   ,36
junta_gobierno,Rocamora                                          ,596
junta_gobierno,San Cipriano                                      ,748
junta_gobierno,San Ernesto                                       ,258
junta_gobierno,San Justo                                         ,223
junta_gobierno,San Marcial                                       ,776
junta_gobierno,San Pedro                                         ,1003
junta_gobierno,San Ramirez                                       ,201
junta_gobierno,San Ramon                                         ,458
junta_gobierno,San Roque                                         ,228
junta_gobierno,San Victor                                        ,720
junta_gobierno,Santa Lucia                                       ,131
junta_gobierno,Santa Luisa                                       ,366
junta_gobierno,Sauce Montrull                                    ,837
junta_gobierno,Sauce Pinto                                       ,177
junta_gobierno,Saucecito                                         ,187
junta_gobierno,Sir Leonard                                       ,365
junta_gobierno,Sola                                              ,533
junta_gobierno,Sosa                                              ,616
junta_gobierno,Tala                                              ,618
junta_gobierno,Tezanos Pinto                                     ,319
junta_gobierno,Villa Fontana                                     ,229
junta_gobierno,Villa Gobernador Etchevehere                      ,370
junta_gobierno,Walter Moss                                       ,188
junta_gobierno,Xx De Setiembre                                   ,416
junta_gobierno,Yacare                                            ,489
junta_gobierno,Yeso Oeste                                        ,604
